# PIPER geometrical reference model based on a manual segmentation. See the
# documentation for more info.
# Author: CEESAR, SOTON, UCBL-Ifsttar
# Version: 1.0.0
# License: Creative Commons Attribution 4.0 International License.
# (https://creativecommons.org/licenses/by/4.0/)
# 
# This work has received funding from the European Union Seventh Framework
# Program ([FP7/2007-2013]) under grant agreement 605544 [PIPER project]).
# Contributors include Pierre Maillez, Christophe Lecomte (SOTON), Erwan
# Jolivet (CEESAR), Philippe Beillas (UCBL-Ifsttar)
# This work is derived from a CT scan provided by CEESAR under a CCBY-4.0
# License
# 
# wavefront obj file written by the visualization toolkit

mtllib C:/desktop/registration_reference_model/22_REF_LTE635_Assembly_hands_corr/CCTs635_BP038_Thoracic_T02.mtl

v 31.441 121.926 -418.142
v 77.348 117.816 -400.575
v 78.527 115.817 -400.285
v 72.793 119.144 -397.211
v 74.631 120.482 -398.657
v 76.695 119.175 -398.881
v 69.667 121.029 -399.43
v 68.741 119.403 -399.011
v 75.615 118.551 -396.677
v 75.634 115.662 -397.147
v 73.243 117.093 -397.003
v 27.863 127.092 -423.184
v 72.973 114.75 -397.705
v 69.915 112.528 -400.002
v 74.266 117.227 -403.987
v 71.938 121.117 -398.861
v 69.694 121.228 -403.113
v 68.994 122.285 -400.984
v 70.844 120.962 -400.956
v 72.889 119.006 -404.167
v 75.316 118.466 -401.681
v 76.66 115.115 -402.768
v 73.15 116.838 -405.713
v 76.53 112.689 -401.862
v 73.633 115.327 -403.919
v 74.836 113.633 -403.424
v 72.415 113.671 -402.847
v 68.032 112.605 -403.691
v 70.082 114.047 -404.284
v 72.082 114.648 -405.128
v 71.355 112.906 -406.183
v 69.408 118.61 -407.052
v 69.608 119.916 -405.588
v 71.262 116.576 -407.242
v 66.783 117.718 -408.667
v 63.47 127.517 -399.612
v 61.436 128.536 -400.552
v 13.423 114.44 -392.481
v 65.272 126.268 -400.775
v 63.183 125.953 -399.055
v 57.828 127.431 -399.855
v 38.197 83.793 -415.218
v 55.795 126.657 -400.728
v 66.152 121.904 -399.923
v 63.927 121.71 -399.539
v 67.167 116.409 -399.286
v 64.715 118.808 -399.842
v 61.491 121.292 -399.544
v 58.658 124.953 -399.645
v 37.799 81.779 -413.881
v 29.989 126.392 -424.664
v 39.472 80.722 -411.55
v 67.515 113.951 -399.829
v 55.854 124.986 -399.123
v 63.398 127.331 -402.094
v 37.729 84.661 -412.766
v 67.055 123.02 -400.693
v 66.065 124.288 -402.285
v 64.255 125.791 -402.961
v 59.077 128.285 -401.496
v 57.072 127.367 -402.073
v 60.926 127.468 -403.479
v 58.433 127.967 -403.79
v 57.759 128.808 -405.715
v 41.654 82.751 -414.622
v 42.14 81.161 -412.245
v 59.449 127.321 -405.79
v 60.883 125.057 -405.583
v 58.703 124.564 -408.338
v 56.028 127.489 -404.378
v 53.316 123.824 -401.009
v 54.937 125.422 -402.569
v 53.934 125.087 -404.42
v 55.418 129.312 -405.684
v 53.883 131.902 -408.51
v 48.676 129.111 -406.935
v 38.983 88.739 -411.607
v 50.706 131.086 -407.341
v 39.622 88.373 -413.62
v 51.378 133.325 -410.052
v 50.967 129.15 -406.405
v 52.572 125.608 -405.837
v 40.389 85.643 -415.276
v 50.607 126.792 -407.04
v 67.432 122.324 -402.595
v 65.257 122.695 -404.321
v 57.973 121.213 -400.2
v 64.687 116.291 -400.227
v 41.617 87.923 -414.051
v 65.995 112.963 -402.423
v 64.09 114.52 -401.552
v 63.292 113.61 -403.547
v 43.277 87.698 -412.3
v 60.661 116.496 -400.834
v 60.057 114.97 -402.528
v 43.883 98.939 -416.685
v 66.54 120.993 -404.833
v 56.151 127.333 -420.918
v 41.783 97.845 -416.415
v 66.624 119.279 -407.44
v 61.909 122.268 -406.343
v 59.879 123.067 -407.472
v 60.705 119.3 -409.683
v 58.946 119.748 -410.703
v 39.606 92.026 -411.985
v 69.401 113.094 -408.284
v 65.444 113.565 -408.724
v 65.585 115.461 -409.569
v 63.321 113.433 -408.254
v 58.076 113.16 -405.863
v 39.576 95.308 -412.552
v 62.567 116.118 -410.746
v 51.887 121.405 -401.537
v 51.88 121.127 -403.944
v 56.292 117.744 -401.233
v 55.386 115.501 -402.362
v 53.284 118.808 -400.86
v 51.384 114.814 -401.719
v 56.771 114.281 -403.933
v 50.249 117.814 -402.154
v 48.074 115.256 -403.585
v 49.017 114.221 -401.894
v 46.667 113.547 -402.605
v 49.313 116.823 -404.627
v 47.052 114.333 -404.995
v 51.853 121.597 -406.343
v 51.279 119.283 -408.756
v 51.201 121.829 -408.655
v 42.421 92.383 -414.219
v 50.51 117.58 -407.777
v 51.208 117.045 -410.287
v 48.608 115.071 -407.285
v 40.622 94.321 -414.042
v 15.992 120.819 -389.175
v 13.902 120.294 -389.577
v 42.747 94.764 -415.388
v 15.246 118.262 -388.962
v 43.659 135.099 -410.014
v 42.168 138.146 -411.935
v 43.787 91.724 -412.678
v 45.299 94.548 -411.511
v 33.284 135.614 -409.237
v 39.172 99.402 -414.289
v 36.034 123.068 -398.059
v 27.241 129.885 -394.729
v 46.218 120.87 -419.837
v 63.694 114.346 -409.921
v 61.265 113.019 -406.825
v 29.285 130.775 -395.863
v 15.332 117.128 -400.488
v 38.406 100.027 -412.316
v 44.056 96.806 -415.913
v 26.058 127.951 -395.059
v 26.814 129.561 -396.902
v 31.349 128.442 -395.311
v 33.956 126.118 -396.803
v 32.413 126.307 -396.099
v 33.456 127.473 -397.889
v 31.988 128.703 -399.15
v 29.544 129.102 -399.593
v 35.68 125.027 -398.615
v 28.504 128.171 -394.748
v 34.208 106.452 -413.839
v 25.22 125.863 -395.952
v 27.868 128.156 -399.621
v 36.191 120.528 -398.724
v 37.625 118.889 -400.258
v 35.738 117.93 -399.281
v 34.206 123.66 -397.146
v 31.524 119.956 -397.986
v 27.704 121.21 -396.469
v 30.825 123.803 -396.094
v 38.774 120.792 -420.4
v 25.998 123.398 -396.032
v 29.067 118.991 -397.56
v 34.389 105.574 -411.335
v 32.443 106.575 -412.338
v 26.918 118.655 -396.279
v 27.045 117.009 -397.187
v 28.683 115.303 -400.256
v 36.783 131.134 -404.809
v 35.585 127.409 -402.92
v 38.011 129.22 -404.913
v 36.364 123.073 -402.293
v 36.38 124.257 -404.148
v 28.306 109.671 -410.602
v 44.511 131.973 -407.24
v 44.728 129.91 -407.006
v 28.927 109.427 -413.036
v 44.029 128.733 -408.691
v 41.467 130.26 -406.389
v 40.101 128.109 -407.85
v 41.811 134.01 -408.571
v 40.484 132.241 -406.238
v 37.049 125.757 -405.553
v 39.116 125.938 -410.493
v 38.328 126.946 -406.823
v 31.264 129.655 -401.803
v 33.646 128.553 -401.489
v 29.649 128.36 -403.08
v 33.221 131.154 -402.99
v 30.995 130.878 -403.946
v 35.111 125.772 -400.864
v 24.884 121.681 -394.984
v 27.659 125.696 -402.007
v 35.3 109.08 -413.387
v 35.35 133.155 -406.74
v 32.467 132.311 -404.528
v 32.315 133.246 -406.845
v 30.869 131.341 -406.076
v 31.464 133.395 -409.298
v 30.642 130.73 -409.096
v 32.535 108.604 -414.094
v 30.639 107.786 -412.912
v 29.033 124.418 -408.319
v 30.29 128.853 -407.911
v 37.02 121.797 -400.332
v 41.096 114.326 -402.516
v 44.885 113.372 -404.364
v 42.831 113.44 -403.586
v 38.38 118.067 -402.175
v 34.573 113.228 -411.835
v 39.695 113.393 -401.042
v 39.459 115.505 -401.406
v 37.712 116.649 -400.246
v 40.905 114.549 -404.23
v 37.425 102.133 -413.567
v 36.32 123.011 -407.019
v 36.714 120.083 -404.693
v 36.07 121.281 -406.256
v 35.347 104.857 -413.359
v 31.657 127.744 -420.728
v 38.149 117.28 -404.602
v 38.419 103.64 -414.558
v 36.354 115.382 -408.883
v 37.029 106.527 -413.65
v 35.404 118.107 -407.632
v 40.156 113.764 -406.948
v 28.093 122.992 -406.339
v 26.773 120.97 -405.985
v 30.961 116.376 -399.826
v 37.036 115.072 -400.438
v 33.393 115.471 -400.605
v 32.895 113.631 -402.304
v 27.622 114.375 -402.173
v 42.206 103.771 -415.523
v 26.226 114.12 -403.818
v 34.111 119.982 -408.796
v 35.392 122.177 -409.319
v 32.665 120.984 -410.682
v 30.27 129.246 -416.618
v 31.195 120.073 -409.681
v 42.112 105.898 -414.299
v 29.609 121.845 -409.249
v 33.154 117.623 -409.215
v 30.123 118.831 -409.346
v 38.361 135.841 -409.89
v 27.264 117.871 -408.306
v 24.467 115.386 -405.503
v 25.634 114.911 -407.461
v 26.247 113.747 -406.238
v 29.42 116.946 -410.055
v 25.823 116.701 -407.574
v 25.731 114.439 -409.666
v 53.395 121.837 -399.776
v 38.105 110.185 -411.601
v 21.728 124.276 -394.687
v 20.459 123.396 -392.453
v 18.875 123.772 -394.495
v 23.809 124.468 -396.011
v 24.508 125.896 -397.877
v 25.806 125.383 -400.073
v 22.659 124.155 -399.301
v 65.473 124.07 -399.911
v 19.481 122.144 -390.66
v 44.896 109.453 -411.715
v 18.451 119.992 -389.417
v 21.312 121.857 -391.81
v 22.994 120.19 -392.472
v 16.922 122.405 -390.314
v 30.703 135.249 -412.317
v 17.951 123.382 -392.19
v 45.28 97.416 -414.755
v 46.067 100.636 -415.93
v 16.126 122.602 -392.596
v 15.442 121.173 -396.224
v 44.327 101.737 -416.4
v 48.223 102.574 -414.94
v 19.861 115.431 -391.95
v 39.016 121.819 -418.274
v 23.774 116.536 -394.304
v 22.09 117.896 -391.96
v 18.795 113.773 -393.299
v 17.134 115.54 -390.31
v 46.746 99.282 -413.651
v 47.068 99.204 -410.848
v 15.673 113.117 -392.972
v 16.623 113.497 -395.443
v 14.02 113.764 -395.312
v 49.791 104.977 -415.236
v 20.805 124.048 -396.926
v 18.651 122.474 -398.906
v 14.462 119.67 -396.439
v 24.886 115.58 -396.819
v 18.963 113.436 -396.078
v 46.19 106.227 -414.657
v 21.268 113.917 -396.9
v 25.335 114.907 -399.345
v 47.927 105.271 -415.556
v 19.409 114.876 -398.081
v 21.361 114.152 -399.319
v 17.551 115.434 -396.742
v 39.491 82.074 -416.357
v 49.225 102.584 -413.109
v 15.852 116.973 -397.682
v 17.391 115.786 -399.309
v 14.574 121.805 -390.904
v 14.314 115.416 -390.477
v 12.206 116.979 -391.869
v 12.744 119.372 -392.141
v 12.342 116.13 -394.661
v 13.981 115.988 -396.388
v 31.864 125.281 -419.936
v 32.443 120.024 -418.904
v 24.733 121.658 -402.844
v 52.168 105.585 -414.22
v 24.454 120.169 -404.538
v 21.282 119.564 -403.532
v 20.144 122.493 -400.698
v 17.201 121.667 -400.93
v 19.103 120.608 -402.518
v 14.971 119.927 -400.237
v 16.814 119.036 -402.231
v 70.162 112.642 -402.201
v 20.016 114.305 -400.803
v 24.03 117.796 -405.713
v 19.53 117.691 -403.113
v 23.801 114.721 -402.888
v 22.579 116.408 -404.688
v 20.613 115.6 -403.158
v 17.599 116.369 -401.823
v 14.448 118.26 -397.441
v 74.504 111.574 -400.216
v 74.229 112.72 -398.634
v 77.222 113.756 -398.973
v 41.946 122.316 -422.679
v 73.983 111.726 -402.59
v 72.082 111.638 -401.194
v 50.808 104.713 -411.642
v 69.235 112.011 -405.82
v 31.736 124.397 -417.391
v 66.795 111.566 -405.631
v 63.968 113.068 -406.975
v 67.328 112.092 -407.866
v 57.648 111.502 -408.848
v 59.875 112.076 -409.781
v 51.067 106.308 -409.038
v 51.227 112.813 -402.388
v 48.395 111.86 -401.688
v 50.832 111.104 -403.067
v 47.535 109.222 -401.883
v 48.197 107.302 -403.226
v 53.718 106.629 -412.46
v 46.56 102.971 -404.505
v 42.11 122.04 -418.692
v 50.564 107.706 -414.979
v 72.363 120.45 -402.299
v 52.607 110.336 -405.691
v 54.869 112.533 -405.37
v 49.061 109.31 -414.393
v 54.073 110.257 -407.927
v 53.032 107.11 -410.845
v 32.467 120.913 -417.006
v 46.212 113.095 -407.353
v 49.165 106.062 -405.78
v 30.69 123.236 -419.429
v 47.152 110.324 -412.357
v 27.826 111.608 -412.611
v 53.26 108.117 -414.096
v 48.289 102.108 -409.025
v 55.421 108.373 -412.936
v 46.656 99.629 -407.636
v 44.848 110.798 -401.09
v 44.422 112.564 -402.336
v 42.035 112.384 -401.482
v 39.983 110.989 -401.108
v 44.499 108.668 -400.82
v 37.031 112.867 -401.219
v 37.505 110.76 -401.978
v 34.149 110.441 -405.015
v 56.889 110.464 -412.815
v 42.898 106.469 -401.14
v 45.343 106.096 -401.64
v 44.644 102.414 -402.6
v 42.448 104.801 -401.837
v 40.232 104.211 -403.63
v 57.138 109.885 -411.045
v 39.186 106.877 -402.783
v 55.299 111.536 -413.14
v 44.663 111.569 -409.287
v 42.924 112.829 -407.008
v 41.341 110.001 -411.271
v 39.243 112.525 -409.372
v 37.492 106.032 -405.47
v 27.107 114.436 -411.676
v 37.956 103.635 -407.501
v 37.232 102.802 -411.495
v 35.947 105.69 -408.85
v 31.323 112.676 -404.1
v 36.137 122.087 -414.942
v 31.982 107.555 -411.173
v 27.862 112.375 -406.749
v 26.128 111.894 -410.394
v 34.199 108.855 -407.176
v 43.325 100.492 -403.054
v 41.896 102.156 -402.997
v 41.735 99.357 -404.331
v 43.379 96.858 -404.334
v 41.937 94.771 -405.187
v 31.156 121.618 -422.519
v 44.902 99.205 -404.34
v 40.475 100.234 -405.425
v 38.481 100.775 -409.899
v 39.257 98.907 -408.033
v 45.354 94.959 -408.081
v 44.29 94.726 -405.725
v 32.946 120.434 -421.067
v 40.037 94.663 -407.449
v 29.724 111.358 -413.12
v 39.192 94.838 -410.095
v 39.425 91.258 -409.338
v 42.411 91.126 -405.496
v 41.392 88.206 -405.129
v 42.24 85.749 -404.596
v 43.843 90.69 -406.248
v 44.534 90.113 -408.061
v 41.021 91.726 -406.363
v 43.871 87.946 -405.678
v 44.384 90.131 -410.192
v 30.528 132.78 -418.995
v 39.676 86.451 -405.964
v 39.03 88.403 -408.938
v 44.186 84.832 -405.883
v 43.011 83.891 -405.452
v 41.012 83.72 -405.454
v 40.89 82.161 -407.396
v 44.707 86.423 -408.093
v 43.562 84.281 -411.631
v 41.696 81.214 -409.234
v 43.497 82.812 -409.809
v 39.141 83.97 -407.226
v 39.124 82.198 -409.231
v 45.461 120.634 -422.151
v 38.413 84.987 -408.505
v 52.432 140.305 -415.092
v 47.408 141.378 -414.452
v 28.918 114.527 -411.634
v 53.273 134.862 -411.527
v 51.657 139.323 -413.88
v 55.507 136.055 -415.311
v 54.663 136.268 -413.138
v 51.875 141.379 -416.717
v 47.741 143.754 -416.535
v 46.728 145.137 -418.581
v 50.104 142.249 -418.536
v 32.698 127.433 -417.943
v 29.223 126.189 -409.751
v 54.049 139.204 -416.568
v 52.806 139.148 -419.002
v 27.959 124.643 -422.204
v 29.883 128.273 -425.221
v 48.438 140.191 -421.612
v 51.2 136.88 -423.094
v 48.023 137.041 -427.806
v 45.545 139.173 -426.288
v 45.26 139.001 -428.467
v 46.52 138.213 -430.59
v 48.318 136.8 -429.907
v 48.218 134.845 -430.775
v 46.631 135.698 -430.569
v 56.409 130.997 -408.791
v 57.478 128.614 -409.575
v 57.217 123.894 -411.619
v 30.56 122.14 -416.071
v 55.005 133.404 -410.873
v 56.444 130.763 -412.077
v 55.848 133.15 -413.475
v 56.013 129.524 -415.365
v 48.614 126.99 -408.428
v 47.974 125.488 -410.892
v 55.922 132.057 -416.368
v 29.45 124.946 -415.72
v 55.821 128.294 -419.069
v 56.367 126.074 -415.25
v 56.162 123.835 -416.238
v 33.387 115.282 -410.843
v 57.223 121.809 -412.093
v 29.586 123.194 -413.649
v 55.861 121.553 -413.964
v 57.449 119.062 -411.806
v 58.841 113.035 -411.597
v 59.572 116.669 -410.997
v 54.022 119.239 -413.047
v 29.259 123.054 -423.508
v 31.552 130.238 -419.154
v 34.833 122.271 -412.135
v 32.728 123.112 -422.579
v 52.131 120.739 -414.082
v 50.147 122.896 -410.415
v 51.13 121.099 -412.25
v 48.905 122.44 -414.757
v 55.765 117.122 -412.205
v 53.791 116 -412.081
v 52.414 118.52 -411.682
v 52.148 115.366 -411.993
v 52.295 110.851 -413.704
v 49.792 114.018 -411.519
v 53.938 120.687 -414.773
v 52.814 120.569 -417.214
v 51.117 118.708 -420.854
v 54.976 121.876 -417.064
v 56.241 124.883 -419.435
v 47.391 122.584 -416.631
v 50.365 120.793 -417.357
v 30.368 131.967 -416.711
v 42.155 121.276 -420.565
v 47.689 119.668 -420.991
v 54.629 134.192 -420.162
v 53.792 133.762 -422.579
v 32.371 132.149 -426.807
v 50.411 135.718 -425.492
v 55.713 129.343 -423.161
v 54.306 124.581 -423.348
v 54.565 130.129 -425.077
v 55.507 126.298 -425.004
v 55.317 123.538 -425.344
v 32.676 129.109 -426.174
v 50.667 134.504 -427.003
v 53.37 130.282 -428.238
v 50.216 134.827 -429.521
v 30.869 131.402 -424.557
v 48.873 132.749 -429.968
v 55.235 127.674 -426.702
v 51.853 129.323 -429.39
v 54 127.445 -428.571
v 52.14 126.371 -428.208
v 54.475 124.719 -427.573
v 47.652 130.432 -428.327
v 54.443 122.597 -422.901
v 55.267 120.141 -421.161
v 53.736 120.002 -423.57
v 53.206 118.503 -421.637
v 29.772 128.55 -421.255
v 53.855 121.64 -425.233
v 32.628 134.187 -423.879
v 51.38 119.133 -423.205
v 29.535 129.619 -422.602
v 28.807 125.897 -412.826
v 52.049 121.533 -425.351
v 29.519 124.341 -420.953
v 47.761 125.518 -425.752
v 49.104 118.984 -422.361
v 51.468 123.932 -426.562
v 47.429 120.704 -423.268
v 45.172 144.771 -416.357
v 42.864 145.995 -418.811
v 44.02 145.251 -420.761
v 38.549 144.055 -416.58
v 35.154 132.469 -428.007
v 29.284 122.338 -420.972
v 31.165 122.093 -412.161
v 37.399 142.495 -413.905
v 48.059 137.09 -412.364
v 40.611 141.795 -413.589
v 35.711 139.158 -411.438
v 32.978 121.746 -412.687
v 44.508 131.489 -428.041
v 40.485 144.174 -415.731
v 39.479 144.749 -418.826
v 37.5 142.662 -418.876
v 38.296 142.202 -420.744
v 36.178 140.349 -419.499
v 35.462 141.692 -414.159
v 36.041 142.501 -416.284
v 34.743 125.584 -423.537
v 32.164 137.22 -410.927
v 33.853 139.533 -412.732
v 34.392 138.835 -415.132
v 31.658 135.606 -415.179
v 35.547 139.027 -417.336
v 32.231 135.816 -419.239
v 37.91 122.046 -422.496
v 46.746 143.983 -420.643
v 41.411 144.727 -421.206
v 29.177 127.243 -414.918
v 42.652 142.662 -423.496
v 45.754 140.1 -424.141
v 43.938 141.297 -424.327
v 40.076 141.55 -424.395
v 35.159 138.403 -422.314
v 44.658 128.426 -426.183
v 42.082 140.515 -426.897
v 39.123 140.091 -426.28
v 41.099 124.977 -423.961
v 43.921 138.898 -430.698
v 45.362 122.776 -423.891
v 44.422 136.482 -430.713
v 42.102 137.074 -430.312
v 38.377 129.653 -426.056
v 39.66 139.958 -427.868
v 36.564 137.666 -429.322
v 45.547 122.255 -418.071
v 29.536 123.864 -411.273
v 42.531 134.041 -429.113
v 38.046 133.34 -428.154
v 30.058 131.746 -420.75
v 39.465 137.85 -430.107
v 34.923 120.167 -418.384
v 38.07 135.469 -429.17
v 35.356 134.999 -429.672
v 36.332 138.038 -425.632
v 34.002 134.68 -427.312
v 46.338 127.735 -409.112
v 30.325 120.704 -419.948
v 42.383 127.502 -412.123
v 45.12 125.314 -414.95
v 43.102 126.042 -414.772
v 40.884 123.838 -416.618
v 29.589 130.099 -413.744
v 37.038 124.048 -409.915
v 40.827 126.235 -413.767
v 35.264 120.113 -420.7
v 41.736 139.101 -430.284
v 78.452 117.224 -397.854
v 13.398 118.164 -389.508
v 40.439 79.932 -414.363
v 41.985 83.901 -405.409
v 43.946 145.444 -417.735
v 41.408 81.5 -408.728
v 33.572 136.393 -409.797
v 54.048 135.645 -412.425
v 44.474 131.418 -407.157
v 29.767 126.465 -424.51
v 42.508 138.086 -430.411
v 53.63 123.907 -426.963
v 41.35 122.029 -422.251
v 78.362 116.354 -398.89
v 13.193 117.014 -390.634
vn -0.912799 -0.320688 0.252897
vn 0.681256 0.561069 -0.470204
vn 0.970289 -0.0481791 -0.237104
vn -0.19931 0.368017 0.908207
vn 0.36404 0.907941 0.207648
vn 0.608062 0.793888 0.00167996
vn 0.0268461 0.697997 0.715598
vn -0.249666 0.197159 0.948048
vn 0.245923 0.368413 0.896546
vn 0.173309 -0.336295 0.925672
vn -0.220419 -0.107764 0.969434
vn -0.976452 0.133336 -0.169596
vn -0.196774 -0.376928 0.9051
vn -0.263597 -0.83214 0.487914
vn 0.710913 0.231358 -0.664135
vn -0.0116631 0.91229 0.409378
vn 0.349412 0.861694 -0.367961
vn 0.395196 0.904702 0.159167
vn 0.305141 0.951405 -0.0414416
vn 0.545862 0.629624 -0.552818
vn 0.583846 0.630233 -0.511791
vn 0.654441 0.0150779 -0.755962
vn 0.707797 0.0506763 -0.704596
vn 0.668034 -0.648487 -0.364959
vn 0.472333 -0.399945 -0.785459
vn 0.211199 -0.318733 -0.924016
vn 0.00302249 -0.674311 -0.738441
vn 0.201241 -0.961389 0.187707
vn 0.434446 -0.899903 0.0378277
vn 0.692814 -0.631338 -0.348456
vn 0.747026 -0.661817 -0.0628483
vn 0.403116 0.57449 -0.712361
vn 0.335339 0.749417 -0.570895
vn 0.583683 0.163382 -0.795375
vn 0.328631 0.393497 -0.858581
vn 0.363023 0.685249 0.631386
vn 0.119357 0.949358 0.290644
vn -0.664155 -0.685342 0.298672
vn 0.803937 0.567458 0.177976
vn 0.184654 0.172209 0.967598
vn -0.261632 0.672595 0.692218
vn -0.753722 0.185167 -0.630569
vn -0.622279 0.745881 0.237553
vn 0.15 0.201254 0.967986
vn 0.109693 -0.0665905 0.991732
vn -0.312678 -0.124705 0.941637
vn -0.100195 -0.0663217 0.992755
vn -0.0960651 -0.141951 0.985201
vn -0.0204202 -0.0395693 0.999008
vn -0.879498 -0.45032 -0.15393
vn -0.282177 -0.368635 -0.885711
vn -0.363639 -0.894375 0.260498
vn -0.375045 -0.526355 0.76308
vn -0.24942 0.179308 0.95165
vn 0.47998 0.78352 -0.394608
vn -0.98679 0.151185 -0.0582087
vn 0.589438 0.64595 0.485088
vn 0.772051 0.564591 -0.291848
vn 0.55344 0.560799 -0.615799
vn -0.179546 0.983668 0.0126725
vn -0.476063 0.874113 0.0963894
vn 0.352681 0.816044 -0.457918
vn 0.0347438 0.998017 0.0524864
vn 0.430556 0.846253 0.313811
vn 0.760171 -0.158706 -0.630042
vn 0.683907 -0.71991 -0.118327
vn 0.717281 0.612487 -0.332215
vn 0.606273 0.41982 -0.675414
vn 0.828008 0.223833 -0.514103
vn -0.380516 0.688897 0.616951
vn -0.799682 0.539437 0.26366
vn -0.756189 0.648692 0.0858887
vn -0.745639 0.438152 0.502041
vn 0.0554248 0.684542 0.726863
vn 0.168273 0.771931 0.613031
vn -0.21445 -0.184692 0.959114
vn -0.963141 0.235738 -0.129565
vn 0.00304624 0.581008 0.813892
vn -0.638943 0.293829 -0.710926
vn 0.129401 0.694344 0.707914
vn -0.270975 0.176248 0.946313
vn -0.630463 -0.00884233 0.776169
vn 0.145668 0.301601 -0.942241
vn -0.573127 -0.326045 0.751811
vn 0.487856 0.75823 -0.432532
vn 0.487249 0.520134 -0.701462
vn -0.0730505 -0.196863 0.977706
vn -0.279369 -0.318556 0.905801
vn 0.375201 0.112824 -0.920052
vn -0.285207 -0.877791 0.384889
vn -0.321018 -0.686317 0.652622
vn -0.287438 -0.896061 0.338312
vn 0.833306 -0.0500363 -0.550543
vn -0.172535 -0.464761 0.868463
vn -0.152958 -0.798702 0.581961
vn 0.20015 -0.131574 -0.97089
vn 0.339223 0.746832 -0.571987
vn 0.997244 0.00385015 -0.0740897
vn -0.340544 -0.176809 -0.923455
vn 0.270224 0.699379 -0.661701
vn 0.454117 0.538675 -0.709653
vn 0.673802 0.367614 -0.640977
vn 0.396098 0.466492 -0.79088
vn 0.619179 0.244785 -0.746122
vn -0.973091 0.0585216 -0.222867
vn 0.415095 -0.452255 -0.789406
vn -0.0203985 -0.678865 -0.73398
vn 0.342028 -0.0821791 -0.936089
vn 0.158407 -0.94862 -0.273909
vn 0.134917 -0.864144 0.484823
vn -0.927017 -0.179337 -0.329358
vn 0.276701 0.136576 -0.951201
vn -0.876296 0.287735 0.386412
vn -0.886927 0.461862 0.00655211
vn -0.0942425 -0.338265 0.93632
vn 0.103871 -0.568938 0.815794
vn -0.192591 -0.220264 0.956239
vn 0.0152727 -0.184769 0.982663
vn 0.0712487 -0.788785 0.610527
vn -0.714765 0.318549 0.622605
vn -0.721632 0.619545 0.308888
vn -0.253278 0.196144 0.9473
vn -0.348085 0.689776 0.634859
vn -0.799708 0.596968 -0.0640022
vn -0.609013 0.790255 -0.0678214
vn -0.959475 0.197173 0.20132
vn -0.98751 0.117328 -0.10516
vn -0.949693 -0.148795 0.275578
vn 0.242587 -0.25899 -0.93492
vn -0.860165 0.460922 -0.218329
vn -0.803098 0.363431 -0.472177
vn -0.705275 0.654114 -0.273354
vn -0.670377 -0.204021 -0.713422
vn -0.0725978 0.410902 0.908784
vn -0.614486 0.416322 0.670136
vn 0.10266 -0.458299 -0.882849
vn -0.0518173 -0.164925 0.984944
vn 0.136949 0.64029 0.755827
vn 0.136596 0.507591 0.850702
vn 0.802457 -0.26752 -0.533381
vn 0.931036 -0.32248 -0.170817
vn -0.268937 0.61607 0.740359
vn -0.801832 -0.251018 -0.542269
vn 0.724304 0.0714849 0.685765
vn -0.356901 0.605922 0.710972
vn -0.268523 -0.864705 0.424476
vn 0.333091 -0.535638 -0.775978
vn 0.0978438 -0.966071 0.239027
vn 0.168649 0.942165 0.289627
vn -0.767209 -0.513689 -0.384077
vn -0.943382 -0.325823 -0.0622006
vn 0.490076 -0.400864 -0.774037
vn -0.65561 0.121591 0.745245
vn -0.628882 0.740689 -0.236403
vn 0.55317 0.341177 0.760001
vn 0.601934 0.322281 0.730623
vn 0.481127 0.00297002 0.876646
vn 0.676905 0.659862 0.326161
vn 0.416603 0.898082 0.141035
vn -0.206074 0.945954 -0.250408
vn 0.844631 0.424176 0.32661
vn 0.0882668 -0.0212013 0.995871
vn -0.27254 -0.422867 -0.864237
vn -0.59081 0.157276 0.791332
vn -0.595873 0.657113 -0.461668
vn 0.566827 -0.149871 0.81009
vn 0.814814 0.0545736 0.577148
vn 0.224387 -0.301867 0.926567
vn 0.364807 -0.149486 0.919005
vn 0.232178 -0.39251 0.88996
vn 0.299466 -0.163155 0.940054
vn 0.296636 -0.285489 0.911319
vn 0.197477 -0.976659 -0.0844955
vn 0.104371 0.0464714 0.993452
vn 0.399972 -0.343796 0.849604
vn -0.635546 -0.747277 0.194059
vn -0.546901 -0.826628 -0.132609
vn 0.591749 -0.198281 0.781356
vn 0.52788 -0.508838 0.680019
vn 0.163347 -0.829301 0.534394
vn 0.32927 0.526021 0.784145
vn 0.783545 0.0925821 0.614398
vn 0.593088 -0.113355 0.797118
vn 0.963215 0.26718 -0.0288567
vn 0.98321 -0.0188583 0.181501
vn -0.642567 -0.749326 0.160055
vn 0.144388 0.439414 0.886604
vn -0.00425624 -0.384504 0.923114
vn -0.645747 -0.394357 -0.653829
vn -0.0543369 -0.855528 0.514897
vn 0.314868 -0.306482 0.898291
vn 0.485633 -0.716329 0.501033
vn 0.139754 0.714737 0.685288
vn 0.216126 0.489858 0.844588
vn 0.879722 -0.309026 0.361376
vn 0.619992 -0.729958 0.2877
vn 0.734746 -0.522557 0.43253
vn -0.238866 0.889405 0.389746
vn 0.559786 0.605465 0.565731
vn -0.82839 0.546629 -0.122341
vn 0.0804114 0.696954 0.712594
vn -0.652531 0.666718 0.360125
vn 0.876232 0.44818 0.177067
vn 0.545701 0.301704 0.781783
vn -0.731447 0.511962 -0.450423
vn 0.261655 0.29181 -0.919991
vn 0.0953313 0.769617 0.631349
vn -0.26885 0.832251 0.484849
vn -0.507827 0.761855 0.402106
vn -0.849721 0.522419 0.0710866
vn -0.827522 0.388368 0.405436
vn -0.943874 0.28553 0.166056
vn -0.100391 -0.07196 -0.992342
vn -0.495339 -0.777489 -0.387492
vn -0.978123 0.107734 -0.177956
vn -0.963586 0.265807 0.0291468
vn 0.955039 0.253288 0.154098
vn 0.597615 0.698176 0.394217
vn -0.186687 0.980914 0.0543657
vn 0.337822 0.921063 0.1937
vn 0.903354 0.421095 0.0814305
vn 0.296815 0.484303 -0.823014
vn 0.256808 0.113043 0.959829
vn 0.675586 0.335791 0.656375
vn 0.565807 -0.0279947 0.824063
vn 0.605765 0.782992 -0.141325
vn -0.79638 -0.40853 -0.445961
vn 0.94925 -0.31348 -0.0256013
vn 0.903088 0.285574 -0.320748
vn 0.955852 -0.0789889 -0.283033
vn -0.604311 -0.503757 -0.617282
vn -0.661845 -0.120462 0.739898
vn 0.732375 0.553926 -0.395971
vn -0.380938 0.0153066 -0.924474
vn 0.519174 0.563942 -0.642206
vn -0.0072142 0.260663 -0.965403
vn 0.691174 0.284631 -0.664277
vn 0.443306 0.764441 -0.468092
vn -0.847391 0.359764 -0.390511
vn -0.661736 0.437163 -0.609092
vn 0.191312 -0.570905 0.798415
vn 0.114342 -0.273418 0.955075
vn -0.0657358 -0.547018 0.834536
vn -0.224077 -0.69505 0.683151
vn -0.0925813 -0.935827 0.340082
vn -0.148429 0.32086 -0.935424
vn -0.339058 -0.925057 0.1712
vn 0.602279 -0.28616 -0.745233
vn 0.721596 -0.641763 -0.259693
vn 0.0610655 -0.858762 -0.508723
vn -0.857773 -0.117008 -0.500535
vn -0.160025 -0.241908 -0.957012
vn -0.0684498 0.549784 -0.832498
vn -0.786297 -0.217749 -0.578206
vn 0.319335 0.301545 -0.898385
vn -0.274338 0.162127 -0.947868
vn 0.107096 0.612975 0.78281
vn -0.534189 0.504491 -0.67833
vn -0.686482 -0.562865 -0.460353
vn -0.952187 -0.244118 -0.1837
vn -0.718176 -0.690184 0.0887028
vn -0.114845 0.543027 -0.831824
vn -0.776972 0.27602 -0.565798
vn -0.948323 0.12006 -0.293717
vn -0.446275 -0.033045 0.894286
vn 0.277309 0.494659 -0.823657
vn 0.160429 0.92315 0.349365
vn 0.277526 0.812839 0.512125
vn -0.315872 0.94753 -0.0491079
vn -0.0566796 0.671453 0.738876
vn -0.66319 0.736415 -0.133686
vn -0.569551 0.618403 -0.541469
vn -0.382143 0.792528 -0.475254
vn 0.589953 0.251142 0.767387
vn 0.338664 0.538468 0.771595
vn -0.215255 0.65099 -0.727927
vn 0.347286 0.0688512 0.935228
vn 0.562744 0.41226 0.716492
vn 0.641819 0.128724 0.755975
vn -0.0850224 0.779231 0.620944
vn -0.915019 0.396063 0.0766449
vn -0.163346 0.945867 0.280452
vn 0.753421 -0.390618 -0.528937
vn 0.546574 -0.194611 -0.814483
vn -0.485486 0.873322 -0.0401608
vn -0.658244 0.729626 -0.185365
vn 0.0306085 0.16639 -0.985585
vn 0.60167 -0.378994 -0.703105
vn 0.460481 -0.595799 0.658013
vn 0.288502 -0.842295 0.455307
vn 0.583663 -0.544307 0.602551
vn 0.569557 -0.268848 0.77674
vn 0.297009 -0.883445 0.362368
vn 0.217645 -0.552381 0.804677
vn 0.829929 -0.458774 -0.317404
vn 0.906661 -0.420195 0.037444
vn -0.0830516 -0.958729 0.27192
vn -0.0740685 -0.861516 -0.502299
vn -0.477736 -0.738143 -0.476354
vn 0.365598 -0.286063 -0.885724
vn -0.356701 0.925446 -0.127726
vn -0.398329 0.899483 -0.179621
vn -0.876519 0.417012 -0.240447
vn 0.450842 -0.784965 0.424937
vn -0.0719452 -0.947448 -0.311716
vn -0.231748 0.476901 -0.847855
vn 0.161764 -0.986768 -0.011
vn 0.173384 -0.968882 0.176651
vn 0.00212179 0.133228 -0.991083
vn -0.383237 -0.900473 -0.205618
vn -0.0418859 -0.998211 -0.0426607
vn -0.401178 -0.708265 -0.580876
vn -0.0954634 -0.281137 -0.954908
vn 0.780912 -0.602771 -0.16384
vn -0.549201 -0.747007 -0.374646
vn -0.516814 -0.851752 -0.0861495
vn -0.579944 0.780617 0.233029
vn -0.348407 -0.591803 0.726899
vn -0.956023 -0.133934 0.260924
vn -0.907773 0.419411 -0.00656964
vn -0.939841 -0.156193 -0.303814
vn -0.50234 -0.36146 -0.785494
vn -0.797717 0.32956 0.505013
vn -0.294467 -0.933944 0.202578
vn -0.444794 0.657867 -0.607758
vn 0.633164 -0.521048 -0.572374
vn -0.467117 0.592906 -0.655945
vn -0.337301 0.4103 -0.847279
vn -0.237971 0.816177 -0.526522
vn -0.444505 0.758084 -0.477205
vn -0.214236 0.497095 -0.840833
vn -0.844639 0.341762 -0.412048
vn -0.516964 0.0915633 -0.851096
vn 0.0520005 -0.92581 -0.374395
vn -0.301021 -0.929599 -0.212681
vn -0.579577 0.16843 -0.797321
vn -0.405194 -0.0457048 -0.913088
vn -0.178124 -0.958502 -0.22259
vn -0.500515 -0.360361 -0.787162
vn -0.376347 -0.602719 -0.703629
vn -0.520244 -0.576651 -0.629936
vn -0.91159 -0.106354 -0.397104
vn 0.173753 -0.943037 0.283709
vn 0.0282586 -0.676872 0.735558
vn 0.640979 -0.616534 0.4572
vn -0.133184 -0.690207 -0.71125
vn 0.00649394 -0.787074 -0.616824
vn -0.224433 -0.966569 -0.123991
vn 0.716022 -0.666587 0.207302
vn 0.375504 -0.918658 0.122735
vn -0.913565 0.186853 -0.361227
vn -0.114613 -0.991432 0.0626587
vn -0.188218 -0.969545 -0.156703
vn -0.00516311 -0.825799 -0.56394
vn 0.331209 -0.832294 0.444507
vn 0.470495 -0.860172 -0.196821
vn 0.711939 -0.593309 0.375669
vn 0.329352 -0.379834 0.864439
vn 0.165927 0.00713958 0.986112
vn 0.52646 -0.435656 0.730098
vn 0.408475 -0.227518 0.883959
vn 0.620282 -0.431128 0.65527
vn 0.729228 -0.684253 0.00501245
vn 0.757432 -0.380968 0.530245
vn 0.0496913 -0.83896 0.541919
vn 0.163721 0.166505 -0.972354
vn 0.409794 0.85814 -0.309298
vn 0.623214 -0.610445 0.488836
vn 0.399051 -0.720768 0.56679
vn -0.245529 0.430693 -0.868458
vn 0.531841 -0.691242 0.489213
vn 0.606071 -0.67232 0.425045
vn -0.41185 -0.892651 0.183178
vn -0.406891 0.840277 -0.358294
vn 0.734616 -0.512613 0.444485
vn -0.80669 0.194988 0.55788
vn -0.483472 0.581407 -0.654386
vn -0.590704 -0.0667954 -0.804119
vn 0.441228 -0.109367 -0.890705
vn 0.833265 -0.483993 0.267247
vn 0.655941 -0.573248 -0.491048
vn 0.885585 -0.344314 0.311747
vn 0.111822 0.257536 0.959777
vn -0.00072781 0.776304 0.630358
vn 0.234545 0.470193 0.850828
vn -0.116796 -0.0881029 0.98924
vn 0.145141 -0.056453 0.987799
vn -0.173936 -0.349591 0.920615
vn -0.413838 -0.41279 0.811383
vn -0.517028 -0.6518 0.554833
vn 0.603266 -0.239862 -0.760615
vn -0.107672 -0.275938 0.955126
vn 0.37018 -0.319385 0.87233
vn 0.363123 -0.325734 0.872948
vn -0.242248 -0.330293 0.912262
vn -0.619765 -0.361858 0.696384
vn 0.678792 -0.729027 0.0881007
vn -0.543965 -0.417747 0.727729
vn 0.2186 0.137258 -0.966113
vn -0.144302 0.815717 -0.560163
vn 0.116415 0.91058 -0.396599
vn 0.072306 0.665271 -0.743093
vn 0.363335 0.660937 -0.65662
vn -0.714118 -0.501256 0.488648
vn -0.476047 0.364512 -0.800319
vn -0.839189 -0.438513 0.321665
vn -0.827583 -0.534691 0.170915
vn -0.704746 -0.593517 0.388679
vn -0.2729 -0.79915 0.535616
vn 0.420215 -0.839323 0.3449
vn -0.502128 -0.753716 0.424004
vn -0.436581 -0.802121 0.407429
vn -0.890445 -0.42659 -0.158521
vn -0.604944 -0.648933 0.461443
vn -0.0404039 -0.345533 0.937536
vn -0.446544 -0.308928 0.839739
vn -0.586428 -0.252386 0.769678
vn 0.112983 -0.323194 0.939564
vn -0.362357 -0.197598 0.910853
vn -0.0746162 -0.682997 -0.7266
vn 0.677482 -0.329125 0.657795
vn -0.769697 -0.254934 0.5853
vn -0.947019 -0.276142 0.164016
vn -0.918002 -0.169381 0.358585
vn 0.94539 -0.244116 0.215976
vn 0.662138 -0.253361 0.705253
vn -0.077407 -0.836727 -0.542121
vn -0.873874 -0.0917118 0.477423
vn -0.110606 0.277651 -0.954293
vn -0.992638 -0.0980508 0.0711097
vn -0.976187 0.0841165 0.199957
vn -0.00659802 0.037073 0.999291
vn -0.245329 0.17277 0.95392
vn 0.0446294 -0.0536834 0.99756
vn 0.758218 -0.0133507 0.651864
vn 0.988083 -0.0444594 0.147364
vn -0.733314 0.0523332 0.677873
vn 0.699956 0.107447 0.706057
vn 0.968164 -0.126453 -0.216029
vn -0.987722 0.155634 0.0135404
vn -0.749259 0.0591294 0.659632
vn -0.960932 0.192214 0.199156
vn 0.821248 -0.29855 0.486231
vn 0.40668 -0.599456 0.689393
vn -0.327312 -0.504914 0.798704
vn -0.216898 -0.818257 0.532363
vn 0.996186 -0.0863696 0.0123584
vn 0.917578 -0.177197 -0.355882
vn 0.244562 -0.921899 0.300488
vn 0.857321 -0.514782 0.000609878
vn -0.786298 -0.341335 0.515
vn -0.686703 -0.611195 0.393547
vn -0.301081 -0.889115 -0.34471
vn -0.957129 -0.0243341 0.288638
vn 0.515952 0.688075 0.510241
vn 0.177721 0.543281 0.820525
vn 0.00956726 0.464791 -0.885369
vn 0.195649 0.573975 0.795157
vn 0.237519 0.565516 0.789795
vn 0.946296 0.322065 0.0282454
vn 0.674298 0.504903 0.538883
vn 0.624767 0.780736 0.0108982
vn 0.434445 0.763798 0.477358
vn 0.449563 0.892611 -0.0337509
vn 0.609555 0.709395 -0.353839
vn -0.957921 -0.112355 -0.264129
vn -0.98688 0.127049 0.0996283
vn 0.824201 0.563845 -0.052635
vn 0.680893 0.556359 -0.476288
vn -0.937122 -0.304343 0.170817
vn -0.63251 0.0369175 -0.773672
vn 0.53675 0.571648 -0.620579
vn 0.615045 0.591871 -0.52097
vn 0.63738 0.765072 -0.0917152
vn 0.504926 0.811357 -0.294533
vn 0.430855 0.891612 -0.139254
vn 0.427222 0.596543 -0.679425
vn 0.615494 0.600747 -0.510167
vn 0.121855 -0.0525807 -0.991154
vn -0.0104248 -0.15427 -0.987974
vn 0.692268 0.67077 0.266144
vn 0.926779 0.290477 -0.238125
vn 0.9305 0.0514495 -0.362661
vn -0.795104 -0.548537 -0.258683
vn 0.601326 0.624232 0.49874
vn 0.961149 0.262472 -0.0854416
vn 0.967883 0.226114 0.109889
vn 0.992196 0.0741248 -0.100268
vn -0.450722 -0.62675 0.635637
vn -0.596135 -0.653822 0.465982
vn 0.988577 0.0973518 -0.115057
vn -0.832815 -0.0591778 -0.550379
vn 0.98926 0.142341 -0.0332093
vn 0.989617 0.055643 -0.132519
vn 0.952583 -0.259739 -0.158498
vn 0.23881 0.545956 -0.803057
vn 0.798914 0.119574 -0.589439
vn -0.850198 -0.526463 0.000129282
vn 0.746734 -0.417854 -0.517481
vn 0.542603 -0.0729954 -0.836811
vn 0.481785 -0.212875 -0.85004
vn 0.279617 0.177671 -0.943529
vn -0.101117 -0.53784 -0.83696
vn -0.520332 -0.544885 -0.657538
vn -0.934154 -0.324988 0.147442
vn 0.417632 -0.907632 0.0422839
vn 0.124598 -0.411712 -0.902756
vn -0.397044 -0.894485 -0.205556
vn -0.795736 -0.506776 0.331635
vn -0.792004 -0.609267 -0.0390355
vn -0.56911 -0.768645 0.29206
vn 0.202061 -0.0992392 -0.974332
vn -0.134783 0.085027 -0.98722
vn -0.738796 -0.243681 -0.628331
vn -0.33697 0.351255 -0.873539
vn 0.092416 0.287231 -0.953393
vn -0.582073 0.561196 -0.588431
vn 0.262781 -0.900426 -0.346668
vn 0.175297 -0.962479 0.207137
vn -0.0776831 -0.966386 0.24508
vn 0.769692 -0.638276 -0.0133339
vn 0.982826 -0.11149 -0.147047
vn -0.418495 -0.770318 0.481116
vn -0.275205 -0.89399 0.353615
vn -0.977095 0.119414 -0.176139
vn -0.0488466 -0.998536 0.0232435
vn -0.394165 -0.904999 0.160035
vn 0.914188 0.2928 -0.280228
vn 0.777755 0.451292 -0.437531
vn -0.660847 0.184253 -0.727552
vn 0.674595 0.61149 -0.413523
vn 0.952261 0.24598 -0.180813
vn 0.984885 -0.169771 0.0343447
vn 0.818399 0.466861 -0.335058
vn 0.984097 -0.155409 -0.0860351
vn 0.942635 -0.318358 -0.100439
vn -0.093907 -0.411111 -0.906735
vn 0.768536 0.602623 -0.214937
vn 0.736229 0.372059 -0.565278
vn 0.717278 0.432443 -0.546357
vn -0.842008 0.468704 -0.267095
vn -0.0359469 -0.272257 -0.961553
vn 0.920418 0.126942 -0.369751
vn 0.120105 -0.143498 -0.982336
vn 0.513972 -0.0837596 -0.853708
vn -0.182817 -0.425716 -0.886196
vn 0.502862 -0.385421 -0.773679
vn -0.298733 -0.439361 -0.847184
vn 0.963036 -0.128773 -0.236597
vn 0.857576 -0.505135 -0.0969608
vn 0.5671 -0.592281 -0.572365
vn 0.292916 -0.955037 -0.0458728
vn -0.711658 0.0487102 0.700835
vn 0.526599 -0.653203 -0.544077
vn -0.794539 0.554443 -0.24759
vn -0.0483937 -0.827295 -0.559679
vn -0.91919 0.392475 -0.0324466
vn -0.99885 -0.0474546 0.00680951
vn -0.0904003 -0.598194 -0.796236
vn -0.715182 0.0477688 0.697304
vn -0.307221 -0.42193 -0.852989
vn -0.311821 -0.896802 -0.31387
vn -0.266436 -0.467839 -0.842697
vn -0.327327 -0.658876 -0.677303
vn 0.171146 0.793727 0.583701
vn -0.0725882 0.99697 0.0279671
vn 0.164137 0.834773 -0.52556
vn -0.412619 0.897838 0.153727
vn -0.193175 -0.370074 -0.908696
vn -0.92972 -0.325174 0.172864
vn -0.503595 -0.856532 -0.112898
vn -0.2112 0.773305 0.597824
vn 0.124206 0.525037 0.841967
vn 0.0961012 0.562262 0.821356
vn -0.0920446 0.604072 0.791596
vn 0.0532001 -0.998536 -0.00975575
vn -0.169807 -0.479534 -0.860937
vn -0.10551 0.838017 0.535347
vn -0.514754 0.846471 -0.136071
vn -0.732525 0.597766 -0.325704
vn -0.646258 0.653531 -0.394014
vn -0.789305 0.606472 -0.0958558
vn -0.671034 0.694614 0.259278
vn -0.751697 0.644728 -0.138845
vn 0.0118851 -0.452392 -0.89174
vn -0.640742 0.607009 0.470095
vn -0.657799 0.72049 0.219532
vn -0.796951 0.506692 -0.328834
vn -0.824027 0.538115 -0.177235
vn -0.832831 0.53008 -0.159399
vn -0.794252 0.589926 -0.145435
vn 0.00792656 -0.608176 -0.793763
vn 0.499942 0.633939 -0.590067
vn -0.300853 0.803599 -0.513533
vn -0.914767 0.0800189 -0.395978
vn 0.0861033 0.663053 -0.743604
vn 0.51713 0.718146 -0.465665
vn 0.332687 0.724833 -0.603271
vn -0.297489 0.813005 -0.500522
vn -0.732985 0.627153 -0.263462
vn -0.201019 -0.461398 -0.86412
vn 0.0875371 0.927442 -0.363578
vn -0.460916 0.819923 -0.339534
vn -0.123025 -0.431365 -0.89375
vn 0.0671306 0.58911 -0.80526
vn -0.222713 -0.492774 -0.841173
vn -0.0975268 -0.219961 -0.970621
vn -0.18208 -0.208084 -0.961014
vn -0.040326 -0.500103 -0.865027
vn -0.31681 0.880588 -0.352415
vn -0.516339 0.517008 -0.682713
vn -0.211362 -0.774818 0.595805
vn -0.933928 -0.3516 -0.0644695
vn -0.141375 -0.432369 -0.890545
vn -0.0137955 -0.460102 -0.887759
vn -0.966907 0.230831 0.108664
vn -0.25358 0.19752 -0.946933
vn 0.146522 -0.961363 0.233048
vn -0.0182367 -0.309572 -0.950701
vn -0.420372 -0.09525 -0.902339
vn -0.689544 0.681914 -0.243972
vn -0.817671 0.354762 -0.453385
vn -0.332632 -0.757862 0.56125
vn -0.702886 -0.689804 0.173558
vn 0.120422 -0.914172 0.387026
vn -0.3612 -0.768359 0.528355
vn -0.0510366 -0.815884 0.575958
vn 0.27304 -0.726713 0.630347
vn -0.979977 0.196792 -0.0302952
vn 0.733935 -0.668436 0.120555
vn 0.399905 -0.808518 0.431712
vn 0.0809023 -0.931202 -0.355411
vn -0.159456 0.578207 -0.800157
vn 0.853952 0.175445 0.489883
vn -0.657617 -0.0792453 0.749173
vn 0.160548 -0.921985 -0.352375
vn 0.0339689 -0.408272 0.912228
vn 0.191542 0.938318 0.287872
vn -0.33967 -0.88841 0.308792
vn -0.232625 0.622996 0.746834
vn 0.469601 0.42332 0.774774
vn 0.20048 0.131524 0.970829
vn -0.51222 -0.775089 -0.369957
vn -0.187915 -0.0205062 -0.981971
vn -0.166073 -0.475952 -0.863649
vn -0.364355 -0.45554 -0.812237
vn 0.881654 -0.396191 0.256358
vn -0.697901 -0.433634 0.569996

g grp1
usemtl mtl1
f 561//561 564//564 606//606 
f 232//232 553//553 560//560 
f 595//595 492//492 558//558 
f 615//615 609//609 569//569 
f 100//100 33//33 32//32 
f 367//367 19//19 16//16 
f 483//483 482//482 69//69 
f 626//626 623//623 190//190 
f 58//58 57//57 85//85 
f 3//3 345//345 24//24 
f 22//22 24//24 26//26 
f 4//4 16//16 8//8 
f 27//27 25//25 26//26 
f 324//324 618//618 373//373 
f 100//100 101//101 97//97 
f 4//4 8//8 11//11 
f 365//365 628//628 290//290 
f 7//7 44//44 8//8 
f 346//346 592//592 604//604 
f 367//367 17//17 19//19 
f 44//44 7//7 18//18 
f 10//10 634//634 9//9 
f 18//18 7//7 19//19 
f 11//11 9//9 4//4 
f 46//46 8//8 47//47 
f 624//624 376//376 570//570 
f 350//350 29//29 28//28 
f 7//7 8//8 16//16 
f 94//94 48//48 115//115 
f 350//350 28//28 352//352 
f 354//354 350//350 352//352 
f 50//50 42//42 313//313 
f 48//48 87//87 115//115 
f 526//526 290//290 173//173 
f 23//23 15//15 25//25 
f 344//344 13//13 14//14 
f 345//345 634//634 10//10 
f 348//348 344//344 14//14 
f 196//196 197//197 630//630 
f 347//347 343//343 348//348 
f 27//27 348//348 334//334 
f 30//30 27//27 29//29 
f 68//68 59//59 101//101 
f 22//22 3//3 24//24 
f 502//502 501//501 399//399 
f 59//59 58//58 86//86 
f 347//347 24//24 343//343 
f 26//26 25//25 22//22 
f 197//197 195//195 630//630 
f 274//274 58//58 39//39 
f 39//39 40//40 274//274 
f 102//102 68//68 101//101 
f 72//72 43//43 61//61 
f 499//499 512//512 503//503 
f 127//127 114//114 126//126 
f 34//34 33//33 23//23 
f 499//499 500//500 512//512 
f 501//501 147//147 356//356 
f 6//6 634//634 2//2 
f 21//21 6//6 2//2 
f 62//62 55//55 59//59 
f 345//345 344//344 343//343 
f 42//42 50//50 56//56 
f 25//25 15//15 22//22 
f 2//2 634//634 3//3 
f 2//2 3//3 22//22 
f 19//19 7//7 16//16 
f 27//27 26//26 347//347 
f 21//21 20//20 367//367 
f 47//47 45//45 48//48 
f 23//23 33//33 20//20 
f 21//21 2//2 22//22 
f 348//348 27//27 347//347 
f 12//12 470//470 553//553 
f 9//9 5//5 4//4 
f 31//31 30//30 29//29 
f 86//86 85//85 97//97 
f 306//306 253//253 276//276 
f 23//23 25//25 30//30 
f 21//21 5//5 6//6 
f 85//85 17//17 97//97 
f 62//62 37//37 55//55 
f 24//24 345//345 343//343 
f 148//148 95//95 110//110 
f 500//500 104//104 502//502 
f 147//147 112//112 108//108 
f 431//431 437//437 428//428 
f 347//347 26//26 24//24 
f 397//397 391//391 501//501 
f 431//431 428//428 430//430 
f 431//431 430//430 105//105 
f 499//499 497//497 500//500 
f 58//58 274//274 57//57 
f 8//8 44//44 47//47 
f 14//14 53//53 90//90 
f 49//49 41//41 54//54 
f 84//84 489//489 490//490 
f 599//599 594//594 596//596 
f 45//45 40//40 48//48 
f 126//126 82//82 128//128 
f 83//83 65//65 313//313 
f 110//110 95//95 119//119 
f 318//318 319//319 38//38 
f 71//71 72//72 114//114 
f 369//369 110//110 119//119 
f 73//73 82//82 126//126 
f 55//55 36//36 39//39 
f 44//44 57//57 274//274 
f 87//87 48//48 49//49 
f 11//11 8//8 46//46 
f 88//88 46//46 47//47 
f 13//13 11//11 46//46 
f 386//386 388//388 389//389 
f 16//16 4//4 5//5 
f 117//117 118//118 116//116 
f 87//87 49//49 265//265 
f 50//50 52//52 452//452 
f 119//119 95//95 94//94 
f 437//437 419//419 428//428 
f 88//88 47//47 48//48 
f 244//244 241//241 180//180 
f 345//345 10//10 344//344 
f 613//613 254//254 215//215 
f 16//16 5//5 367//367 
f 37//37 40//40 36//36 
f 73//73 70//70 82//82 
f 454//454 441//441 442//442 
f 80//80 573//573 138//138 
f 432//432 419//419 437//437 
f 57//57 44//44 18//18 
f 209//209 207//207 142//142 
f 355//355 110//110 369//369 
f 481//481 74//74 64//64 
f 371//371 372//372 397//397 
f 60//60 63//63 61//61 
f 448//448 65//65 93//93 
f 41//41 61//61 43//43 
f 47//47 44//44 45//45 
f 77//77 42//42 56//56 
f 371//371 355//355 369//369 
f 56//56 50//50 454//454 
f 101//101 59//59 86//86 
f 87//87 265//265 117//117 
f 82//82 81//81 84//84 
f 112//112 103//103 35//35 
f 57//57 18//18 85//85 
f 482//482 64//64 67//67 
f 104//104 103//103 502//502 
f 70//70 61//61 63//63 
f 74//74 70//70 64//64 
f 449//449 444//444 446//446 
f 625//625 196//196 631//631 
f 517//517 131//131 515//515 
f 105//105 111//111 133//133 
f 147//147 109//109 356//356 
f 112//112 147//147 501//501 
f 79//79 105//105 133//133 
f 108//108 106//106 107//107 
f 108//108 107//107 147//147 
f 459//459 455//455 456//456 
f 73//73 72//72 70//70 
f 116//116 94//94 115//115 
f 59//59 55//55 39//39 
f 76//76 78//78 187//187 
f 76//76 187//187 188//188 
f 623//623 188//188 190//190 
f 102//102 103//103 104//104 
f 99//99 133//133 143//143 
f 623//623 76//76 188//188 
f 369//369 358//358 360//360 
f 439//439 93//93 140//140 
f 74//74 481//481 75//75 
f 93//93 129//129 140//140 
f 485//485 75//75 481//481 
f 487//487 485//485 486//486 
f 78//78 75//75 80//80 
f 129//129 133//133 136//136 
f 79//79 133//133 129//129 
f 461//461 455//455 459//459 
f 491//491 460//460 487//487 
f 373//373 1//1 324//324 
f 482//482 67//67 69//69 
f 502//502 103//103 112//112 
f 626//626 490//490 623//623 
f 488//488 487//487 486//486 
f 362//362 361//361 393//393 
f 502//502 112//112 501//501 
f 453//453 146//146 526//526 
f 564//564 527//527 453//453 
f 448//448 93//93 439//439 
f 365//365 627//627 628//628 
f 129//129 136//136 283//283 
f 493//493 491//491 488//488 
f 61//61 41//41 60//60 
f 501//501 391//391 399//399 
f 425//425 439//439 141//141 
f 94//94 88//88 48//48 
f 119//119 94//94 116//116 
f 13//13 46//46 53//53 
f 363//363 379//379 381//381 
f 354//354 106//106 350//350 
f 386//386 223//223 388//388 
f 10//10 9//9 11//11 
f 34//34 23//23 30//30 
f 28//28 334//334 14//14 
f 372//372 363//363 381//381 
f 334//334 348//348 14//14 
f 344//344 10//10 13//13 
f 34//34 30//30 31//31 
f 34//34 31//31 106//106 
f 28//28 14//14 90//90 
f 352//352 28//28 90//90 
f 40//40 45//45 274//274 
f 40//40 37//37 41//41 
f 40//40 41//41 49//49 
f 92//92 91//91 95//95 
f 53//53 46//46 88//88 
f 53//53 88//88 91//91 
f 35//35 34//34 106//106 
f 606//606 346//346 604//604 
f 92//92 353//353 352//352 
f 348//348 343//343 344//344 
f 60//60 41//41 37//37 
f 103//103 101//101 100//100 
f 68//68 62//62 59//59 
f 352//352 90//90 92//92 
f 353//353 92//92 148//148 
f 35//35 108//108 112//112 
f 99//99 96//96 152//152 
f 431//431 105//105 77//77 
f 367//367 5//5 21//21 
f 353//353 107//107 354//354 
f 66//66 65//65 448//448 
f 367//367 20//20 33//33 
f 108//108 35//35 106//106 
f 372//372 381//381 397//397 
f 561//561 548//548 563//563 
f 32//32 35//35 100//100 
f 326//326 300//300 366//366 
f 33//33 17//17 367//367 
f 97//97 33//33 100//100 
f 29//29 27//27 334//334 
f 556//556 562//562 564//564 
f 588//588 587//587 583//583 
f 9//9 634//634 6//6 
f 103//103 100//100 35//35 
f 5//5 9//9 6//6 
f 354//354 352//352 353//353 
f 499//499 483//483 497//497 
f 147//147 107//107 109//109 
f 107//107 106//106 354//354 
f 233//233 226//226 238//238 
f 102//102 101//101 103//103 
f 59//59 39//39 58//58 
f 70//70 81//81 82//82 
f 74//74 75//75 78//78 
f 91//91 88//88 94//94 
f 124//124 114//114 130//130 
f 115//115 87//87 117//117 
f 48//48 40//40 49//49 
f 99//99 234//234 246//246 
f 36//36 40//40 39//39 
f 37//37 36//36 55//55 
f 95//95 91//91 94//94 
f 369//369 116//116 358//358 
f 167//167 166//166 168//168 
f 54//54 41//41 43//43 
f 265//265 49//49 54//54 
f 225//225 167//167 168//168 
f 404//404 390//390 414//414 
f 225//225 168//168 242//242 
f 60//60 37//37 62//62 
f 63//63 60//60 62//62 
f 121//121 120//120 124//124 
f 125//125 121//121 124//124 
f 508//508 503//503 514//514 
f 127//127 514//514 131//131 
f 517//517 370//370 377//377 
f 63//63 62//62 67//67 
f 72//72 61//61 70//70 
f 512//512 500//500 502//502 
f 512//512 502//502 399//399 
f 74//74 78//78 81//81 
f 71//71 43//43 72//72 
f 233//233 221//221 226//226 
f 450//450 66//66 448//448 
f 132//132 124//124 130//130 
f 93//93 65//65 89//89 
f 114//114 73//73 126//126 
f 114//114 72//72 73//73 
f 184//184 161//161 217//217 
f 89//89 79//79 129//129 
f 66//66 636//636 65//65 
f 366//366 309//309 370//370 
f 93//93 89//89 129//129 
f 292//292 277//277 294//294 
f 282//282 269//269 285//285 
f 339//339 337//337 328//328 
f 267//267 270//270 301//301 
f 635//635 320//320 319//319 
f 308//308 304//304 307//307 
f 277//277 134//134 137//137 
f 583//583 584//584 588//588 
f 551//551 552//552 556//556 
f 253//253 246//246 236//236 
f 524//524 519//519 508//508 
f 193//193 257//257 207//207 
f 458//458 459//459 573//573 
f 250//250 254//254 571//571 
f 490//490 489//489 623//623 
f 234//234 143//143 227//227 
f 586//586 575//575 587//587 
f 423//423 407//407 151//151 
f 202//202 201//201 208//208 
f 326//326 366//366 379//379 
f 107//107 353//353 109//109 
f 201//201 181//181 207//207 
f 591//591 589//589 590//590 
f 235//235 233//233 238//238 
f 227//227 143//143 151//151 
f 240//240 205//205 239//239 
f 170//170 157//157 172//172 
f 158//158 159//159 155//155 
f 157//157 158//158 155//155 
f 141//141 283//283 295//295 
f 171//171 172//172 162//162 
f 225//225 221//221 167//167 
f 253//253 236//236 402//402 
f 236//236 246//246 234//234 
f 199//199 158//158 203//203 
f 135//135 134//134 317//317 
f 156//156 158//158 157//157 
f 324//324 1//1 624//624 
f 171//171 162//162 174//174 
f 204//204 171//171 174//174 
f 157//157 155//155 172//172 
f 172//172 155//155 162//162 
f 303//303 342//342 321//321 
f 631//631 410//410 628//628 
f 198//198 199//199 201//201 
f 271//271 165//165 272//272 
f 245//245 244//244 180//180 
f 311//311 338//338 308//308 
f 333//333 331//331 337//337 
f 149//149 155//155 159//159 
f 243//243 241//241 244//244 
f 168//168 166//166 170//170 
f 206//206 213//213 222//222 
f 242//242 168//168 243//243 
f 149//149 159//159 160//160 
f 198//198 201//201 202//202 
f 154//154 149//149 160//160 
f 165//165 154//154 160//160 
f 200//200 202//202 210//210 
f 328//328 325//325 327//327 
f 153//153 162//162 145//145 
f 200//200 210//210 216//216 
f 286//286 285//285 269//269 
f 150//150 315//315 342//342 
f 158//158 156//156 161//161 
f 325//325 205//205 240//240 
f 169//169 156//156 157//157 
f 244//244 390//390 389//389 
f 170//170 169//169 157//157 
f 217//217 166//166 167//167 
f 291//291 293//293 304//304 
f 267//267 278//278 204//204 
f 166//166 144//144 169//169 
f 203//203 182//182 199//199 
f 170//170 166//166 169//169 
f 217//217 144//144 166//166 
f 203//203 184//184 185//185 
f 289//289 291//291 292//292 
f 179//179 175//175 178//178 
f 321//321 320//320 303//303 
f 291//291 178//178 292//292 
f 342//342 332//332 150//150 
f 175//175 170//170 172//172 
f 330//330 329//329 331//331 
f 336//336 327//327 240//240 
f 279//279 277//277 292//292 
f 175//175 171//171 178//178 
f 278//278 277//277 279//279 
f 204//204 279//279 178//178 
f 224//224 221//221 225//225 
f 317//317 280//280 285//285 
f 317//317 285//285 286//286 
f 198//198 160//160 159//159 
f 211//211 281//281 212//212 
f 78//78 80//80 138//138 
f 144//144 161//161 169//169 
f 190//190 188//188 191//191 
f 214//214 177//177 411//411 
f 239//239 215//215 254//254 
f 414//414 411//411 176//176 
f 409//409 245//245 247//247 
f 627//627 365//365 612//612 
f 183//183 191//191 194//194 
f 410//410 290//290 628//628 
f 551//551 550//550 552//552 
f 209//209 208//208 207//207 
f 514//514 127//127 510//510 
f 75//75 485//485 80//80 
f 81//81 70//70 74//74 
f 380//380 375//375 364//364 
f 612//612 523//523 626//626 
f 199//199 181//181 201//201 
f 281//281 586//586 587//587 
f 467//467 215//215 216//216 
f 249//249 230//230 248//248 
f 418//418 421//421 415//415 
f 575//575 257//257 139//139 
f 250//250 249//249 248//248 
f 200//200 165//165 160//160 
f 207//207 194//194 193//193 
f 194//194 181//181 183//183 
f 237//237 229//229 233//233 
f 266//266 206//206 222//222 
f 256//256 240//240 254//254 
f 589//589 281//281 587//587 
f 243//243 168//168 170//170 
f 321//321 319//319 320//320 
f 525//525 251//251 629//629 
f 312//312 310//310 305//305 
f 530//530 537//537 471//471 
f 240//240 239//239 254//254 
f 558//558 629//629 595//595 
f 405//405 262//262 457//457 
f 328//328 327//327 336//336 
f 169//169 161//161 156//156 
f 338//338 335//335 340//340 
f 293//293 291//291 289//289 
f 629//629 558//558 467//467 
f 484//484 373//373 571//571 
f 281//281 211//211 586//586 
f 328//328 336//336 339//339 
f 340//340 337//337 339//339 
f 298//298 305//305 293//293 
f 217//217 161//161 144//144 
f 589//589 588//588 590//590 
f 210//210 202//202 208//208 
f 222//222 235//235 266//266 
f 177//177 176//176 411//411 
f 207//207 208//208 201//201 
f 196//196 625//625 192//192 
f 207//207 181//181 194//194 
f 177//177 214//214 213//213 
f 262//262 496//496 457//457 
f 298//298 297//297 299//299 
f 303//303 286//286 332//332 
f 186//186 413//413 378//378 
f 342//342 303//303 332//332 
f 558//558 613//613 467//467 
f 327//327 325//325 240//240 
f 202//202 200//200 198//198 
f 200//200 160//160 198//198 
f 186//186 411//411 412//412 
f 195//195 185//185 228//228 
f 203//203 158//158 161//161 
f 203//203 161//161 184//184 
f 266//266 403//403 402//402 
f 377//377 276//276 400//400 
f 377//377 374//374 517//517 
f 571//571 576//576 250//250 
f 404//404 396//396 398//398 
f 560//560 376//376 323//323 
f 263//263 240//240 258//258 
f 132//132 131//131 517//517 
f 484//484 1//1 373//373 
f 403//403 238//238 401//401 
f 181//181 199//199 183//183 
f 258//258 262//262 405//405 
f 263//263 258//258 405//405 
f 199//199 159//159 158//158 
f 387//387 361//361 383//383 
f 441//441 437//437 431//431 
f 407//407 231//231 227//227 
f 383//383 384//384 385//385 
f 441//441 433//433 437//437 
f 339//339 336//336 259//259 
f 195//195 197//197 183//183 
f 266//266 402//402 236//236 
f 214//214 189//189 213//213 
f 182//182 185//185 195//195 
f 402//402 401//401 400//400 
f 163//163 177//177 213//213 
f 400//400 374//374 377//377 
f 589//589 440//440 525//525 
f 403//403 401//401 402//402 
f 457//457 429//429 378//378 
f 140//140 129//129 283//283 
f 236//236 163//163 206//206 
f 266//266 236//236 206//206 
f 380//380 349//349 357//357 
f 152//152 136//136 99//99 
f 264//264 260//260 263//263 
f 229//229 184//184 217//217 
f 506//506 576//576 410//410 
f 186//186 189//189 214//214 
f 374//374 132//132 517//517 
f 368//368 360//360 362//362 
f 185//185 182//182 203//203 
f 256//256 252//252 255//255 
f 338//338 311//311 335//335 
f 558//558 492//492 498//498 
f 224//224 218//218 226//226 
f 388//388 243//243 244//244 
f 387//387 386//386 392//392 
f 258//258 256//256 262//262 
f 398//398 389//389 390//390 
f 329//329 328//328 331//331 
f 242//242 224//224 225//225 
f 411//411 414//414 390//390 
f 180//180 179//179 304//304 
f 304//304 179//179 291//291 
f 219//219 123//123 125//125 
f 213//213 206//206 163//163 
f 385//385 218//218 223//223 
f 412//412 413//413 186//186 
f 333//333 330//330 331//331 
f 196//196 192//192 197//197 
f 183//183 199//199 182//182 
f 183//183 182//182 195//195 
f 311//311 310//310 335//335 
f 237//237 233//233 235//235 
f 401//401 219//219 374//374 
f 418//418 415//415 417//417 
f 255//255 237//237 235//235 
f 248//248 255//255 252//252 
f 252//252 250//250 248//248 
f 401//401 374//374 400//400 
f 571//571 613//613 498//498 
f 255//255 235//235 496//496 
f 139//139 573//573 456//456 
f 307//307 304//304 293//293 
f 226//226 221//221 224//224 
f 508//508 514//514 510//510 
f 223//223 218//218 224//224 
f 174//174 162//162 164//164 
f 425//425 141//141 296//296 
f 307//307 293//293 305//305 
f 498//498 484//484 571//571 
f 425//425 296//296 382//382 
f 351//351 1//1 484//484 
f 177//177 163//163 176//176 
f 380//380 364//364 382//382 
f 369//369 360//360 368//368 
f 250//250 252//252 254//254 
f 363//363 326//326 379//379 
f 412//412 261//261 413//413 
f 399//399 381//381 379//379 
f 229//229 221//221 233//233 
f 374//374 125//125 132//132 
f 307//307 305//305 310//310 
f 18//18 19//19 17//17 
f 356//356 355//355 397//397 
f 355//355 148//148 110//110 
f 409//409 390//390 244//244 
f 260//260 261//261 259//259 
f 286//286 301//301 302//302 
f 296//296 141//141 295//295 
f 570//570 504//504 420//420 
f 142//142 211//211 209//209 
f 268//268 278//278 267//267 
f 295//295 284//284 288//288 
f 279//279 204//204 278//278 
f 301//301 270//270 271//271 
f 272//272 325//325 273//273 
f 295//295 288//288 314//314 
f 155//155 149//149 162//162 
f 268//268 275//275 278//278 
f 296//296 380//380 382//382 
f 292//292 178//178 279//279 
f 204//204 174//174 270//270 
f 286//286 269//269 301//301 
f 439//439 425//425 436//436 
f 274//274 45//45 44//44 
f 178//178 171//171 204//204 
f 192//192 183//183 197//197 
f 321//321 342//342 322//322 
f 216//216 212//212 467//467 
f 335//335 341//341 340//340 
f 288//288 284//284 287//287 
f 297//297 294//294 318//318 
f 141//141 439//439 140//140 
f 42//42 77//77 79//79 
f 65//65 83//83 89//89 
f 284//284 96//96 287//287 
f 358//358 359//359 360//360 
f 466//466 323//323 351//351 
f 260//260 259//259 263//263 
f 269//269 268//268 267//267 
f 299//299 322//322 298//298 
f 632//632 427//427 592//592 
f 293//293 289//289 294//294 
f 241//241 243//243 170//170 
f 270//270 267//267 204//204 
f 341//341 333//333 337//337 
f 297//297 318//318 38//38 
f 311//311 308//308 307//307 
f 366//366 516//516 379//379 
f 318//318 137//137 635//635 
f 331//331 328//328 337//337 
f 268//268 282//282 275//275 
f 140//140 283//283 141//141 
f 320//320 135//135 317//317 
f 624//624 1//1 376//376 
f 286//286 303//303 320//320 
f 85//85 18//18 17//17 
f 245//245 180//180 308//308 
f 145//145 162//162 149//149 
f 269//269 267//267 301//301 
f 316//316 312//312 315//315 
f 288//288 287//287 309//309 
f 302//302 301//301 273//273 
f 293//293 294//294 297//297 
f 360//360 361//361 362//362 
f 286//286 302//302 330//330 
f 300//300 288//288 309//309 
f 332//332 286//286 330//330 
f 292//292 294//294 289//289 
f 329//329 273//273 325//325 
f 293//293 297//297 298//298 
f 299//299 321//321 322//322 
f 38//38 299//299 297//297 
f 426//426 432//432 435//435 
f 305//305 298//298 312//312 
f 332//332 330//330 333//333 
f 316//316 310//310 312//312 
f 175//175 172//172 171//171 
f 342//342 315//315 322//322 
f 317//317 134//134 280//280 
f 332//332 333//333 150//150 
f 285//285 280//280 282//282 
f 316//316 315//315 150//150 
f 180//180 241//241 179//179 
f 312//312 298//298 322//322 
f 320//320 317//317 286//286 
f 302//302 273//273 329//329 
f 241//241 175//175 179//179 
f 299//299 38//38 321//321 
f 86//86 58//58 85//85 
f 179//179 178//178 291//291 
f 283//283 152//152 96//96 
f 308//308 180//180 304//304 
f 330//330 302//302 329//329 
f 339//339 338//338 340//340 
f 277//277 275//275 280//280 
f 338//338 247//247 245//245 
f 592//592 427//427 507//507 
f 339//339 259//259 338//338 
f 341//341 337//337 340//340 
f 290//290 526//526 365//365 
f 341//341 150//150 333//333 
f 280//280 134//134 277//277 
f 635//635 135//135 320//320 
f 321//321 38//38 319//319 
f 263//263 259//259 336//336 
f 269//269 282//282 268//268 
f 294//294 277//277 137//137 
f 137//137 134//134 135//135 
f 635//635 137//137 135//135 
f 261//261 247//247 259//259 
f 366//366 370//370 516//516 
f 294//294 137//137 318//318 
f 259//259 247//247 338//338 
f 277//277 278//278 275//275 
f 629//629 281//281 525//525 
f 154//154 165//165 271//271 
f 467//467 212//212 629//629 
f 145//145 149//149 154//154 
f 153//153 145//145 154//154 
f 256//256 255//255 262//262 
f 312//312 322//322 315//315 
f 254//254 252//252 256//256 
f 162//162 153//153 164//164 
f 576//576 506//506 250//250 
f 153//153 154//154 271//271 
f 164//164 153//153 271//271 
f 335//335 310//310 316//316 
f 272//272 165//165 205//205 
f 335//335 316//316 341//341 
f 273//273 271//271 272//272 
f 101//101 86//86 97//97 
f 329//329 325//325 328//328 
f 270//270 174//174 164//164 
f 240//240 256//256 258//258 
f 270//270 164//164 271//271 
f 316//316 150//150 341//341 
f 307//307 310//310 311//311 
f 280//280 275//275 282//282 
f 325//325 272//272 205//205 
f 346//346 173//173 592//592 
f 28//28 29//29 334//334 
f 15//15 20//20 21//21 
f 22//22 15//15 21//21 
f 25//25 27//27 30//30 
f 31//31 29//29 350//350 
f 106//106 31//31 350//350 
f 90//90 91//91 92//92 
f 10//10 11//11 13//13 
f 90//90 53//53 91//91 
f 14//14 13//13 53//53 
f 273//273 301//301 271//271 
f 223//223 224//224 242//242 
f 32//32 33//33 34//34 
f 306//306 246//246 253//253 
f 35//35 32//32 34//34 
f 513//513 399//399 516//516 
f 309//309 287//287 306//306 
f 369//369 119//119 116//116 
f 524//524 523//523 527//527 
f 130//130 114//114 127//127 
f 371//371 369//369 368//368 
f 126//126 128//128 127//127 
f 54//54 43//43 71//71 
f 176//176 408//408 414//414 
f 287//287 246//246 306//306 
f 595//595 351//351 492//492 
f 120//120 113//113 114//114 
f 519//519 518//518 508//508 
f 406//406 404//404 408//408 
f 276//276 253//253 402//402 
f 314//314 288//288 300//300 
f 357//357 372//372 368//368 
f 426//426 418//418 419//419 
f 430//430 428//428 424//424 
f 375//375 368//368 362//362 
f 125//125 123//123 121//121 
f 408//408 404//404 414//414 
f 378//378 413//413 405//405 
f 370//370 309//309 306//306 
f 372//372 371//371 368//368 
f 516//516 370//370 515//515 
f 148//148 92//92 95//95 
f 370//370 306//306 377//377 
f 500//500 497//497 104//104 
f 366//366 300//300 309//309 
f 421//421 418//418 426//426 
f 125//125 124//124 132//132 
f 276//276 402//402 400//400 
f 125//125 374//374 219//219 
f 382//382 364//364 421//421 
f 232//232 560//560 323//323 
f 109//109 353//353 148//148 
f 123//123 219//219 384//384 
f 379//379 516//516 399//399 
f 381//381 399//399 391//391 
f 357//357 375//375 380//380 
f 356//356 109//109 148//148 
f 383//383 361//361 359//359 
f 436//436 438//438 447//447 
f 261//261 260//260 264//264 
f 419//419 418//418 417//417 
f 210//210 209//209 212//212 
f 349//349 326//326 363//363 
f 515//515 513//513 516//516 
f 372//372 349//349 363//363 
f 442//442 77//77 56//56 
f 452//452 451//451 454//454 
f 306//306 276//276 377//377 
f 426//426 419//419 432//432 
f 443//443 434//434 444//444 
f 439//439 436//436 447//447 
f 436//436 435//435 438//438 
f 360//360 359//359 361//361 
f 265//265 71//71 113//113 
f 314//314 300//300 326//326 
f 120//120 117//117 113//113 
f 122//122 121//121 123//123 
f 120//120 114//114 124//124 
f 314//314 326//326 349//349 
f 118//118 117//117 120//120 
f 359//359 123//123 383//383 
f 357//357 349//349 372//372 
f 255//255 248//248 237//237 
f 358//358 118//118 122//122 
f 515//515 370//370 517//517 
f 392//392 386//386 389//389 
f 263//263 405//405 264//264 
f 336//336 240//240 263//263 
f 383//383 385//385 386//386 
f 393//393 361//361 387//387 
f 308//308 338//338 245//245 
f 170//170 175//175 241//241 
f 375//375 357//357 368//368 
f 387//387 383//383 386//386 
f 398//398 395//395 392//392 
f 429//429 213//213 189//189 
f 249//249 630//630 228//228 
f 314//314 349//349 380//380 
f 296//296 295//295 314//314 
f 359//359 358//358 122//122 
f 398//398 392//392 389//389 
f 359//359 122//122 123//123 
f 380//380 296//296 314//314 
f 234//234 231//231 236//236 
f 176//176 163//163 231//231 
f 396//396 395//395 398//398 
f 186//186 378//378 189//189 
f 234//234 227//227 231//231 
f 428//428 419//419 422//422 
f 409//409 247//247 412//412 
f 142//142 207//207 257//257 
f 130//130 127//127 131//131 
f 384//384 220//220 385//385 
f 220//220 384//384 219//219 
f 220//220 219//219 401//401 
f 132//132 130//130 131//131 
f 433//433 432//432 437//437 
f 222//222 429//429 457//457 
f 215//215 200//200 216//216 
f 429//429 189//189 378//378 
f 428//428 422//422 424//424 
f 407//407 406//406 408//408 
f 441//441 431//431 442//442 
f 388//388 242//242 243//243 
f 404//404 398//398 390//390 
f 412//412 411//411 409//409 
f 262//262 255//255 496//496 
f 411//411 390//390 409//409 
f 386//386 385//385 223//223 
f 496//496 222//222 457//457 
f 388//388 223//223 242//242 
f 216//216 210//210 212//212 
f 496//496 235//235 222//222 
f 412//412 247//247 261//261 
f 378//378 405//405 457//457 
f 222//222 213//213 429//429 
f 389//389 388//388 244//244 
f 413//413 261//261 264//264 
f 409//409 244//244 245//245 
f 214//214 411//411 186//186 
f 443//443 438//438 434//434 
f 383//383 123//123 384//384 
f 422//422 396//396 404//404 
f 408//408 176//176 407//407 
f 585//585 592//592 507//507 
f 406//406 407//407 423//423 
f 422//422 404//404 406//406 
f 424//424 422//422 406//406 
f 419//419 417//417 422//422 
f 452//452 454//454 50//50 
f 424//424 406//406 423//423 
f 52//52 636//636 66//66 
f 176//176 231//231 407//407 
f 111//111 105//105 430//430 
f 364//364 362//362 393//393 
f 445//445 434//434 441//441 
f 52//52 449//449 452//452 
f 83//83 42//42 79//79 
f 537//537 530//530 569//569 
f 416//416 395//395 396//396 
f 151//151 407//407 227//227 
f 424//424 423//423 430//430 
f 416//416 396//396 422//422 
f 151//151 111//111 430//430 
f 235//235 238//238 403//403 
f 266//266 235//235 403//403 
f 627//627 625//625 631//631 
f 423//423 151//151 430//430 
f 393//393 387//387 392//392 
f 498//498 613//613 558//558 
f 435//435 432//432 438//438 
f 393//393 395//395 394//394 
f 394//394 364//364 393//393 
f 415//415 394//394 416//416 
f 585//585 604//604 592//592 
f 393//393 392//392 395//395 
f 444//444 445//445 446//446 
f 447//447 438//438 443//443 
f 454//454 442//442 56//56 
f 394//394 395//395 416//416 
f 143//143 133//133 111//111 
f 413//413 264//264 405//405 
f 417//417 416//416 422//422 
f 143//143 234//234 99//99 
f 417//417 415//415 416//416 
f 151//151 143//143 111//111 
f 136//136 152//152 283//283 
f 446//446 445//445 451//451 
f 283//283 284//284 295//295 
f 287//287 96//96 99//99 
f 442//442 431//431 77//77 
f 425//425 421//421 426//426 
f 450//450 443//443 444//444 
f 449//449 52//52 66//66 
f 432//432 433//433 438//438 
f 421//421 364//364 394//394 
f 447//447 443//443 450//450 
f 525//525 505//505 251//251 
f 83//83 79//79 89//89 
f 287//287 99//99 246//246 
f 425//425 382//382 421//421 
f 449//449 66//66 450//450 
f 420//420 427//427 624//624 
f 421//421 394//394 415//415 
f 447//447 450//450 448//448 
f 448//448 439//439 447//447 
f 133//133 99//99 136//136 
f 313//313 65//65 636//636 
f 105//105 79//79 77//77 
f 313//313 42//42 83//83 
f 283//283 96//96 284//284 
f 211//211 142//142 586//586 
f 436//436 425//425 426//426 
f 636//636 50//50 313//313 
f 450//450 444//444 449//449 
f 492//492 351//351 484//484 
f 434//434 438//438 433//433 
f 451//451 445//445 441//441 
f 434//434 433//433 441//441 
f 451//451 441//441 454//454 
f 576//576 618//618 410//410 
f 452//452 446//446 451//451 
f 436//436 426//426 435//435 
f 248//248 230//230 237//237 
f 192//192 191//191 183//183 
f 585//585 609//609 604//604 
f 597//597 473//473 475//475 
f 575//575 139//139 574//574 
f 572//572 578//578 568//568 
f 221//221 217//217 167//167 
f 591//591 590//590 582//582 
f 566//566 464//464 567//567 
f 236//236 231//231 163//163 
f 473//473 469//469 529//529 
f 540//540 539//539 544//544 
f 469//469 468//468 529//529 
f 193//193 187//187 138//138 
f 505//505 553//553 232//232 
f 351//351 376//376 1//1 
f 584//584 572//572 568//568 
f 567//567 596//596 594//594 
f 573//573 80//80 458//458 
f 456//456 565//565 574//574 
f 580//580 584//584 568//568 
f 583//583 575//575 572//572 
f 463//463 462//462 465//465 
f 578//578 579//579 568//568 
f 465//465 462//462 469//469 
f 465//465 469//469 472//472 
f 565//565 463//463 464//464 
f 468//468 455//455 461//461 
f 84//84 81//81 76//76 
f 489//489 84//84 76//76 
f 538//538 531//531 534//534 
f 461//461 459//459 458//458 
f 601//601 561//561 606//606 
f 564//564 562//562 527//527 
f 523//523 612//612 146//146 
f 468//468 461//461 460//460 
f 518//518 503//503 508//508 
f 98//98 522//522 533//533 
f 536//536 549//549 554//554 
f 563//563 564//564 561//561 
f 625//625 190//190 192//192 
f 621//621 603//603 610//610 
f 528//528 493//493 532//532 
f 463//463 455//455 462//462 
f 629//629 212//212 281//281 
f 453//453 346//346 606//606 
f 599//599 581//581 594//594 
f 597//597 472//472 473//473 
f 290//290 618//618 173//173 
f 531//531 473//473 529//529 
f 281//281 589//589 525//525 
f 615//615 614//614 577//577 
f 537//537 585//585 51//51 
f 453//453 606//606 564//564 
f 602//602 598//598 475//475 
f 549//549 551//551 554//554 
f 599//599 596//596 598//598 
f 605//605 602//602 476//476 
f 505//505 232//232 466//466 
f 605//605 477//477 607//607 
f 515//515 131//131 514//514 
f 514//514 503//503 513//513 
f 473//473 472//472 469//469 
f 128//128 510//510 127//127 
f 503//503 518//518 499//499 
f 556//556 520//520 562//562 
f 81//81 78//78 76//76 
f 522//522 494//494 495//495 
f 491//491 487//487 488//488 
f 514//514 513//513 515//515 
f 239//239 205//205 200//200 
f 509//509 84//84 490//490 
f 239//239 200//200 215//215 
f 251//251 466//466 595//595 
f 54//54 71//71 265//265 
f 630//630 249//249 506//506 
f 489//489 76//76 623//623 
f 527//527 146//146 453//453 
f 493//493 528//528 491//491 
f 529//529 468//468 528//528 
f 173//173 632//632 592//592 
f 522//522 98//98 493//493 
f 513//513 503//503 512//512 
f 212//212 209//209 211//211 
f 116//116 115//115 117//117 
f 358//358 116//116 118//118 
f 122//122 118//118 120//120 
f 128//128 82//82 84//84 
f 630//630 410//410 196//196 
f 486//486 482//482 483//483 
f 64//64 70//70 63//63 
f 486//486 483//483 494//494 
f 528//528 460//460 491//491 
f 576//576 571//571 373//373 
f 628//628 627//627 631//631 
f 64//64 63//63 67//67 
f 488//488 486//486 494//494 
f 458//458 80//80 485//485 
f 20//20 15//15 23//23 
f 97//97 17//17 33//33 
f 290//290 410//410 618//618 
f 615//615 569//569 619//619 
f 69//69 102//102 104//104 
f 495//495 483//483 499//499 
f 397//397 355//355 371//371 
f 397//397 381//381 391//391 
f 521//521 495//495 499//499 
f 364//364 375//375 362//362 
f 481//481 64//64 482//482 
f 483//483 69//69 497//497 
f 549//549 533//533 522//522 
f 535//535 98//98 533//533 
f 549//549 522//522 550//550 
f 461//461 485//485 487//487 
f 532//532 493//493 98//98 
f 551//551 549//549 550//550 
f 509//509 490//490 511//511 
f 510//510 509//509 511//511 
f 128//128 84//84 509//509 
f 113//113 117//117 265//265 
f 229//229 217//217 221//221 
f 512//512 399//399 513//513 
f 397//397 501//501 356//356 
f 497//497 69//69 104//104 
f 356//356 148//148 355//355 
f 122//122 120//120 121//121 
f 67//67 62//62 68//68 
f 555//555 616//616 600//600 
f 69//69 67//67 68//68 
f 69//69 68//68 102//102 
f 526//526 346//346 453//453 
f 526//526 146//146 612//612 
f 522//522 521//521 550//550 
f 606//606 604//604 601//601 
f 529//529 532//532 534//534 
f 531//531 529//529 534//534 
f 519//519 521//521 518//518 
f 113//113 71//71 114//114 
f 510//510 128//128 509//509 
f 504//504 560//560 470//470 
f 626//626 190//190 625//625 
f 466//466 251//251 505//505 
f 173//173 618//618 632//632 
f 626//626 627//627 612//612 
f 462//462 455//455 468//468 
f 469//469 462//462 468//468 
f 532//532 98//98 535//535 
f 601//601 609//609 577//577 
f 539//539 534//534 543//543 
f 545//545 539//539 543//543 
f 487//487 460//460 461//461 
f 507//507 51//51 585//585 
f 534//534 532//532 543//543 
f 550//550 521//521 552//552 
f 486//486 485//485 481//481 
f 420//420 624//624 570//570 
f 547//547 545//545 543//543 
f 577//577 548//548 601//601 
f 547//547 535//535 536//536 
f 486//486 481//481 482//482 
f 494//494 483//483 495//495 
f 522//522 495//495 521//521 
f 468//468 460//460 528//528 
f 525//525 440//440 505//505 
f 554//554 551//551 559//559 
f 548//548 546//546 563//563 
f 478//478 474//474 540//540 
f 480//480 478//478 479//479 
f 542//542 544//544 548//548 
f 548//548 544//544 546//546 
f 480//480 542//542 548//548 
f 631//631 196//196 410//410 
f 546//546 545//545 547//547 
f 536//536 533//533 549//549 
f 194//194 191//191 187//187 
f 547//547 543//543 535//535 
f 474//474 475//475 531//531 
f 480//480 548//548 577//577 
f 616//616 505//505 440//440 
f 562//562 520//520 527//527 
f 613//613 215//215 467//467 
f 608//608 605//605 607//607 
f 539//539 538//538 534//534 
f 544//544 539//539 545//545 
f 543//543 532//532 535//535 
f 546//546 544//544 545//545 
f 600//600 616//616 591//591 
f 470//470 51//51 504//504 
f 541//541 471//471 557//557 
f 554//554 559//559 547//547 
f 475//475 473//473 531//531 
f 608//608 607//607 614//614 
f 547//547 536//536 554//554 
f 559//559 551//551 556//556 
f 351//351 595//595 466//466 
f 564//564 559//559 556//556 
f 527//527 523//523 146//146 
f 493//493 488//488 494//494 
f 552//552 520//520 556//556 
f 529//529 528//528 532//532 
f 559//559 564//564 563//563 
f 544//544 542//542 540//540 
f 577//577 614//614 607//607 
f 522//522 493//493 494//494 
f 527//527 520//520 524//524 
f 630//630 195//195 228//228 
f 520//520 552//552 524//524 
f 552//552 519//519 524//524 
f 570//570 560//560 504//504 
f 427//427 420//420 507//507 
f 521//521 499//499 518//518 
f 524//524 508//508 511//511 
f 508//508 510//510 511//511 
f 530//530 471//471 541//541 
f 471//471 537//537 51//51 
f 557//557 12//12 553//553 
f 617//617 633//633 608//608 
f 588//588 584//584 590//590 
f 569//569 609//609 537//537 
f 593//593 465//465 472//472 
f 574//574 139//139 456//456 
f 580//580 579//579 581//581 
f 632//632 324//324 427//427 
f 572//572 574//574 578//578 
f 593//593 472//472 598//598 
f 580//580 568//568 579//579 
f 574//574 565//565 578//578 
f 257//257 193//193 138//138 
f 456//456 463//463 565//565 
f 621//621 581//581 603//603 
f 595//595 629//629 251//251 
f 587//587 575//575 583//583 
f 618//618 576//576 373//373 
f 138//138 187//187 78//78 
f 455//455 463//463 456//456 
f 574//574 572//572 575//575 
f 573//573 459//459 456//456 
f 228//228 185//185 230//230 
f 614//614 615//615 619//619 
f 506//506 249//249 250//250 
f 569//569 622//622 620//620 
f 506//506 410//410 630//630 
f 139//139 138//138 573//573 
f 600//600 582//582 581//581 
f 566//566 567//567 594//594 
f 205//205 165//165 200//200 
f 581//581 579//579 594//594 
f 580//580 581//581 582//582 
f 620//620 611//611 619//619 
f 142//142 257//257 575//575 
f 560//560 570//570 376//376 
f 257//257 138//138 139//139 
f 555//555 621//621 622//622 
f 601//601 548//548 561//561 
f 616//616 557//557 553//553 
f 587//587 588//588 589//589 
f 622//622 569//569 530//530 
f 615//615 577//577 609//609 
f 555//555 557//557 616//616 
f 507//507 420//420 504//504 
f 616//616 440//440 591//591 
f 622//622 530//530 555//555 
f 619//619 617//617 614//614 
f 617//617 608//608 614//614 
f 616//616 553//553 505//505 
f 507//507 504//504 51//51 
f 579//579 566//566 594//594 
f 596//596 567//567 593//593 
f 610//610 602//602 633//633 
f 621//621 611//611 622//622 
f 464//464 465//465 593//593 
f 590//590 584//584 580//580 
f 583//583 572//572 584//584 
f 585//585 537//537 609//609 
f 582//582 590//590 580//580 
f 521//521 519//519 552//552 
f 619//619 611//611 617//617 
f 621//621 600//600 581//581 
f 611//611 621//621 610//610 
f 185//185 184//184 230//230 
f 464//464 463//463 465//465 
f 555//555 541//541 557//557 
f 480//480 479//479 542//542 
f 591//591 582//582 600//600 
f 547//547 563//563 546//546 
f 555//555 600//600 621//621 
f 476//476 477//477 605//605 
f 579//579 578//578 566//566 
f 440//440 589//589 591//591 
f 535//535 533//533 536//536 
f 523//523 524//524 511//511 
f 602//602 599//599 598//598 
f 475//475 598//598 597//597 
f 538//538 539//539 540//540 
f 477//477 474//474 478//478 
f 464//464 593//593 567//567 
f 620//620 622//622 611//611 
f 610//610 617//617 611//611 
f 479//479 478//478 540//540 
f 607//607 480//480 577//577 
f 603//603 599//599 602//602 
f 475//475 474//474 476//476 
f 530//530 541//541 555//555 
f 526//526 612//612 365//365 
f 602//602 475//475 476//476 
f 376//376 351//351 323//323 
f 477//477 478//478 480//480 
f 609//609 601//601 604//604 
f 159//159 199//199 198//198 
f 477//477 476//476 474//474 
f 602//602 610//610 603//603 
f 474//474 531//531 538//538 
f 578//578 565//565 566//566 
f 581//581 599//599 603//603 
f 633//633 602//602 605//605 
f 479//479 540//540 542//542 
f 540//540 474//474 538//538 
f 471//471 12//12 557//557 
f 607//607 477//477 480//480 
f 598//598 596//596 593//593 
f 617//617 610//610 633//633 
f 470//470 12//12 51//51 
f 620//620 619//619 569//569 
f 470//470 560//560 553//553 
f 598//598 472//472 597//597 
f 218//218 385//385 220//220 
f 523//523 490//490 626//626 
f 323//323 466//466 232//232 
f 324//324 632//632 618//618 
f 484//484 498//498 492//492 
f 627//627 626//626 625//625 
f 230//230 184//184 229//229 
f 210//210 208//208 209//209 
f 511//511 490//490 523//523 
f 230//230 229//229 237//237 
f 624//624 427//427 324//324 
f 190//190 191//191 192//192 
f 226//226 218//218 220//220 
f 228//228 230//230 249//249 
f 226//226 401//401 238//238 
f 571//571 254//254 613//613 
f 226//226 220//220 401//401 
f 187//187 193//193 194//194 
f 52//52 50//50 636//636 
f 444//444 434//434 637//637 
f 434//434 445//445 637//637 
f 445//445 444//444 637//637 
f 566//566 565//565 638//638 
f 565//565 464//464 638//638 
f 464//464 566//566 638//638 
f 449//449 446//446 639//639 
f 446//446 452//452 639//639 
f 452//452 449//449 639//639 
f 142//142 575//575 640//640 
f 575//575 586//586 640//640 
f 586//586 142//142 640//640 
f 485//485 461//461 641//641 
f 461//461 458//458 641//641 
f 458//458 485//485 641//641 
f 188//188 187//187 642//642 
f 187//187 191//191 642//642 
f 191//191 188//188 642//642 
f 12//12 471//471 643//643 
f 471//471 51//51 643//643 
f 51//51 12//12 643//643 
f 605//605 608//608 644//644 
f 608//608 633//633 644//644 
f 633//633 605//605 644//644 
f 559//559 563//563 645//645 
f 563//563 547//547 645//645 
f 547//547 559//559 645//645 
f 526//526 173//173 646//646 
f 173//173 346//346 646//646 
f 346//346 526//526 646//646 
f 345//345 3//3 647//647 
f 3//3 634//634 647//647 
f 634//634 345//345 647//647 
f 319//319 318//318 648//648 
f 318//318 635//635 648//648 
f 635//635 319//319 648//648 
