# PIPER geometrical reference model based on a manual segmentation. See the
# documentation for more info.
# Author: CEESAR, SOTON, UCBL-Ifsttar
# Version: 1.0.0
# License: Creative Commons Attribution 4.0 International License.
# (https://creativecommons.org/licenses/by/4.0/)
# 
# This work has received funding from the European Union Seventh Framework
# Program ([FP7/2007-2013]) under grant agreement 605544 [PIPER project]).
# Contributors include Pierre Maillez, Christophe Lecomte (SOTON), Erwan
# Jolivet (CEESAR), Philippe Beillas (UCBL-Ifsttar)
# This work is derived from a CT scan provided by CEESAR under a CCBY-4.0
# License
# 
# wavefront obj file written by the visualization toolkit

mtllib C:/desktop/registration_reference_model/22_REF_LTE635_Assembly_hands_corr/CCTs635_BP156_Patella_L.mtl

v -83.718 166.811 -1298.48
v -84.48 163.951 -1292.65
v -81.224 162.047 -1294.22
v -82.608 163.824 -1294
v -79.825 160.509 -1294.78
v -117.503 165.415 -1307.85
v -118.657 164.944 -1306.56
v -81.735 159.542 -1293.59
v -78.486 162.43 -1297.6
v -112.544 159.499 -1310.08
v -115.838 159.969 -1307.5
v -78.949 163.017 -1301.41
v -117.218 162.844 -1297.31
v -79.971 164.373 -1298.92
v -81.395 165.154 -1297.06
v -81.077 163.89 -1295.5
v -79.928 163.896 -1297.23
v -82.054 165.932 -1298.79
v -79.639 162.403 -1295.75
v -77.859 162.118 -1299.67
v -78.328 160.854 -1296.2
v -77.186 160.571 -1298.08
v -83.505 166.529 -1300.71
v -114.112 158.921 -1306.45
v -76.673 160.601 -1300.33
v -115.703 163.227 -1293.84
v -80.154 163.571 -1303.69
v -80.904 164.912 -1300.92
v -115.988 159.739 -1305.22
v -114.141 162.776 -1292.55
v -82.702 165.518 -1303.75
v -98.07 159.189 -1326.64
v -81.513 163.587 -1306.96
v -84.672 165.91 -1306.85
v -76.951 160.841 -1302.7
v -77.348 160.831 -1304.69
v -105.766 160.618 -1321.83
v -88.068 168.294 -1293.02
v -92.466 168.372 -1290.38
v -90.883 167.578 -1290.36
v -95.87 171.119 -1292.53
v -97.323 170.889 -1291.24
v -94.377 168.324 -1289.78
v -93.557 169.979 -1291.71
v -80.931 158.05 -1313.43
v -96.418 168.442 -1289.32
v -95.838 169.888 -1290.58
v -92.657 158.139 -1286.18
v -86.66 164.475 -1291.34
v -91.363 162.914 -1288.46
v -103.598 159.726 -1323.99
v -89.358 165.569 -1290.14
v -88.168 162.38 -1289.79
v -85.532 161.866 -1291.29
v -102.523 158.737 -1324.45
v -89.646 160.134 -1288.34
v -94.449 163.88 -1287.94
v -84.795 152.003 -1297.74
v -96.509 159.715 -1285.47
v -108.455 155.728 -1307.54
v -97.279 157.695 -1285.02
v -92.615 166.211 -1289.22
v -95.692 166.408 -1288.69
v -89.925 170.045 -1295.63
v -100.809 160.338 -1326.09
v -82.882 166.224 -1297.02
v -101.308 158.685 -1325.38
v -85.482 167.56 -1296.38
v -89.583 169.297 -1293.33
v -91.672 170.348 -1293.73
v -98.501 157.605 -1325.98
v -86.542 167.719 -1293.87
v -99.762 158.84 -1326.3
v -88.03 168.857 -1294.88
v -90.602 170.244 -1298.29
v -100.05 157.55 -1324.97
v -85.903 167.667 -1299.04
v -88.222 169.03 -1297.42
v -94.049 171.232 -1294.32
v -92.245 171.03 -1296.27
v -98.169 171.731 -1292.88
v -96.564 171.944 -1294.93
v -92.941 171.122 -1298.67
v -99.962 157.048 -1323.14
v -97.486 172.385 -1297.71
v -98.233 156.304 -1322.53
v -94.712 171.787 -1297.06
v -83.822 165.487 -1294.16
v -84.1 166.556 -1295.34
v -85.48 166.02 -1292.96
v -83.217 161.785 -1292.82
v -82.486 165.248 -1295.5
v -86.151 167.507 -1303.16
v -88.768 169.058 -1300.52
v -102.871 158.481 -1322.98
v -88.005 167.651 -1307.04
v -91.908 170.416 -1301.18
v -95.443 171.514 -1300.54
v -94.092 170.329 -1304.78
v -104.234 159.508 -1322.32
v -90.003 169.129 -1304.08
v -79.381 161.166 -1308.32
v -78.917 162.021 -1305.67
v -77.619 160.251 -1306.73
v -103.455 161.428 -1324.67
v -81.624 161.913 -1310.2
v -79.702 159.416 -1311.06
v -91.453 168.898 -1307.6
v -89.608 167.576 -1310.39
v -94.352 169.524 -1308.38
v -92.795 168.746 -1310.89
v -78.04 153.339 -1310.84
v -83.819 164.073 -1309.81
v -86.511 166.058 -1310.02
v -103.142 158.399 -1321.06
v -85.538 164.035 -1312.56
v -91.121 167.359 -1313.56
v -92.617 166.699 -1316.58
v -101.339 157.713 -1323.87
v -94.496 168.304 -1314.07
v -95.99 167.254 -1317.35
v -89.685 165.547 -1315.94
v -88.646 163.645 -1317.81
v -91.023 164.966 -1318.59
v -77.483 153.797 -1309.14
v -99.712 156.913 -1321.04
v -89.871 163.26 -1320.13
v -88.272 162.158 -1319.55
v -86.646 161.417 -1317.79
v -87.619 160.42 -1320.27
v -93.796 165.726 -1319.49
v -98.159 161.494 -1285.79
v -90.739 162.419 -1321.99
v -89.115 161.582 -1321.19
v -88.871 159.727 -1322.02
v -91.976 164.102 -1320.99
v -94.384 164.43 -1322.15
v -97.126 165.754 -1320.77
v -106.129 158.917 -1318.55
v -92.594 162.852 -1323
v -90.61 161.158 -1322.9
v -93.013 161.402 -1324.51
v -94.622 161.191 -1325.5
v -94.556 162.838 -1324.19
v -96.503 162.208 -1325.55
v -105.058 159.135 -1320.5
v -76.318 159.108 -1299.29
v -78.943 159.095 -1295.26
v -105.465 157.63 -1316.77
v -81 157.409 -1294.33
v -82.925 156.887 -1293.03
v -77.671 155.961 -1311.68
v -81.784 155.868 -1294.48
v -107.011 159.189 -1316.49
v -83.016 154.707 -1294.09
v -94.911 161.766 -1286.76
v -78.001 157.913 -1296.49
v -77.638 159.438 -1296.66
v -79.401 157.521 -1295.35
v -78.99 156.294 -1296.81
v -77.559 156.901 -1297.96
v -80.522 155.004 -1297.44
v -80.483 155.998 -1295.58
v -81.885 154.631 -1295.8
v -83.562 153.201 -1295.63
v -83.356 152.448 -1301.01
v -76.016 159.298 -1301
v -76.064 159.545 -1302.57
v -76.265 157.746 -1299.73
v -76.626 156.333 -1301.62
v -75.842 158.006 -1302.09
v -94.176 159.981 -1286.15
v -75.792 158.489 -1303.75
v -76.277 159.368 -1305.05
v -75.978 157.681 -1306.58
v -75.773 157.353 -1305
v -77.209 156.37 -1299.72
v -78.827 155.527 -1298.77
v -80.689 154.322 -1299.91
v -78.44 155.117 -1301.07
v -106.474 158.137 -1314.75
v -80.198 153.632 -1303.09
v -77.36 155.029 -1303.45
v -107.919 159.328 -1314.36
v -97.764 155.984 -1284.89
v -76.95 156.228 -1310.38
v -88.863 157.521 -1287.92
v -82.468 153.6 -1297.92
v -111.903 159.607 -1300.51
v -90.954 156.198 -1286.46
v -88.82 154.882 -1287.7
v -90.502 153.655 -1286.5
v -89.201 152.57 -1288.01
v -95.701 152.215 -1287.49
v -87.006 155.97 -1289.31
v -84.167 159.327 -1291.87
v -86.852 159.151 -1289.85
v -85.076 156.706 -1291.15
v -76.957 158.59 -1297.76
v -94.995 157.692 -1285.3
v -84.611 161.46 -1314.7
v -101.991 156.807 -1317.92
v -94.002 154.421 -1285.15
v -95.85 156.3 -1284.76
v -92.297 154.359 -1285.65
v -96.089 154.616 -1284.85
v -90.75 158.498 -1287.07
v -88.15 165.901 -1313.05
v -97.959 154.512 -1285.64
v -96.505 153.465 -1285.75
v -97.877 153.531 -1287.4
v -90.948 151.764 -1287.26
v -87.136 153.6 -1289.65
v -90.233 151.018 -1288.89
v -88.479 151.507 -1289.78
v -88.228 150.833 -1291.84
v -92.394 152.68 -1285.93
v -94.794 153.042 -1285.61
v -103.9 157.628 -1318.88
v -93.3 151.78 -1286.67
v -93.732 151.219 -1288.15
v -95.103 151.288 -1289.83
v -91.979 150.835 -1288.45
v -83.524 162.402 -1312.03
v -91.511 150.48 -1289.91
v -97.375 152.584 -1289.73
v -96.471 151.253 -1292.09
v -93.551 150.505 -1290.85
v -84.267 154.824 -1292.44
v -85.401 152.86 -1292.19
v -84.443 153.168 -1293.61
v -86.839 152.153 -1290.92
v -88.009 150.647 -1294.19
v -86.505 151.564 -1292.74
v -85.617 151.824 -1294.83
v -89.901 150.436 -1291.16
v -87.424 150.606 -1296.98
v -101.582 157.477 -1319.83
v -90.446 149.72 -1295.9
v -103.522 156.481 -1316.58
v -86.544 150.651 -1300.15
v -89.496 149.592 -1299.18
v -93.518 149.376 -1296.09
v -97.689 150.985 -1294.91
v -95.084 150.036 -1294.1
v -92.249 149.033 -1298.43
v -99.694 156.234 -1318.39
v -94.89 149.088 -1298.33
v -95.87 149.764 -1296.34
v -91.99 160.273 -1287.16
v -93.677 148.627 -1300.14
v -85.539 150.409 -1303.41
v -88.825 149.178 -1302.62
v -104.966 156.59 -1314.95
v -91.645 148.239 -1303.68
v -106.468 172.589 -1292.6
v -87.293 148.885 -1305.51
v -89.78 148.148 -1305.41
v -95.847 148.836 -1300.78
v -91.603 148.761 -1301.04
v -93.801 148.284 -1302.3
v -103.3 155.027 -1314.57
v -91.978 147.553 -1306.05
v -93.92 147.808 -1304.77
v -96.01 147.847 -1306.14
v -76.708 158.882 -1307.17
v -89.265 167.964 -1291.54
v -76.789 154.965 -1305.32
v -75.988 156.607 -1303.64
v -76.033 156.105 -1306.09
v -104.213 153.892 -1313.05
v -76.852 154.599 -1307.19
v -105.478 154.198 -1311.66
v -101.026 153.945 -1314.37
v -76.092 156.475 -1307.78
v -76.814 155.086 -1309.91
v -78.25 153.809 -1305.39
v -80.293 152.453 -1306.05
v -103.43 154.266 -1299.9
v -78.479 152.946 -1307.55
v -105.299 155.213 -1313.52
v -100.937 152.939 -1296.41
v -77.687 158.995 -1308.8
v -101.378 155.652 -1316.21
v -76.603 157.42 -1308.8
v -77.83 157.589 -1310.7
v -78.723 155.181 -1312.96
v -78.63 152.285 -1309.51
v -99.209 157.004 -1285.12
v -96.526 153.444 -1315.8
v -77.798 154.415 -1311.87
v -79.324 152.275 -1311.27
v -82.018 150.945 -1307.3
v -82.726 151.713 -1304.63
v -112.588 164.893 -1313.7
v -102.722 153.364 -1313.36
v -99.034 154.548 -1316.02
v -80.469 150.952 -1308.81
v -80.473 150.428 -1310.53
v -81.61 150.314 -1312.06
v -82.287 149.312 -1310.57
v -83.201 149.368 -1312.13
v -106.311 156.523 -1299.76
v -102.924 171.813 -1290.85
v -79.084 157.088 -1312.39
v -98.573 152.661 -1313.64
v -80.253 155.896 -1313.82
v -82.175 160.372 -1312.78
v -107.819 158.312 -1296.64
v -82.946 158.741 -1315
v -108.394 159.885 -1293.53
v -101.172 152.323 -1312.5
v -78.942 153.429 -1312.26
v -107.05 159.661 -1290.8
v -80.21 153.981 -1313.36
v -81.617 154.417 -1314.52
v -81.8 156.506 -1315.16
v -83.31 152.904 -1314.77
v -83.563 156.841 -1316.67
v -82.822 154.691 -1316.16
v -80.874 152.701 -1312.83
v -82.913 151.151 -1313.28
v -84.629 149.846 -1306.68
v -105.866 173.029 -1295.77
v -104.469 155.866 -1296.37
v -86.53 148.203 -1307.79
v -88.496 147.655 -1307.2
v -86.359 149.125 -1312.63
v -89.817 150.79 -1313.48
v -113.497 165.46 -1312.5
v -102.313 155.584 -1292.35
v -84.399 148.834 -1308.85
v -86.244 147.531 -1309.67
v -99.376 151.064 -1311.38
v -85.08 147.998 -1310.47
v -85.373 148.271 -1311.76
v -87.814 147.059 -1308.89
v -89.197 146.603 -1310.02
v -87.638 147.002 -1310.77
v -89.113 147.5 -1311.3
v -92.191 146.93 -1308.1
v -89.324 146.9 -1308.45
v -90.668 146.704 -1309.14
v -93.952 147.305 -1307.07
v -93.845 147.164 -1309.14
v -95.607 147.63 -1308.43
v -100.644 150.668 -1309.65
v -95.015 147.795 -1310.02
v -93.564 149.438 -1312
v -97.847 149.773 -1310.32
v -99.111 152.964 -1292.45
v -96.482 148.431 -1310.01
v -95.282 150.314 -1312.25
v -97.261 150.983 -1311.96
v -90.547 147.379 -1310.87
v -92.192 147.155 -1310.05
v -89.852 148.989 -1312.02
v -91.931 148.489 -1311.45
v -94.48 148.286 -1310.92
v -84.851 159.044 -1316.98
v -86.318 158.819 -1319.17
v -84.27 153.168 -1316.56
v -84.948 152.416 -1315.37
v -86.014 152.492 -1316.48
v -85.214 156.894 -1318.35
v -84.247 154.976 -1317.82
v -85.538 153.164 -1318.32
v -93.783 152.51 -1315.67
v -105.716 157.931 -1293.25
v -91.289 152.494 -1316.49
v -92.733 153.037 -1318.06
v -97.221 154.814 -1318.07
v -101.58 150.715 -1307.59
v -94.911 153.755 -1317.9
v -84.763 151.493 -1314.18
v -84.719 149.974 -1313.09
v -100.837 150.65 -1304.53
v -86.406 150.548 -1313.53
v -86.316 151.874 -1314.92
v -87.988 151.404 -1314.21
v -119.065 163.251 -1306.29
v -89.635 151.986 -1315.22
v -98.862 159.237 -1285.23
v -87.771 152.262 -1315.92
v -104.436 158.038 -1289.74
v -89.267 152.512 -1317.15
v -91.65 151.561 -1314.47
v -93.632 151.013 -1313.45
v -91.741 150.118 -1312.74
v -95.81 151.889 -1313.76
v -86.635 156.687 -1320.07
v -99.803 149.537 -1306.9
v -87.661 158.259 -1321.06
v -97.82 148.612 -1308.07
v -85.758 154.97 -1319.33
v -87.928 152.58 -1318.3
v -88.381 153.41 -1320.82
v -90.206 152.57 -1320.42
v -87.845 154.862 -1321.19
v -98.318 148.802 -1305.16
v -88.746 157.147 -1322.12
v -92.023 152.916 -1319.96
v -93.737 153.631 -1319.85
v -94.002 154.52 -1321.81
v -92.875 155.041 -1322.97
v -91.435 153.37 -1321.61
v -90.215 154.021 -1322.06
v -92.834 153.509 -1321.19
v -95.636 154.647 -1320.08
v -97.726 155.821 -1320.4
v -91.26 159.472 -1324.07
v -90.862 157.432 -1323.75
v -93.916 159.902 -1325.65
v -92.291 158.313 -1324.8
v -94.283 158.546 -1325.8
v -105.227 153.41 -1309.45
v -96.905 158.137 -1326.35
v -95.672 156.108 -1324.45
v -95.523 157.413 -1325.81
v -98.26 156.462 -1324.36
v -97.091 156.733 -1325.33
v -107.26 155.037 -1310.03
v -89.954 156.006 -1322.83
v -92.087 156.75 -1324.27
v -99.31 154.808 -1286.78
v -93.564 156.747 -1324.86
v -94.226 155.597 -1323.53
v -96.114 155.53 -1322.39
v -90.73 152.613 -1318.53
v -96.357 159.177 -1326.48
v -98.515 167.559 -1288.32
v -101.431 168.363 -1287.7
v -103.406 166.768 -1286.53
v -109.255 157.738 -1311.65
v -100.506 171.246 -1290.51
v -100.94 172.14 -1292.65
v -102.288 170.516 -1288.95
v -104.93 172.018 -1291.22
v -103.886 172.616 -1293.06
v -97.806 169.784 -1289.74
v -99.957 169.962 -1289.09
v -104.621 170.974 -1289.46
v -109.447 159.504 -1312.77
v -118.554 161.65 -1305.58
v -104.077 169.143 -1287.74
v -111.006 158.045 -1309.83
v -108.895 167.911 -1287.94
v -108.212 171.656 -1291.58
v -106.628 169.558 -1288.59
v -111.353 168.632 -1289.78
v -97.721 164.167 -1287.29
v -100.71 165.675 -1286.82
v -109.315 156.587 -1309.75
v -105.503 165.057 -1285.59
v -102.838 164.29 -1285.61
v -104.507 162.9 -1285.11
v -100.445 162.822 -1285.71
v -106.716 156.58 -1313.29
v -107.486 156.111 -1312.04
v -100.734 160.28 -1284.96
v -105.515 161.417 -1285.34
v -102.697 162.138 -1285.07
v -103.793 161.056 -1285
v -104.563 160.083 -1285.59
v -107.886 165.988 -1286.2
v -106.082 167.543 -1286.91
v -106.404 162.986 -1285.24
v -107.013 155.565 -1305.22
v -109.999 165.933 -1286.82
v -107.449 164.298 -1285.47
v -109.129 164.401 -1285.86
v -110.718 164.2 -1286.72
v -105.139 153.278 -1307.42
v -107.073 161.458 -1286.02
v -106.004 160.237 -1286.52
v -112.575 163.297 -1314.35
v -108.175 162.798 -1285.68
v -108.194 161.369 -1287.03
v -113.938 162.572 -1313.24
v -109.928 162.808 -1286.63
v -110.047 161.933 -1288.41
v -107.133 160.226 -1288.67
v -109.627 161.196 -1291
v -91.154 169.161 -1291.66
v -99.306 172.425 -1295.29
v -102.338 172.738 -1295.59
v -100.462 172.634 -1298.15
v -103.647 172.793 -1298.7
v -108.617 172.81 -1294.1
v -109.192 172.803 -1296.91
v -110.799 170.666 -1291.56
v -110.269 172.009 -1293.05
v -110.865 172.428 -1294.91
v -99.52 155.726 -1285.75
v -110.509 157.14 -1307.7
v -110.609 161.133 -1293.49
v -110.601 159.847 -1297.39
v -112.48 158.351 -1308.13
v -98.648 172.241 -1300.33
v -101.427 172.353 -1301.28
v -111.819 158.127 -1305.65
v -104.78 172.357 -1301.98
v -98.582 171.317 -1303.77
v -102.542 171.626 -1304.54
v -107.054 172.711 -1299.37
v -108.113 171.846 -1302.65
v -109.354 157.012 -1305.31
v -110.64 171.843 -1300.01
v -113.368 170.459 -1301.49
v -111.13 170.782 -1303.43
v -111.578 166.884 -1288.28
v -113.542 167.804 -1290.35
v -111.763 165.484 -1287.68
v -103.498 152.763 -1311.32
v -112.202 164.316 -1288.07
v -87.398 166.835 -1291.9
v -113.299 165.728 -1289.03
v -103.396 152.066 -1308.69
v -113.542 164.329 -1289.48
v -114.386 166.715 -1290.29
v -116.477 166.161 -1292.62
v -115.132 165.749 -1290.82
v -103.181 152.107 -1306.11
v -111.467 162.328 -1289.85
v -112.256 163.282 -1288.88
v -113.139 162.996 -1290.51
v -112.082 171.39 -1293.39
v -112.633 171.731 -1295.23
v -113.959 170.623 -1294.35
v -113.263 169.531 -1292
v -115.321 169.048 -1293.58
v -115.147 167.664 -1291.77
v -100.879 155.518 -1289.05
v -101.072 156.138 -1287.16
v -115.751 169.796 -1295.91
v -117.406 168.355 -1296.49
v -116.577 168.065 -1294.09
v -113.721 159.365 -1303.41
v -114.361 170.848 -1297
v -116.616 160.558 -1302.84
v -116.736 169.364 -1298.14
v -118.24 167.881 -1298.23
v -114.592 164.126 -1290.82
v -115.879 164.237 -1292.31
v -117.048 164.631 -1294.17
v -117.224 166.669 -1294.22
v -116.299 163.059 -1295.56
v -111.929 162.084 -1291.92
v -114.466 162.398 -1294.91
v -115.037 161.958 -1297.36
v -112.649 161.597 -1313.07
v -117.917 165.812 -1295.53
v -117.697 167.248 -1295.66
v -117.932 164.134 -1296.32
v -112.599 161.903 -1294.05
v -116.28 162.907 -1311.29
v -118.422 162.707 -1298.64
v -116.804 161.933 -1299.1
v -119.058 166.27 -1298.07
v -119.203 164.947 -1297.93
v -96.107 148.291 -1303.5
v -101.17 157.012 -1285.88
v -119.471 163.883 -1298.76
v -111.874 172.032 -1297.18
v -117.591 168.539 -1300.46
v -115.378 169.952 -1299.89
v -109.175 158.225 -1300.09
v -115.716 169.141 -1302.37
v -116.189 167.881 -1304.95
v -119.204 166.972 -1299.73
v -103.101 152.95 -1303.23
v -114.802 160.902 -1300.36
v -118.097 161.875 -1300.21
v -118.358 161.57 -1301.86
v -119.674 165.309 -1299.23
v -119.816 165.583 -1300.89
v -119.416 162.843 -1300.13
v -119.665 165.652 -1302.59
v -119.938 164.149 -1301.08
v -117.631 167.763 -1302.9
v -118.977 166.986 -1301.89
v -119.466 164.499 -1305.2
v -119.84 164.253 -1303.56
v -98.383 149.612 -1302.17
v -119.539 162.655 -1302.78
v -119.448 162.839 -1304.58
v -118.375 161.291 -1304.05
v -97.245 170.272 -1307.65
v -103.916 170.915 -1307.57
v -100.723 170.618 -1307.28
v -96.176 169.385 -1311.02
v -102.406 169.999 -1309.7
v -99.652 169.596 -1310.46
v -100.806 151.718 -1300.78
v -105.899 171.518 -1305.12
v -109.005 170.916 -1305.74
v -106.99 170.628 -1308.09
v -112.207 169.555 -1305.91
v -109.806 169.578 -1308.45
v -105.035 169.853 -1310.35
v -107.923 169.063 -1310.59
v -110.503 167.896 -1310.72
v -110.941 159.487 -1311.38
v -98.656 168.653 -1314.42
v -102.711 168.995 -1312.8
v -99.442 167.155 -1318.22
v -102.091 167.814 -1316.3
v -106.18 168.486 -1312.84
v -104.936 167.843 -1315.33
v -108.884 167.544 -1312.85
v -102.322 166.741 -1319.13
v -104.45 167.041 -1317.8
v -111.409 166.344 -1312.97
v -109.687 165.983 -1314.9
v -97.896 150.186 -1298.48
v -110.946 164.798 -1315.01
v -109.621 160.834 -1314.37
v -110.922 160.87 -1312.87
v -110.128 161.954 -1315.81
v -111.244 161.82 -1314.47
v -111.13 163.337 -1315.48
v -107.015 166.951 -1315.95
v -107.998 165.727 -1317.15
v -106.119 166.046 -1318.78
v -104.635 158.851 -1287.27
v -109.294 164.654 -1316.81
v -109.951 163.531 -1316.66
v -107.617 160.46 -1318.1
v -108.641 160.763 -1316.29
v -109.013 163.019 -1317.95
v -109.08 162.001 -1317.38
v -100.492 165.891 -1320.97
v -104.944 153.861 -1305.36
v -102.941 165.688 -1321.23
v -104.725 160.974 -1323.42
v -98.537 163.227 -1325.02
v -96.665 164.111 -1323.64
v -99.23 164.734 -1323.15
v -101.902 164.706 -1323.03
v -104.445 165.017 -1321.86
v -105.299 155.202 -1302.74
v -100.697 163.448 -1324.68
v -96.92 160.507 -1326.46
v -99.118 161.769 -1326.04
v -99.066 160.528 -1326.49
v -102.826 163.27 -1324.27
v -104.782 163.967 -1322.78
v -104.314 162.742 -1323.83
v -102.458 160.057 -1325.3
v -101.754 161.822 -1325.41
v -108.18 164.094 -1318.84
v -104.484 166.107 -1319.87
v -106.41 165.184 -1320.12
v -107.342 163.884 -1320.27
v -106.764 160.455 -1319.99
v -107.907 156.903 -1302.7
v -106.923 162.19 -1321.15
v -107.993 162.188 -1319.28
v -106.179 163.945 -1321.7
v -105.745 162.396 -1322.73
v -112.251 168.25 -1308.72
v -114.085 168.23 -1306.8
v -117.907 166.406 -1305.66
v -110.632 158.238 -1302.95
v -119.151 165.667 -1304.65
v -115.186 166.92 -1308.36
v -114.784 164.034 -1312.55
v -118.391 163.78 -1307.89
v -114.204 159.618 -1308.75
v -117.355 160.665 -1306.51
v -117.647 162.541 -1308.89
v -103.399 158.805 -1285.73
v -116.983 161.559 -1308.63
v -118.287 162.02 -1307.38
v -101.376 158.891 -1284.97
v -112.873 166.907 -1310.89
v -117.404 164.204 -1309.32
v -115.328 165.663 -1310.51
v -116.323 164.365 -1310.79
v -114.486 160.876 -1310.32
v -115.116 161.977 -1311.83
v -96.571 162.726 -1325.03
v -118.532 165.764 -1305.55
v -94.659 169.772 -1307.59
vn 0.432502 0.901622 -0.00437063
vn 0.560531 0.33146 0.758907
vn 0.570536 0.275973 0.773516
vn 0.583547 0.42417 0.692497
vn 0.576904 0.167853 0.799379
vn -0.670662 0.591591 -0.447473
vn -0.807167 0.405255 -0.429244
vn 0.544815 0.000660613 0.838556
vn 0.766573 0.568536 0.298551
vn -0.476768 -0.705158 -0.524828
vn -0.497593 -0.812255 -0.304373
vn 0.685553 0.716898 -0.126787
vn -0.44525 -0.794798 0.412369
vn 0.674025 0.737575 0.0409141
vn 0.610882 0.743717 0.271492
vn 0.622961 0.558918 0.547294
vn 0.683614 0.658878 0.313931
vn 0.540409 0.841355 0.0089648
vn 0.662961 0.456298 0.593528
vn 0.771284 0.634471 0.050666
vn 0.743438 0.312297 0.591414
vn 0.866772 0.372414 0.331684
vn 0.456899 0.882727 -0.109709
vn -0.399046 -0.916525 -0.0272886
vn 0.858484 0.503659 0.0966091
vn -0.574357 -0.761544 0.300274
vn 0.623108 0.755039 -0.20409
vn 0.599078 0.788657 -0.138297
vn -0.429207 -0.901036 0.0625708
vn -0.456307 -0.8387 0.297265
vn 0.534585 0.820274 -0.203395
vn -0.0428481 -0.118629 -0.992014
vn 0.584358 0.749916 -0.310084
vn 0.516126 0.820224 -0.24667
vn 0.766218 0.634916 -0.0989505
vn 0.718389 0.664802 -0.204831
vn -0.707711 -0.494068 -0.505017
vn 0.489853 0.75902 0.428875
vn 0.243392 0.592122 0.768213
vn 0.337304 0.490888 0.803277
vn 0.242867 0.892648 0.37973
vn 0.231281 0.834462 0.500182
vn 0.233479 0.526344 0.817588
vn 0.260529 0.803675 0.535005
vn 0.631508 0.431936 -0.643916
vn 0.24204 0.46971 0.848993
vn 0.268815 0.706233 0.654961
vn 0.343522 0.218439 0.913388
vn 0.523099 0.302836 0.796654
vn 0.34642 0.318841 0.882232
vn -0.715563 -0.460427 -0.525334
vn 0.414206 0.339497 0.844497
vn 0.47394 0.239684 0.847309
vn 0.54348 0.194828 0.8165
vn -0.598242 -0.628246 -0.497406
vn 0.475686 0.283237 0.832766
vn 0.231696 0.385272 0.893243
vn 0.533575 -0.837622 0.116997
vn 0.159157 0.274053 0.948453
vn -0.576901 -0.811006 0.097229
vn 0.00804562 0.150162 0.988629
vn 0.24795 0.367869 0.896211
vn 0.219991 0.364288 0.90493
vn 0.436634 0.895384 0.0874
vn -0.340702 0.0422342 -0.939222
vn 0.538497 0.821048 0.189475
vn -0.462012 -0.527087 -0.713249
vn 0.474678 0.876717 0.0777687
vn 0.428963 0.833918 0.347234
vn 0.320693 0.898322 0.300289
vn -0.209913 -0.613939 -0.760931
vn 0.544402 0.756551 0.362294
vn -0.312659 -0.328983 -0.891075
vn 0.49169 0.857679 0.150422
vn 0.416129 0.905693 -0.0809808
vn -0.404214 -0.778955 -0.479417
vn 0.42861 0.901854 -0.0543362
vn 0.480012 0.87658 -0.0345791
vn 0.257481 0.934527 0.245688
vn 0.329428 0.942469 0.0568306
vn 0.175464 0.940634 0.290551
vn 0.190299 0.965778 0.176233
vn 0.307251 0.945659 -0.10642
vn -0.404476 -0.909986 -0.0912359
vn 0.16371 0.986178 -0.0255207
vn -0.374272 -0.923959 -0.0788666
vn 0.245918 0.969274 0.00575096
vn 0.594265 0.565758 0.571635
vn 0.556003 0.764699 0.325725
vn 0.584576 0.511844 0.629514
vn 0.555199 0.184469 0.811003
vn 0.607268 0.655961 0.448263
vn 0.441627 0.886589 -0.137568
vn 0.440313 0.892251 -0.100065
vn -0.597402 -0.775817 -0.203023
vn 0.419846 0.88467 -0.202704
vn 0.337231 0.92829 -0.156696
vn 0.22441 0.958483 -0.175929
vn 0.23605 0.949356 -0.207371
vn -0.626312 -0.690258 -0.362322
vn 0.369735 0.913221 -0.171243
vn 0.626258 0.667485 -0.40282
vn 0.639226 0.724365 -0.258236
vn 0.702615 0.630786 -0.329304
vn -0.570113 0.0562816 -0.819636
vn 0.602228 0.662902 -0.444839
vn 0.622417 0.571785 -0.534471
vn 0.318812 0.927892 -0.193327
vn 0.409432 0.88109 -0.23674
vn 0.218251 0.956108 -0.195507
vn 0.277902 0.936372 -0.214427
vn 0.758925 -0.584756 -0.286518
vn 0.591241 0.719213 -0.36492
vn 0.517663 0.803002 -0.295317
vn -0.443802 -0.857993 -0.258627
vn 0.612813 0.677352 -0.407007
vn 0.383469 0.868998 -0.312721
vn 0.324724 0.862408 -0.388339
vn -0.442802 -0.856919 -0.263848
vn 0.203004 0.926983 -0.315422
vn 0.148774 0.905931 -0.396428
vn 0.498958 0.7731 -0.391608
vn 0.608117 0.675012 -0.417795
vn 0.451368 0.783899 -0.426345
vn 0.812735 -0.581853 -0.030144
vn -0.399866 -0.908909 -0.118286
vn 0.553174 0.678404 -0.483494
vn 0.673506 0.571936 -0.468273
vn 0.731348 0.493514 -0.470716
vn 0.751964 0.351658 -0.557572
vn 0.274273 0.854759 -0.440638
vn 0.20556 0.336115 0.919115
vn 0.526244 0.59979 -0.602759
vn 0.638968 0.493176 -0.590336
vn 0.676295 0.222397 -0.702257
vn 0.419554 0.752845 -0.507148
vn 0.283044 0.801621 -0.526583
vn 0.1245 0.884355 -0.449907
vn -0.637577 -0.697515 -0.32706
vn 0.434045 0.64591 -0.628017
vn 0.573288 0.417886 -0.704778
vn 0.475197 0.454184 -0.753595
vn 0.350731 0.424823 -0.834574
vn 0.333961 0.65937 -0.673574
vn 0.199511 0.563993 -0.801316
vn -0.541936 -0.738247 -0.401617
vn 0.948992 0.135598 0.284653
vn 0.633423 -0.0445873 0.77252
vn -0.596039 -0.752006 -0.281468
vn 0.557622 -0.262049 0.787647
vn 0.634393 -0.199871 0.746724
vn 0.782973 0.201172 -0.588628
vn 0.607576 -0.466169 0.643069
vn -0.7 -0.675763 -0.230963
vn 0.688154 -0.501648 0.524208
vn 0.255208 0.412501 0.874478
vn 0.728022 -0.312747 0.61006
vn 0.814697 0.0717082 0.575436
vn 0.587905 -0.364792 0.722007
vn 0.586366 -0.654464 0.477338
vn 0.718901 -0.551261 0.42343
vn 0.523659 -0.800903 0.290407
vn 0.572237 -0.595744 0.56359
vn 0.611191 -0.699689 0.369974
vn 0.63149 -0.739745 0.232376
vn 0.511912 -0.835047 0.201599
vn 0.96936 0.218736 0.111784
vn 0.922497 0.38488 -0.0294224
vn 0.918148 -0.288348 0.271773
vn 0.774529 -0.595225 0.214036
vn 0.988266 -0.110088 0.105882
vn 0.294383 0.337247 0.894205
vn 0.988119 0.14674 -0.0457022
vn 0.866201 0.460132 -0.19487
vn 0.963363 0.192478 -0.186775
vn 0.999094 -0.0134451 -0.0403903
vn 0.682694 -0.677478 0.273774
vn 0.514885 -0.809848 0.281139
vn 0.477075 -0.851325 0.218278
vn 0.504114 -0.828683 0.243216
vn -0.668312 -0.618117 -0.413874
vn 0.458444 -0.843969 0.278469
vn 0.610345 -0.752096 0.24866
vn -0.642416 -0.633815 -0.430791
vn -0.222227 -0.155689 0.962484
vn 0.894211 0.15008 -0.421738
vn 0.563407 0.168539 0.808806
vn 0.561925 -0.808898 0.172988
vn -0.415407 -0.86679 0.275886
vn 0.435098 0.133367 0.890451
vn 0.629786 -0.0489964 0.775222
vn 0.518022 -0.175712 0.837125
vn 0.607922 -0.43552 0.663893
vn -0.393772 -0.849806 0.35039
vn 0.682119 -0.0189023 0.730997
vn 0.59434 0.0407614 0.80318
vn 0.583782 0.146234 0.798633
vn 0.67329 -0.0657899 0.736446
vn 0.877781 -0.097627 0.469009
vn 0.248715 0.206258 0.946361
vn 0.675695 0.541814 -0.499873
vn -0.245871 -0.874013 -0.419106
vn 0.208913 -0.110206 0.971705
vn 0.120135 0.101752 0.987529
vn 0.334454 0.00747094 0.942382
vn -0.0961581 -0.309468 0.946036
vn 0.437459 0.263874 0.859651
vn 0.522114 0.780461 -0.343917
vn -0.447636 -0.601502 0.661678
vn -0.353577 -0.708035 0.611285
vn -0.541627 -0.790807 0.285069
vn 0.360724 -0.668367 0.650511
vn 0.696275 -0.286684 0.658038
vn 0.34477 -0.837547 0.423849
vn 0.531445 -0.705295 0.469175
vn 0.397495 -0.890086 0.223034
vn 0.233105 -0.46542 0.853842
vn -0.107732 -0.625408 0.772825
vn -0.362296 -0.848134 -0.386537
vn -0.0762637 -0.807184 0.585353
vn -0.24813 -0.914613 0.319241
vn -0.384701 -0.891767 0.238239
vn 0.0289998 -0.928821 0.369391
vn 0.62643 0.631503 -0.456935
vn 0.045981 -0.973498 0.224025
vn -0.534933 -0.810124 0.239888
vn -0.449771 -0.850039 0.274115
vn -0.211675 -0.95078 0.226297
vn 0.724841 -0.310449 0.615001
vn 0.720241 -0.525504 0.452878
vn 0.708544 -0.609815 0.355092
vn 0.635402 -0.594754 0.492475
vn 0.369525 -0.923786 0.100351
vn 0.554371 -0.80164 0.22371
vn 0.550081 -0.823172 0.140709
vn 0.23216 -0.950438 0.206809
vn 0.405451 -0.908306 0.102904
vn -0.325152 -0.909885 -0.257655
vn 0.208397 -0.969631 0.128005
vn -0.354624 -0.826039 -0.438065
vn 0.445575 -0.88186 0.154227
vn 0.297746 -0.944626 0.137944
vn -0.0425798 -0.982315 0.182331
vn -0.500004 -0.8279 0.254122
vn -0.275511 -0.932114 0.235067
vn 0.115308 -0.980343 0.160097
vn -0.378576 -0.853379 -0.358364
vn -0.183534 -0.964077 0.192018
vn -0.312811 -0.926998 0.206939
vn 0.375741 0.335018 0.86405
vn -0.00869633 -0.98557 0.169043
vn 0.456797 -0.853404 0.251073
vn 0.311057 -0.924826 0.218953
vn -0.568448 -0.659885 -0.491343
vn 0.153359 -0.962001 0.225911
vn -0.073304 0.938707 0.336831
vn 0.370613 -0.867975 0.330554
vn 0.214339 -0.920277 0.327337
vn -0.26491 -0.944012 0.196631
vn 0.183976 -0.969177 0.163854
vn -0.00473829 -0.983076 0.183134
vn -0.358817 -0.681327 -0.638
vn 0.0659588 -0.955914 0.286144
vn -0.0373138 -0.977789 0.206243
vn -0.276083 -0.956233 0.0969376
vn 0.798635 0.503392 -0.329815
vn 0.441273 0.616599 0.651985
vn 0.73908 -0.656984 0.148773
vn 0.914557 -0.38223 0.13223
vn 0.946951 -0.320649 -0.0216409
vn -0.473657 -0.720429 -0.506588
vn 0.808493 -0.587266 0.0381688
vn -0.578571 -0.75144 -0.317165
vn -0.232659 -0.728882 -0.643894
vn 0.975944 -0.0903853 -0.198403
vn 0.931598 -0.260663 -0.253338
vn 0.537779 -0.803515 0.25526
vn 0.461026 -0.818144 0.34365
vn -0.633932 -0.751365 0.183249
vn 0.628543 -0.744341 0.225591
vn -0.540212 -0.609324 -0.580427
vn -0.605359 -0.762493 0.228351
vn 0.699102 0.569878 -0.431851
vn -0.283439 -0.793052 -0.539194
vn 0.86568 0.324398 -0.381265
vn 0.702409 0.48022 -0.525366
vn 0.603985 -0.0260243 -0.79657
vn 0.726152 -0.687533 -0.00132841
vn -0.201636 -0.167543 0.965024
vn -0.296352 -0.832973 -0.467259
vn 0.786084 -0.300547 -0.540133
vn 0.644535 -0.610011 -0.460936
vn 0.429792 -0.810753 0.397439
vn 0.470408 -0.829953 0.299824
vn -0.509664 0.499063 -0.700842
vn -0.296414 -0.753454 -0.586895
vn -0.318202 -0.793721 -0.518416
vn 0.521174 -0.79233 0.317161
vn 0.635654 -0.764852 -0.104619
vn 0.522696 -0.623775 -0.581114
vn 0.479972 -0.877249 -0.00776281
vn 0.369515 -0.744581 -0.55593
vn -0.563529 -0.806775 0.177619
vn 0.0805349 0.898967 0.43055
vn 0.612415 0.415346 -0.672634
vn -0.226321 -0.776198 -0.588469
vn 0.600766 0.0829508 -0.795109
vn 0.632124 0.553055 -0.542724
vn -0.551117 -0.796159 0.249801
vn 0.66294 0.425761 -0.615823
vn -0.529377 -0.811598 0.24712
vn -0.261942 -0.805962 -0.530859
vn 0.551824 -0.537625 -0.637534
vn -0.553348 -0.8068 0.207075
vn 0.475762 -0.390718 -0.788029
vn 0.617037 -0.34924 -0.705193
vn 0.689518 0.154877 -0.707516
vn 0.506237 -0.613096 -0.606495
vn 0.698835 0.228077 -0.677946
vn 0.725597 -0.264969 -0.635059
vn 0.496432 -0.491129 -0.715785
vn 0.380541 -0.516255 -0.767248
vn 0.450194 -0.817573 0.359027
vn 0.0090487 0.999643 0.025153
vn -0.602686 -0.766592 0.221601
vn 0.413558 -0.822559 0.390342
vn 0.274649 -0.870601 0.408194
vn 0.0138223 -0.598455 -0.801037
vn -0.0270098 -0.727602 -0.685468
vn -0.497298 0.639471 -0.58632
vn -0.600442 -0.756843 0.258184
vn 0.439445 -0.828022 0.348234
vn 0.413761 -0.901122 0.129543
vn -0.266405 -0.802427 -0.533984
vn 0.380257 -0.923485 -0.0508017
vn 0.24435 -0.812267 -0.529637
vn 0.301401 -0.917166 0.260698
vn 0.00262373 -0.980471 -0.196647
vn 0.194861 -0.905154 -0.377791
vn -0.10296 -0.667986 -0.737017
vn -0.075565 -0.989892 0.120014
vn 0.124506 -0.947325 0.295082
vn -0.0852413 -0.99573 -0.0354479
vn -0.136677 -0.979043 0.150976
vn -0.207992 -0.960044 -0.187231
vn -0.340862 -0.936508 -0.0822512
vn -0.430758 -0.844141 -0.319176
vn -0.272155 -0.861724 -0.428209
vn -0.135109 -0.634261 -0.761222
vn -0.42024 -0.744285 -0.519074
vn -0.581487 -0.766703 0.272103
vn -0.449512 -0.767069 -0.45776
vn -0.265867 -0.654502 -0.707773
vn -0.280348 -0.719907 -0.634932
vn -0.171446 -0.748165 -0.64098
vn -0.158905 -0.89059 -0.426144
vn -0.112812 -0.564814 -0.817471
vn -0.115663 -0.637893 -0.76139
vn -0.215448 -0.715271 -0.664808
vn 0.732801 0.359118 -0.57796
vn 0.783602 0.250487 -0.568528
vn 0.560458 -0.692861 -0.453686
vn 0.30711 -0.835584 -0.455503
vn 0.208217 -0.935708 -0.284773
vn 0.737011 0.190145 -0.648583
vn 0.734594 -0.109095 -0.669679
vn 0.522797 -0.68094 -0.512839
vn -0.204157 -0.877948 -0.433045
vn -0.587608 -0.768236 0.254029
vn -0.0897609 -0.959253 -0.267911
vn -0.259689 -0.951144 -0.166995
vn -0.397715 -0.850476 -0.344257
vn -0.553435 -0.831728 -0.0440294
vn -0.352473 -0.891636 -0.284163
vn 0.211351 -0.656875 -0.723772
vn 0.160682 -0.588452 -0.792405
vn -0.585506 -0.788831 0.186893
vn -0.01384 -0.623792 -0.781468
vn 0.0816437 -0.843679 -0.530604
vn -0.0214288 -0.795397 -0.60571
vn -0.930982 -0.133771 -0.339673
vn -0.00419092 -0.904591 -0.426261
vn 0.0911886 0.11437 0.989244
vn 0.02399 -0.953863 -0.299283
vn -0.58362 -0.780991 0.222353
vn -0.0232578 -0.988723 -0.147942
vn -0.0528539 -0.836994 -0.544654
vn -0.151512 -0.752541 -0.64088
vn -0.0635692 -0.680608 -0.729885
vn -0.252228 -0.776911 -0.57688
vn 0.729044 0.072778 -0.680586
vn -0.521996 -0.852699 -0.0206166
vn 0.7313 0.110039 -0.67312
vn -0.45252 -0.87593 -0.16725
vn 0.697315 -0.106503 -0.708808
vn 0.125321 -0.969593 -0.210199
vn 0.406557 -0.653752 -0.638215
vn 0.0334921 -0.940022 -0.339467
vn 0.589565 -0.227207 -0.775107
vn -0.44562 -0.886688 0.123319
vn 0.639448 -0.024523 -0.768443
vn -0.276839 -0.947765 -0.158434
vn -0.413928 -0.886824 -0.205444
vn -0.336582 -0.831922 -0.441156
vn -0.05622 -0.726707 -0.684643
vn -0.082192 -0.796814 -0.598609
vn 0.252312 -0.569224 -0.78251
vn -0.350588 -0.844166 -0.40555
vn -0.415736 -0.87194 -0.258619
vn -0.426513 -0.880119 -0.208512
vn 0.581352 0.156366 -0.798485
vn 0.555862 -0.119904 -0.822582
vn 0.418527 0.168529 -0.892431
vn 0.48612 -0.0999879 -0.868153
vn 0.348773 -0.154938 -0.924311
vn -0.578826 -0.806123 -0.122988
vn 0.0682646 -0.378696 -0.923
vn -0.0213631 -0.863654 -0.503631
vn 0.167515 -0.501665 -0.848688
vn -0.301112 -0.90115 -0.311866
vn -0.073095 -0.770547 -0.633178
vn -0.605684 -0.773145 -0.188131
vn 0.507817 -0.254085 -0.823142
vn 0.357698 -0.410809 -0.838622
vn -0.585495 -0.734693 0.342669
vn 0.246531 -0.550971 -0.797279
vn -0.0841308 -0.836201 -0.541932
vn -0.293606 -0.917975 -0.266679
vn -0.113217 -0.99266 -0.0425206
vn 0.207127 -0.0498427 -0.977044
vn 0.277154 0.395769 0.87553
vn 0.21923 0.455444 0.86285
vn 0.127483 0.421616 0.897768
vn -0.632443 -0.562003 -0.533074
vn 0.188322 0.851385 0.48957
vn 0.141097 0.956011 0.257168
vn 0.113002 0.708484 0.696621
vn -0.0438104 0.894472 0.444973
vn 0.0739653 0.974713 0.210864
vn 0.253176 0.623367 0.739808
vn 0.252648 0.622074 0.741075
vn -0.091112 0.770089 0.631397
vn -0.604608 -0.556844 -0.569538
vn -0.793415 -0.586232 -0.163786
vn -0.00752185 0.573926 0.818873
vn -0.582539 -0.707092 -0.400837
vn -0.274345 0.625962 0.730005
vn -0.223142 0.802353 0.553567
vn -0.220463 0.664538 0.713992
vn -0.364071 0.655006 0.662133
vn 0.261349 0.391173 0.882429
vn 0.281975 0.36503 0.887267
vn -0.61381 -0.748668 -0.250467
vn 0.00485609 0.337482 0.94132
vn 0.17068 0.319493 0.93209
vn -0.0206199 0.11793 0.992808
vn 0.239814 0.326074 0.91442
vn -0.609718 -0.512215 -0.60488
vn -0.622345 -0.636029 -0.456238
vn 0.116439 0.0970073 0.988449
vn -0.302418 -0.308762 0.901781
vn 0.0897781 0.169827 0.981376
vn -0.147981 -0.127702 0.980711
vn -0.407826 -0.502767 0.76217
vn -0.175334 0.471265 0.864388
vn -0.101981 0.535031 0.838655
vn -0.15711 -0.0592361 0.985803
vn -0.552553 -0.787022 0.274375
vn -0.372919 0.433746 0.820241
vn -0.148408 0.182977 0.971851
vn -0.36068 0.113672 0.925737
vn -0.573694 -0.0569313 0.817089
vn -0.596404 -0.794625 0.113462
vn -0.40694 -0.534468 0.740773
vn -0.492595 -0.699637 0.51755
vn -0.588314 -0.081563 -0.804508
vn -0.34784 -0.324218 0.87971
vn -0.484176 -0.746613 0.456225
vn -0.558608 -0.353875 -0.750153
vn -0.53217 -0.506727 0.67825
vn -0.504213 -0.809952 0.299579
vn -0.5258 -0.818699 0.230796
vn -0.467128 -0.863831 0.188646
vn 0.332676 0.756299 0.563327
vn 0.119752 0.985048 0.123858
vn 0.0891466 0.993888 0.06511
vn 0.0781924 0.996068 -0.0416493
vn 0.0374431 0.995897 -0.0823825
vn -0.138964 0.967072 0.213215
vn -0.166028 0.982794 -0.0809412
vn -0.346578 0.70952 0.613567
vn -0.287105 0.850015 0.441639
vn -0.304409 0.942497 0.137968
vn -0.487232 -0.533085 0.691683
vn -0.539767 -0.841802 -0.00452456
vn -0.44048 -0.867088 0.23267
vn -0.496785 -0.826046 0.266183
vn -0.48843 -0.848028 -0.205633
vn 0.145481 0.973185 -0.178173
vn 0.0805878 0.978803 -0.188282
vn -0.408711 -0.901336 0.14335
vn -0.018329 0.978937 -0.203337
vn 0.140239 0.960724 -0.239462
vn 0.0750378 0.963929 -0.255364
vn -0.0913959 0.984128 -0.152112
vn -0.181538 0.957737 -0.223124
vn -0.482022 -0.847084 0.22384
vn -0.275333 0.93764 -0.212187
vn -0.374048 0.896035 -0.239185
vn -0.328096 0.909926 -0.253747
vn -0.447634 0.514891 0.731103
vn -0.508424 0.56846 0.646806
vn -0.586855 0.215671 0.780441
vn -0.462441 -0.833601 -0.302089
vn -0.685562 -0.222437 0.693201
vn 0.522832 0.51068 0.682534
vn -0.655006 0.131513 0.744091
vn -0.547789 -0.831827 -0.0893913
vn -0.698122 -0.34202 0.629006
vn -0.658715 0.329662 0.676327
vn -0.83903 0.0929285 0.53609
vn -0.765542 0.0134063 0.643246
vn -0.606857 -0.777575 0.164628
vn -0.466626 -0.844507 0.262809
vn -0.610952 -0.617923 0.494882
vn -0.532165 -0.757866 0.377412
vn -0.434644 0.791405 0.429841
vn -0.455192 0.879317 0.14001
vn -0.553466 0.765265 0.3287
vn -0.489452 0.670108 0.558024
vn -0.612739 0.655097 0.442039
vn -0.666047 0.478516 0.572191
vn -0.602117 -0.76805 0.218068
vn -0.594883 -0.739988 0.313897
vn -0.615716 0.757878 0.215673
vn -0.764791 0.592056 0.254096
vn -0.748775 0.508506 0.425155
vn -0.345376 -0.904233 0.251153
vn -0.495132 0.868805 0.00467519
vn -0.369984 -0.898441 0.236464
vn -0.611851 0.790685 0.0213603
vn -0.780992 0.603801 0.159612
vn -0.681312 -0.488973 0.54472
vn -0.736085 -0.464509 0.492351
vn -0.830075 -0.361023 0.425014
vn -0.87877 0.166695 0.447188
vn -0.528769 -0.784988 0.322797
vn -0.395107 -0.894833 0.207759
vn -0.376976 -0.897853 0.227486
vn -0.361312 -0.886951 0.287701
vn -0.38009 -0.735271 -0.561167
vn -0.895524 -0.00366537 0.444999
vn -0.868653 0.336411 0.363689
vn -0.743951 -0.46137 0.483398
vn -0.375905 -0.898434 0.226963
vn -0.745253 -0.193268 -0.638158
vn -0.528014 -0.735877 0.423893
vn -0.291975 -0.890248 0.349585
vn -0.894497 0.294679 0.336214
vn -0.891226 -0.0346913 0.452231
vn -0.247172 -0.949084 0.19531
vn -0.463324 -0.590609 0.660691
vn -0.873341 -0.313116 0.373141
vn -0.347948 0.931513 -0.105902
vn -0.608832 0.783316 -0.125456
vn -0.454374 0.875053 -0.16681
vn -0.489887 -0.842781 0.223005
vn -0.454877 0.848816 -0.269441
vn -0.484229 0.806595 -0.339008
vn -0.847619 0.525619 0.0725728
vn -0.644173 -0.728905 0.231814
vn -0.322506 -0.894965 0.308265
vn -0.414804 -0.857857 0.303346
vn -0.556686 -0.815752 0.157003
vn -0.965942 0.125625 0.226219
vn -0.96558 0.260108 -0.000362191
vn -0.797895 -0.56192 0.218195
vn -0.927829 0.349788 -0.129541
vn -0.993306 -0.104438 0.0493478
vn -0.568254 0.773442 -0.280847
vn -0.755139 0.633972 -0.166866
vn -0.937546 0.166032 -0.305682
vn -0.990309 0.029292 -0.13576
vn -0.480465 -0.850384 0.214477
vn -0.87996 -0.475047 0.000879828
vn -0.922607 -0.346664 -0.169174
vn -0.653229 -0.756693 0.0265812
vn 0.119355 0.965427 -0.231744
vn 0.0349411 0.952694 -0.301916
vn 0.092262 0.956399 -0.277108
vn 0.116741 0.9662 -0.229844
vn 0.0584273 0.945585 -0.320085
vn 0.0330251 0.964087 -0.263526
vn -0.606188 -0.766962 0.210487
vn -0.0660248 0.966974 -0.246173
vn -0.259062 0.925456 -0.27644
vn -0.160185 0.921292 -0.354346
vn -0.392166 0.859723 -0.327235
vn -0.338764 0.846395 -0.41092
vn -0.0845695 0.91708 -0.389631
vn -0.276923 0.853119 -0.442156
vn -0.34904 0.824296 -0.445765
vn -0.545316 -0.59173 -0.593706
vn 0.0304294 0.950681 -0.308673
vn -0.0505573 0.945132 -0.322752
vn 0.028372 0.918187 -0.395131
vn -0.0642937 0.937492 -0.342017
vn -0.221859 0.896049 -0.384544
vn -0.18888 0.921201 -0.340165
vn -0.35598 0.834635 -0.420312
vn -0.0599935 0.916296 -0.395983
vn -0.192603 0.910389 -0.366191
vn -0.406348 0.751988 -0.519032
vn -0.490463 0.710623 -0.504441
vn -0.4742 -0.856866 0.202273
vn -0.582918 0.484309 -0.65242
vn -0.565323 -0.721315 -0.400143
vn -0.449953 -0.743906 -0.494111
vn -0.675192 -0.515213 -0.527893
vn -0.52519 -0.639661 -0.561257
vn -0.679071 -0.0432739 -0.732796
vn -0.369589 0.844167 -0.388313
vn -0.554738 0.692923 -0.460568
vn -0.382206 0.829706 -0.406824
vn -0.567437 -0.746753 0.346951
vn -0.67296 0.463871 -0.576149
vn -0.753637 0.0720073 -0.653334
vn -0.749315 -0.570773 -0.335777
vn -0.682253 -0.65655 -0.321671
vn -0.827342 -0.0116285 -0.561578
vn -0.781936 -0.40312 -0.475468
vn 0.0113299 0.893151 -0.449614
vn -0.620254 -0.736928 0.268742
vn -0.102509 0.87262 -0.477522
vn -0.707987 -0.296171 -0.641122
vn 0.0418594 0.680286 -0.73175
vn 0.182188 0.790555 -0.584663
vn 0.03172 0.840588 -0.540745
vn -0.113579 0.797329 -0.592761
vn -0.30395 0.763832 -0.569364
vn -0.602944 -0.765935 0.223165
vn -0.120764 0.655893 -0.745131
vn 0.148807 0.258776 -0.954406
vn -0.0753622 0.447403 -0.891151
vn -0.126104 0.185762 -0.974469
vn -0.299935 0.542278 -0.78484
vn -0.457009 0.550812 -0.698391
vn -0.539302 0.268349 -0.798212
vn -0.544757 -0.173737 -0.8204
vn -0.322278 0.326972 -0.888384
vn -0.773894 0.336557 -0.536487
vn -0.232179 0.870875 -0.433208
vn -0.521586 0.696381 -0.492951
vn -0.786229 0.302431 -0.538868
vn -0.743629 -0.527065 -0.411361
vn -0.49856 -0.840099 0.213708
vn -0.823829 -0.131724 -0.551321
vn -0.836897 -0.216313 -0.502804
vn -0.646014 0.42776 -0.632209
vn -0.721671 0.0302594 -0.691575
vn -0.393306 0.823834 -0.408177
vn -0.429741 0.826212 -0.364274
vn -0.610393 0.701471 -0.367912
vn -0.418532 -0.877792 0.233049
vn -0.80523 0.516836 -0.290663
vn -0.48727 0.779204 -0.39422
vn -0.645346 0.24802 -0.722506
vn -0.875619 0.116307 -0.468789
vn -0.471495 -0.785456 -0.400938
vn -0.603927 -0.769365 -0.208207
vn -0.800169 -0.31906 -0.507869
vn -0.467004 -0.5596 0.684657
vn -0.604572 -0.659566 -0.446616
vn -0.805062 -0.460383 -0.374062
vn -0.133756 -0.22356 0.965469
vn -0.397226 0.79999 -0.449696
vn -0.803163 0.29689 -0.516513
vn -0.555516 0.671005 -0.491074
vn -0.71376 0.409881 -0.567929
vn -0.446286 -0.762813 -0.467916
vn -0.555292 -0.573647 -0.602146
vn 0.18256 0.703231 -0.687123
vn -0.686066 0.603601 -0.406176
vn 0.188782 0.955458 -0.226852

g grp1
usemtl mtl1
f 66//66 92//92 15//15 
f 66//66 15//15 18//18 
f 18//18 1//1 66//66 
f 23//23 18//18 28//28 
f 18//18 23//23 1//1 
f 22//22 158//158 199//199 
f 147//147 25//25 22//22 
f 58//58 241//241 166//166 
f 16//16 4//4 3//3 
f 4//4 92//92 88//88 
f 4//4 16//16 92//92 
f 4//4 91//91 3//3 
f 16//16 3//3 19//19 
f 19//19 17//17 16//16 
f 4//4 2//2 91//91 
f 19//19 3//3 5//5 
f 8//8 148//148 5//5 
f 3//3 8//8 5//5 
f 8//8 151//151 150//150 
f 6//6 668//668 7//7 
f 8//8 91//91 196//196 
f 668//668 6//6 677//677 
f 7//7 381//381 582//582 
f 381//381 7//7 668//668 
f 8//8 196//196 151//151 
f 91//91 8//8 3//3 
f 9//9 20//20 14//14 
f 17//17 19//19 9//9 
f 12//12 20//20 35//35 
f 14//14 17//17 9//9 
f 20//20 12//12 14//14 
f 17//17 15//15 16//16 
f 18//18 15//15 14//14 
f 15//15 17//17 14//14 
f 16//16 15//15 92//92 
f 14//14 28//28 18//18 
f 13//13 557//557 558//558 
f 21//21 9//9 19//19 
f 5//5 148//148 21//21 
f 19//19 5//5 21//21 
f 669//669 10//10 498//498 
f 21//21 148//148 158//158 
f 498//498 24//24 669//669 
f 148//148 157//157 158//158 
f 22//22 20//20 9//9 
f 9//9 21//21 22//22 
f 11//11 669//669 24//24 
f 20//20 22//22 25//25 
f 21//21 158//158 22//22 
f 24//24 498//498 501//501 
f 28//28 31//31 23//23 
f 31//31 93//93 23//23 
f 93//93 31//31 34//34 
f 147//147 167//167 25//25 
f 30//30 26//26 549//549 
f 168//168 35//35 25//25 
f 25//25 167//167 168//168 
f 168//168 173//173 174//174 
f 35//35 174//174 36//36 
f 549//549 26//26 547//547 
f 174//174 35//35 168//168 
f 11//11 29//29 670//670 
f 30//30 549//549 555//555 
f 174//174 104//104 36//36 
f 24//24 501//501 538//538 
f 12//12 27//27 28//28 
f 35//35 36//36 12//12 
f 27//27 36//36 103//103 
f 29//29 11//11 24//24 
f 28//28 14//14 12//12 
f 27//27 31//31 28//28 
f 31//31 27//27 33//33 
f 25//25 35//35 20//20 
f 27//27 12//12 36//36 
f 103//103 33//33 27//27 
f 33//33 34//34 31//31 
f 33//33 102//102 106//106 
f 102//102 33//33 103//103 
f 104//104 103//103 36//36 
f 516//516 49//49 90//90 
f 62//62 52//52 40//40 
f 484//484 39//39 40//40 
f 40//40 52//52 267//267 
f 40//40 39//39 62//62 
f 26//26 30//30 544//544 
f 42//42 47//47 41//41 
f 522//522 520//520 532//532 
f 42//42 440//440 47//47 
f 47//47 43//43 44//44 
f 655//655 37//37 146//146 
f 39//39 44//44 43//43 
f 43//43 62//62 39//39 
f 43//43 63//63 62//62 
f 44//44 39//39 484//484 
f 60//60 453//453 422//422 
f 41//41 47//47 44//44 
f 46//46 43//43 47//47 
f 440//440 431//431 46//46 
f 440//440 46//46 47//47 
f 46//46 63//63 43//43 
f 431//431 451//451 63//63 
f 250//250 56//56 50//50 
f 207//207 56//56 250//250 
f 90//90 49//49 2//2 
f 649//649 65//65 67//67 
f 516//516 90//90 72//72 
f 2//2 54//54 91//91 
f 52//52 53//53 49//49 
f 49//49 54//54 2//2 
f 49//49 53//53 54//54 
f 52//52 50//50 53//53 
f 62//62 50//50 52//52 
f 50//50 56//56 53//53 
f 53//53 56//56 197//197 
f 197//197 54//54 53//53 
f 197//197 56//56 187//187 
f 91//91 54//54 196//196 
f 196//196 54//54 197//197 
f 187//187 195//195 197//197 
f 50//50 62//62 57//57 
f 51//51 635//635 105//105 
f 63//63 57//57 62//62 
f 172//172 250//250 156//156 
f 55//55 119//119 95//95 
f 57//57 63//63 451//451 
f 57//57 451//451 156//156 
f 457//457 460//460 132//132 
f 55//55 51//51 649//649 
f 241//241 58//58 237//237 
f 95//95 51//51 55//55 
f 172//172 200//200 48//48 
f 453//453 60//60 495//495 
f 156//156 50//50 57//57 
f 61//61 200//200 59//59 
f 383//383 59//59 132//132 
f 132//132 451//451 457//457 
f 383//383 61//61 59//59 
f 89//89 92//92 66//66 
f 72//72 38//38 516//516 
f 89//89 90//90 88//88 
f 90//90 89//89 72//72 
f 74//74 72//72 68//68 
f 68//68 78//78 74//74 
f 89//89 66//66 68//68 
f 89//89 68//68 72//72 
f 76//76 71//71 420//420 
f 421//421 420//420 71//71 
f 38//38 72//72 74//74 
f 484//484 40//40 267//267 
f 267//267 69//69 484//484 
f 69//69 64//64 70//70 
f 74//74 69//69 38//38 
f 69//69 74//74 64//64 
f 65//65 73//73 67//67 
f 74//74 78//78 64//64 
f 75//75 64//64 78//78 
f 78//78 94//94 75//75 
f 67//67 76//76 119//119 
f 67//67 73//73 76//76 
f 94//94 97//97 75//75 
f 68//68 77//77 78//78 
f 67//67 55//55 649//649 
f 68//68 1//1 77//77 
f 71//71 76//76 73//73 
f 71//71 73//73 32//32 
f 66//66 1//1 68//68 
f 77//77 94//94 78//78 
f 1//1 23//23 77//77 
f 79//79 44//44 70//70 
f 70//70 80//80 79//79 
f 44//44 79//79 41//41 
f 70//70 64//64 80//80 
f 64//64 75//75 80//80 
f 79//79 80//80 87//87 
f 81//81 42//42 41//41 
f 41//41 79//79 82//82 
f 82//82 81//81 41//41 
f 81//81 436//436 435//435 
f 81//81 485//485 436//436 
f 84//84 119//119 76//76 
f 82//82 485//485 81//81 
f 85//85 82//82 87//87 
f 82//82 85//85 485//485 
f 82//82 79//79 87//87 
f 87//87 80//80 83//83 
f 83//83 80//80 75//75 
f 84//84 76//76 420//420 
f 75//75 97//97 83//83 
f 86//86 84//84 420//420 
f 83//83 98//98 87//87 
f 119//119 55//55 67//67 
f 83//83 97//97 98//98 
f 85//85 87//87 98//98 
f 85//85 98//98 499//499 
f 88//88 90//90 2//2 
f 88//88 92//92 89//89 
f 88//88 2//2 4//4 
f 97//97 94//94 101//101 
f 94//94 77//77 93//93 
f 23//23 93//93 77//77 
f 94//94 93//93 101//101 
f 93//93 34//34 96//96 
f 96//96 34//34 114//114 
f 101//101 93//93 96//96 
f 101//101 96//96 108//108 
f 97//97 101//101 99//99 
f 97//97 99//99 98//98 
f 98//98 99//99 503//503 
f 503//503 499//499 98//98 
f 101//101 108//108 99//99 
f 108//108 110//110 99//99 
f 99//99 588//588 503//503 
f 34//34 113//113 114//114 
f 635//635 51//51 100//100 
f 174//174 266//266 104//104 
f 113//113 34//34 33//33 
f 106//106 113//113 33//33 
f 106//106 224//224 113//113 
f 103//103 104//104 102//102 
f 37//37 635//635 100//100 
f 105//105 648//648 646//646 
f 648//648 105//105 635//635 
f 100//100 51//51 95//95 
f 102//102 107//107 106//106 
f 104//104 283//283 102//102 
f 266//266 283//283 104//104 
f 283//283 107//107 102//102 
f 106//106 107//107 308//308 
f 116//116 224//224 201//201 
f 114//114 109//109 96//96 
f 108//108 96//96 109//109 
f 108//108 109//109 111//111 
f 114//114 116//116 208//208 
f 208//208 109//109 114//114 
f 109//109 117//117 111//111 
f 117//117 109//109 208//208 
f 100//100 115//115 146//146 
f 308//308 45//45 310//310 
f 115//115 100//100 95//95 
f 110//110 108//108 111//111 
f 45//45 307//307 317//317 
f 146//146 37//37 100//100 
f 588//588 110//110 591//591 
f 234//234 230//230 232//232 
f 232//232 230//230 213//213 
f 588//588 591//591 593//593 
f 115//115 95//95 119//119 
f 110//110 111//111 591//591 
f 591//591 111//111 120//120 
f 113//113 224//224 116//116 
f 116//116 114//114 113//113 
f 50//50 156//156 250//250 
f 116//116 123//123 208//208 
f 156//156 132//132 59//59 
f 122//122 124//124 118//118 
f 117//117 120//120 111//111 
f 118//118 120//120 117//117 
f 118//118 117//117 122//122 
f 120//120 604//604 591//591 
f 120//120 118//118 121//121 
f 604//604 120//120 121//121 
f 124//124 131//131 118//118 
f 118//118 131//131 121//121 
f 131//131 138//138 121//121 
f 86//86 410//410 126//126 
f 606//606 121//121 138//138 
f 129//129 128//128 123//123 
f 132//132 460//460 383//383 
f 112//112 291//291 276//276 
f 123//123 124//124 122//122 
f 201//201 123//123 116//116 
f 201//201 308//308 310//310 
f 123//123 127//127 124//124 
f 119//119 126//126 238//238 
f 127//127 123//123 128//128 
f 133//133 136//136 127//127 
f 127//127 128//128 134//134 
f 134//134 133//133 127//127 
f 112//112 292//292 313//313 
f 126//126 119//119 84//84 
f 129//129 360//360 361//361 
f 126//126 84//84 86//86 
f 130//130 128//128 129//129 
f 299//299 288//288 298//298 
f 128//128 130//130 134//134 
f 288//288 299//299 292//292 
f 125//125 276//276 272//272 
f 124//124 127//127 136//136 
f 136//136 131//131 124//124 
f 131//131 136//136 137//137 
f 130//130 393//393 135//135 
f 133//133 134//134 141//141 
f 135//135 134//134 130//130 
f 141//141 134//134 135//135 
f 135//135 411//411 141//141 
f 133//133 140//140 136//136 
f 140//140 137//137 136//136 
f 140//140 144//144 137//137 
f 131//131 137//137 138//138 
f 138//138 637//637 638//638 
f 137//137 144//144 637//637 
f 637//637 138//138 137//137 
f 141//141 140//140 133//133 
f 637//637 144//144 145//145 
f 142//142 143//143 144//144 
f 140//140 141//141 142//142 
f 144//144 140//140 142//142 
f 143//143 643//643 145//145 
f 411//411 142//142 141//141 
f 413//413 143//143 142//142 
f 413//413 142//142 411//411 
f 413//413 643//643 143//143 
f 139//139 655//655 146//146 
f 145//145 144//144 143//143 
f 644//644 636//636 145//145 
f 152//152 276//276 291//291 
f 643//643 644//644 145//145 
f 286//286 152//152 305//305 
f 430//430 32//32 643//643 
f 199//199 161//161 169//169 
f 169//169 147//147 199//199 
f 169//169 161//161 177//177 
f 305//305 152//152 287//287 
f 150//150 159//159 148//148 
f 150//150 148//148 8//8 
f 149//149 181//181 154//154 
f 159//159 150//150 163//163 
f 172//172 156//156 59//59 
f 112//112 276//276 125//125 
f 151//151 229//229 155//155 
f 139//139 219//219 149//149 
f 285//285 186//186 286//286 
f 155//155 153//153 151//151 
f 151//151 153//153 150//150 
f 153//153 164//164 163//163 
f 155//155 229//229 231//231 
f 163//163 150//150 153//153 
f 132//132 156//156 451//451 
f 200//200 172//172 59//59 
f 153//153 155//155 164//164 
f 164//164 155//155 165//165 
f 155//155 231//231 165//165 
f 159//159 160//160 157//157 
f 159//159 157//157 148//148 
f 199//199 157//157 161//161 
f 154//154 628//628 139//139 
f 154//154 139//139 149//149 
f 160//160 161//161 157//157 
f 163//163 160//160 159//159 
f 163//163 162//162 160//160 
f 161//161 160//160 178//178 
f 178//178 177//177 161//161 
f 160//160 162//162 178//178 
f 179//179 162//162 188//188 
f 164//164 162//162 163//163 
f 164//164 165//165 188//188 
f 188//188 162//162 164//164 
f 188//188 166//166 179//179 
f 273//273 459//459 281//281 
f 166//166 241//241 252//252 
f 169//169 167//167 147//147 
f 169//169 171//171 167//167 
f 171//171 168//168 167//167 
f 169//169 170//170 171//171 
f 170//170 269//269 171//171 
f 171//171 173//173 168//168 
f 171//171 269//269 173//173 
f 174//174 173//173 176//176 
f 173//173 269//269 176//176 
f 176//176 175//175 174//174 
f 176//176 270//270 175//175 
f 269//269 270//270 176//176 
f 269//269 170//170 183//183 
f 183//183 277//277 268//268 
f 170//170 169//169 177//177 
f 177//177 180//180 170//170 
f 180//180 177//177 178//178 
f 181//181 149//149 254//254 
f 178//178 179//179 180//180 
f 179//179 178//178 162//162 
f 170//170 180//180 183//183 
f 182//182 183//183 180//180 
f 182//182 179//179 166//166 
f 294//294 166//166 252//252 
f 182//182 180//180 179//179 
f 252//252 323//323 294//294 
f 294//294 182//182 166//166 
f 183//183 182//182 277//277 
f 182//182 294//294 278//278 
f 186//186 276//276 152//152 
f 202//202 238//238 247//247 
f 166//166 188//188 58//58 
f 185//185 494//494 209//209 
f 154//154 184//184 629//629 
f 58//58 188//188 165//165 
f 222//222 194//194 226//226 
f 206//206 209//209 210//210 
f 209//209 206//206 185//185 
f 48//48 203//203 190//190 
f 187//187 190//190 191//191 
f 187//187 191//191 195//195 
f 190//190 187//187 207//207 
f 205//205 190//190 203//203 
f 205//205 192//192 190//190 
f 181//181 184//184 154//154 
f 192//192 205//205 217//217 
f 192//192 191//191 190//190 
f 191//191 192//192 193//193 
f 212//212 192//192 217//217 
f 194//194 210//210 211//211 
f 195//195 198//198 197//197 
f 213//213 198//198 195//195 
f 196//196 197//197 198//198 
f 196//196 198//198 151//151 
f 198//198 213//213 229//229 
f 157//157 199//199 158//158 
f 229//229 151//151 198//198 
f 195//195 191//191 213//213 
f 181//181 458//458 434//434 
f 213//213 215//215 232//232 
f 199//199 147//147 22//22 
f 230//230 229//229 213//213 
f 193//193 213//213 191//191 
f 458//458 281//281 459//459 
f 203//203 48//48 200//200 
f 201//201 129//129 123//123 
f 129//129 201//201 360//360 
f 56//56 207//207 187//187 
f 289//289 562//562 494//494 
f 181//181 434//434 184//184 
f 289//289 494//494 185//185 
f 208//208 122//122 117//117 
f 204//204 203//203 200//200 
f 61//61 204//204 200//200 
f 61//61 185//185 204//204 
f 61//61 383//383 289//289 
f 289//289 185//185 61//61 
f 185//185 206//206 204//204 
f 675//675 562//562 289//289 
f 204//204 206//206 203//203 
f 217//217 205//205 203//203 
f 217//217 220//220 212//212 
f 203//203 206//206 218//218 
f 218//218 217//217 203//203 
f 218//218 220//220 217//217 
f 122//122 208//208 123//123 
f 207//207 48//48 190//190 
f 494//494 425//425 209//209 
f 224//224 308//308 201//201 
f 210//210 218//218 206//206 
f 425//425 211//211 209//209 
f 209//209 211//211 210//210 
f 425//425 533//533 211//211 
f 211//211 226//226 194//194 
f 226//226 211//211 533//533 
f 226//226 533//533 351//351 
f 351//351 227//227 226//226 
f 212//212 193//193 192//192 
f 212//212 220//220 223//223 
f 193//193 212//212 214//214 
f 223//223 214//214 212//212 
f 232//232 215//215 216//216 
f 216//216 233//233 234//234 
f 193//193 214//214 215//215 
f 215//215 213//213 193//193 
f 214//214 236//236 215//215 
f 223//223 225//225 214//214 
f 214//214 225//225 236//236 
f 215//215 236//236 216//216 
f 297//297 247//247 372//372 
f 233//233 216//216 236//236 
f 221//221 223//223 220//220 
f 221//221 222//222 228//228 
f 220//220 218//218 194//194 
f 221//221 220//220 194//194 
f 308//308 224//224 106//106 
f 194//194 222//222 221//221 
f 218//218 210//210 194//194 
f 228//228 223//223 221//221 
f 228//228 225//225 223//223 
f 226//226 227//227 222//222 
f 250//250 48//48 207//207 
f 227//227 228//228 222//222 
f 238//238 115//115 119//119 
f 227//227 351//351 244//244 
f 229//229 230//230 231//231 
f 231//231 234//234 235//235 
f 230//230 234//234 231//231 
f 235//235 165//165 231//231 
f 165//165 235//235 58//58 
f 238//238 219//219 115//115 
f 234//234 232//232 216//216 
f 146//146 115//115 219//219 
f 219//219 139//139 146//146 
f 235//235 234//234 233//233 
f 233//233 237//237 235//235 
f 235//235 237//237 58//58 
f 233//233 236//236 239//239 
f 236//236 225//225 243//243 
f 239//239 237//237 233//233 
f 242//242 241//241 237//237 
f 252//252 241//241 253//253 
f 242//242 253//253 241//241 
f 240//240 149//149 219//219 
f 239//239 242//242 237//237 
f 239//239 246//246 242//242 
f 242//242 246//246 260//260 
f 243//243 239//239 236//236 
f 225//225 228//228 243//243 
f 243//243 228//228 245//245 
f 240//240 219//219 202//202 
f 247//247 284//284 202//202 
f 227//227 245//245 228//228 
f 244//244 245//245 227//227 
f 245//245 244//244 249//249 
f 249//249 248//248 243//243 
f 243//243 245//245 249//249 
f 239//239 243//243 246//246 
f 48//48 250//250 172//172 
f 248//248 246//246 243//243 
f 247//247 238//238 126//126 
f 69//69 267//267 38//38 
f 246//246 248//248 251//251 
f 410//410 247//247 126//126 
f 248//248 259//259 251//251 
f 249//249 615//615 248//248 
f 615//615 259//259 248//248 
f 260//260 255//255 253//253 
f 247//247 297//297 284//284 
f 251//251 260//260 246//246 
f 257//257 323//323 252//252 
f 252//252 253//253 257//257 
f 253//253 242//242 260//260 
f 253//253 255//255 258//258 
f 257//257 327//327 326//326 
f 496//496 189//189 497//497 
f 258//258 257//257 253//253 
f 257//257 258//258 327//327 
f 259//259 615//615 584//584 
f 584//584 561//561 259//259 
f 262//262 281//281 254//254 
f 260//260 261//261 255//255 
f 251//251 261//261 260//260 
f 254//254 240//240 262//262 
f 261//261 264//264 255//255 
f 259//259 261//261 251//251 
f 261//261 259//259 561//561 
f 255//255 264//264 263//263 
f 263//263 258//258 255//255 
f 264//264 344//344 263//263 
f 561//561 264//264 261//261 
f 202//202 284//284 240//240 
f 561//561 265//265 264//264 
f 344//344 264//264 265//265 
f 561//561 400//400 265//265 
f 344//344 265//265 346//346 
f 175//175 266//266 174//174 
f 52//52 49//49 516//516 
f 285//285 266//266 175//175 
f 284//284 262//262 240//240 
f 567//567 664//664 656//656 
f 270//270 272//272 275//275 
f 283//283 266//266 285//285 
f 175//175 275//275 285//285 
f 275//275 175//175 270//270 
f 272//272 276//276 275//275 
f 269//269 268//268 270//270 
f 268//268 269//269 183//183 
f 270//270 268//268 272//272 
f 268//268 277//277 272//272 
f 303//303 641//641 279//279 
f 272//272 280//280 125//125 
f 641//641 633//633 571//571 
f 285//285 275//275 276//276 
f 186//186 285//285 276//276 
f 278//278 277//277 182//182 
f 277//277 278//278 280//280 
f 280//280 272//272 277//277 
f 262//262 274//274 296//296 
f 571//571 594//594 279//279 
f 279//279 641//641 571//571 
f 286//286 283//283 285//285 
f 152//152 286//286 186//186 
f 296//296 274//274 312//312 
f 107//107 283//283 286//286 
f 305//305 107//107 286//286 
f 281//281 262//262 271//271 
f 291//291 287//287 152//152 
f 125//125 280//280 288//288 
f 125//125 288//288 112//112 
f 280//280 298//298 288//288 
f 271//271 273//273 281//281 
f 262//262 284//284 274//274 
f 288//288 292//292 112//112 
f 313//313 291//291 112//112 
f 313//313 287//287 291//291 
f 292//292 300//300 321//321 
f 313//313 292//292 321//321 
f 298//298 280//280 278//278 
f 278//278 293//293 298//298 
f 278//278 294//294 293//293 
f 293//293 294//294 323//323 
f 296//296 271//271 262//262 
f 323//323 332//332 293//293 
f 618//618 680//680 551//551 
f 681//681 556//556 667//667 
f 298//298 293//293 332//332 
f 298//298 332//332 301//301 
f 301//301 299//299 298//298 
f 292//292 299//299 300//300 
f 301//301 300//300 299//299 
f 282//282 594//594 615//615 
f 615//615 249//249 244//244 
f 667//667 479//479 681//681 
f 656//656 303//303 567//567 
f 322//322 321//321 300//300 
f 302//302 300//300 301//301 
f 306//306 274//274 297//297 
f 302//302 322//322 300//300 
f 497//497 309//309 311//311 
f 244//244 282//282 615//615 
f 297//297 274//274 284//284 
f 301//301 336//336 302//302 
f 274//274 306//306 312//312 
f 287//287 307//307 305//305 
f 567//567 309//309 497//497 
f 107//107 305//305 45//45 
f 45//45 308//308 107//107 
f 271//271 296//296 514//514 
f 305//305 307//307 45//45 
f 325//325 309//309 303//303 
f 310//310 360//360 201//201 
f 310//310 319//319 360//360 
f 254//254 458//458 181//181 
f 317//317 310//310 45//45 
f 317//317 319//319 310//310 
f 240//240 254//254 149//149 
f 254//254 281//281 458//458 
f 303//303 279//279 325//325 
f 309//309 567//567 303//303 
f 309//309 325//325 369//369 
f 313//313 321//321 315//315 
f 313//313 315//315 287//287 
f 315//315 316//316 307//307 
f 307//307 287//287 315//315 
f 315//315 321//321 316//316 
f 316//316 317//317 307//307 
f 320//320 317//317 316//316 
f 316//316 321//321 318//318 
f 347//347 514//514 312//312 
f 318//318 321//321 322//322 
f 316//316 318//318 320//320 
f 318//318 362//362 320//320 
f 317//317 320//320 319//319 
f 320//320 366//366 319//319 
f 362//362 366//366 320//320 
f 376//376 322//322 302//302 
f 322//322 375//375 318//318 
f 322//322 376//376 375//375 
f 302//302 336//336 376//376 
f 189//189 664//664 567//567 
f 311//311 496//496 497//497 
f 238//238 202//202 219//219 
f 551//551 681//681 479//479 
f 326//326 323//323 257//257 
f 347//347 518//518 514//514 
f 332//332 323//323 326//326 
f 326//326 333//333 332//332 
f 342//342 327//327 258//258 
f 326//326 327//327 337//337 
f 326//326 337//337 333//333 
f 518//518 347//347 373//373 
f 342//342 337//337 327//327 
f 342//342 338//338 337//337 
f 343//343 338//338 342//342 
f 328//328 336//336 340//340 
f 378//378 340//340 357//357 
f 340//340 378//378 328//328 
f 357//357 329//329 378//378 
f 389//389 329//329 357//357 
f 332//332 335//335 301//301 
f 497//497 189//189 567//567 
f 324//324 256//256 439//439 
f 333//333 335//335 332//332 
f 301//301 335//335 336//336 
f 334//334 347//347 312//312 
f 335//335 333//333 336//336 
f 340//340 355//355 357//357 
f 337//337 339//339 333//333 
f 338//338 339//339 337//337 
f 338//338 340//340 339//339 
f 338//338 343//343 355//355 
f 355//355 340//340 338//338 
f 336//336 339//339 340//340 
f 312//312 306//306 334//334 
f 336//336 333//333 339//339 
f 263//263 342//342 258//258 
f 263//263 341//341 342//342 
f 344//344 341//341 263//263 
f 344//344 345//345 341//341 
f 343//343 342//342 341//341 
f 341//341 356//356 343//343 
f 345//345 356//356 341//341 
f 345//345 359//359 356//356 
f 346//346 345//345 344//344 
f 265//265 400//400 394//394 
f 345//345 348//348 359//359 
f 346//346 394//394 352//352 
f 394//394 346//346 265//265 
f 346//346 348//348 345//345 
f 389//389 357//357 358//358 
f 389//389 358//358 349//349 
f 349//349 388//388 389//389 
f 359//359 352//352 354//354 
f 352//352 394//394 350//350 
f 350//350 354//354 352//352 
f 354//354 350//350 334//334 
f 354//354 306//306 390//390 
f 347//347 350//350 394//394 
f 354//354 334//334 306//306 
f 349//349 359//359 353//353 
f 359//359 354//354 353//353 
f 350//350 347//347 334//334 
f 353//353 390//390 388//388 
f 354//354 390//390 353//353 
f 353//353 388//388 349//349 
f 355//355 356//356 358//358 
f 358//358 357//357 355//355 
f 356//356 359//359 358//358 
f 359//359 349//349 358//358 
f 356//356 355//355 343//343 
f 352//352 359//359 348//348 
f 352//352 348//348 346//346 
f 369//369 311//311 309//309 
f 318//318 375//375 363//363 
f 319//319 365//365 360//360 
f 361//361 130//130 129//129 
f 361//361 360//360 365//365 
f 365//365 391//391 361//361 
f 366//366 365//365 319//319 
f 363//363 362//362 318//318 
f 362//362 364//364 367//367 
f 362//362 363//363 364//364 
f 379//379 384//384 364//364 
f 364//364 363//363 379//379 
f 364//364 384//384 396//396 
f 395//395 391//391 365//365 
f 365//365 366//366 395//395 
f 367//367 366//366 362//362 
f 366//366 367//367 395//395 
f 396//396 367//367 364//364 
f 396//396 384//384 386//386 
f 368//368 390//390 290//290 
f 390//390 306//306 290//290 
f 306//306 297//297 290//290 
f 314//314 311//311 369//369 
f 279//279 594//594 282//282 
f 373//373 523//523 518//518 
f 523//523 373//373 377//377 
f 282//282 325//325 279//279 
f 370//370 368//368 371//371 
f 368//368 374//374 371//371 
f 371//371 429//429 370//370 
f 371//371 402//402 429//429 
f 403//403 402//402 371//371 
f 371//371 374//374 403//403 
f 374//374 290//290 372//372 
f 372//372 290//290 297//297 
f 368//368 290//290 374//374 
f 409//409 403//403 374//374 
f 409//409 374//374 372//372 
f 372//372 410//410 409//409 
f 247//247 410//410 372//372 
f 375//375 376//376 378//378 
f 378//378 376//376 328//328 
f 331//331 325//325 282//282 
f 380//380 379//379 378//378 
f 376//376 336//336 328//328 
f 375//375 379//379 363//363 
f 377//377 571//571 523//523 
f 378//378 379//379 375//375 
f 331//331 282//282 351//351 
f 380//380 329//329 382//382 
f 329//329 389//389 387//387 
f 378//378 329//329 380//380 
f 351//351 282//282 244//244 
f 675//675 289//289 383//383 
f 460//460 675//675 383//383 
f 380//380 384//384 379//379 
f 382//382 384//384 380//380 
f 479//479 476//476 551//551 
f 384//384 382//382 386//386 
f 370//370 386//386 382//382 
f 347//347 392//392 373//373 
f 369//369 325//325 331//331 
f 370//370 429//429 386//386 
f 429//429 396//396 386//386 
f 387//387 382//382 329//329 
f 389//389 388//388 387//387 
f 314//314 369//369 385//385 
f 392//392 347//347 394//394 
f 331//331 351//351 533//533 
f 388//388 368//368 387//387 
f 382//382 387//387 370//370 
f 370//370 387//387 368//368 
f 392//392 394//394 400//400 
f 390//390 368//368 388//388 
f 130//130 361//361 393//393 
f 361//361 391//391 393//393 
f 391//391 401//401 393//393 
f 135//135 393//393 401//401 
f 373//373 392//392 377//377 
f 401//401 411//411 135//135 
f 377//377 392//392 400//400 
f 401//401 391//391 399//399 
f 399//399 391//391 395//395 
f 399//399 395//395 367//367 
f 367//367 397//397 399//399 
f 367//367 396//396 397//397 
f 399//399 397//397 407//407 
f 397//397 396//396 398//398 
f 398//398 407//407 397//397 
f 396//396 429//429 398//398 
f 398//398 429//429 402//402 
f 401//401 399//399 423//423 
f 423//423 399//399 407//407 
f 406//406 407//407 398//398 
f 411//411 401//401 412//412 
f 412//412 414//414 411//411 
f 423//423 412//412 401//401 
f 402//402 406//406 398//398 
f 402//402 408//408 406//406 
f 403//403 408//408 402//402 
f 403//403 404//404 408//408 
f 385//385 369//369 331//331 
f 405//405 408//408 404//404 
f 405//405 404//404 427//427 
f 406//406 408//408 405//405 
f 405//405 407//407 406//406 
f 403//403 409//409 404//404 
f 409//409 428//428 404//404 
f 409//409 410//410 428//428 
f 428//428 427//427 404//404 
f 410//410 86//86 428//428 
f 422//422 459//459 273//273 
f 424//424 412//412 423//423 
f 273//273 416//416 422//422 
f 424//424 414//414 412//412 
f 414//414 413//413 411//411 
f 414//414 415//415 413//413 
f 415//415 414//414 426//426 
f 424//424 426//426 414//414 
f 426//426 419//419 415//415 
f 426//426 427//427 418//418 
f 418//418 428//428 420//420 
f 418//418 427//427 428//428 
f 415//415 430//430 413//413 
f 643//643 413//413 430//430 
f 419//419 430//430 415//415 
f 430//430 419//419 417//417 
f 430//430 417//417 32//32 
f 32//32 417//417 71//71 
f 426//426 418//418 419//419 
f 419//419 418//418 421//421 
f 418//418 420//420 421//421 
f 419//419 421//421 417//417 
f 417//417 421//421 71//71 
f 473//473 422//422 416//416 
f 423//423 407//407 424//424 
f 424//424 405//405 426//426 
f 424//424 407//407 405//405 
f 453//453 434//434 459//459 
f 405//405 427//427 426//426 
f 86//86 420//420 428//428 
f 432//432 431//431 441//441 
f 432//432 452//452 431//431 
f 452//452 451//451 431//431 
f 63//63 46//46 431//431 
f 433//433 454//454 455//455 
f 466//466 454//454 433//433 
f 445//445 433//433 432//432 
f 445//445 432//432 437//437 
f 437//437 442//442 445//445 
f 445//445 466//466 433//433 
f 449//449 445//445 442//442 
f 432//432 433//433 452//452 
f 435//435 441//441 440//440 
f 435//435 437//437 441//441 
f 437//437 435//435 304//304 
f 435//435 42//42 81//81 
f 435//435 440//440 42//42 
f 436//436 486//486 439//439 
f 442//442 437//437 304//304 
f 442//442 438//438 448//448 
f 438//438 439//439 256//256 
f 603//603 443//443 434//434 
f 324//324 486//486 488//488 
f 490//490 489//489 324//324 
f 435//435 436//436 304//304 
f 304//304 438//438 442//442 
f 448//448 449//449 442//442 
f 441//441 431//431 440//440 
f 441//441 437//437 432//432 
f 466//466 445//445 449//449 
f 449//449 447//447 466//466 
f 680//680 673//673 681//681 
f 469//469 447//447 511//511 
f 447//447 450//450 511//511 
f 511//511 513//513 469//469 
f 450//450 447//447 449//449 
f 256//256 489//489 448//448 
f 446//446 434//434 453//453 
f 449//449 448//448 491//491 
f 491//491 450//450 449//449 
f 530//530 450//450 491//491 
f 459//459 422//422 453//453 
f 452//452 457//457 451//451 
f 455//455 452//452 433//433 
f 452//452 455//455 457//457 
f 454//454 456//456 455//455 
f 454//454 465//465 470//470 
f 466//466 465//465 454//454 
f 455//455 456//456 462//462 
f 10//10 603//603 446//446 
f 467//467 456//456 454//454 
f 434//434 446//446 603//603 
f 446//446 498//498 10//10 
f 462//462 463//463 460//460 
f 462//462 457//457 455//455 
f 459//459 434//434 458//458 
f 460//460 457//457 462//462 
f 463//463 675//675 460//460 
f 456//456 463//463 462//462 
f 467//467 461//461 456//456 
f 456//456 461//461 463//463 
f 672//672 675//675 463//463 
f 464//464 672//672 463//463 
f 461//461 464//464 463//463 
f 461//461 475//475 464//464 
f 625//625 464//464 475//475 
f 625//625 672//672 464//464 
f 447//447 465//465 466//466 
f 469//469 465//465 447//447 
f 470//470 467//467 454//454 
f 465//465 469//469 471//471 
f 471//471 470//470 465//465 
f 385//385 331//331 533//533 
f 513//513 472//472 469//469 
f 472//472 471//471 469//469 
f 471//471 472//472 480//480 
f 477//477 470//470 471//471 
f 472//472 513//513 515//515 
f 480//480 477//477 471//471 
f 472//472 515//515 480//480 
f 516//516 267//267 52//52 
f 467//467 470//470 477//477 
f 467//467 474//474 461//461 
f 477//477 474//474 467//467 
f 422//422 473//473 60//60 
f 476//476 479//479 667//667 
f 256//256 448//448 438//438 
f 475//475 461//461 474//474 
f 475//475 474//474 478//478 
f 475//475 482//482 625//625 
f 60//60 473//473 468//468 
f 478//478 482//482 475//475 
f 482//482 385//385 625//625 
f 478//478 474//474 477//477 
f 480//480 478//478 477//477 
f 480//480 481//481 478//478 
f 482//482 478//478 481//481 
f 314//314 385//385 482//482 
f 481//481 525//525 524//524 
f 667//667 295//295 476//476 
f 482//482 481//481 483//483 
f 484//484 70//70 44//44 
f 481//481 480//480 525//525 
f 524//524 483//483 481//481 
f 314//314 482//482 483//483 
f 70//70 484//484 69//69 
f 483//483 524//524 548//548 
f 483//483 496//496 311//311 
f 436//436 485//485 486//486 
f 486//486 485//485 487//487 
f 324//324 488//488 505//505 
f 505//505 490//490 324//324 
f 468//468 473//473 633//633 
f 85//85 487//487 485//485 
f 487//487 488//488 486//486 
f 85//85 499//499 487//487 
f 488//488 487//487 500//500 
f 487//487 499//499 500//500 
f 488//488 502//502 505//505 
f 489//489 490//490 493//493 
f 492//492 448//448 489//489 
f 256//256 324//324 489//489 
f 678//678 677//677 6//6 
f 680//680 10//10 669//669 
f 491//491 448//448 492//492 
f 498//498 446//446 495//495 
f 492//492 493//493 527//527 
f 446//446 453//453 495//495 
f 527//527 491//491 492//492 
f 491//491 527//527 530//530 
f 501//501 498//498 495//495 
f 493//493 492//492 489//489 
f 476//476 295//295 616//616 
f 295//295 667//667 330//330 
f 534//534 533//533 425//425 
f 438//438 304//304 439//439 
f 60//60 468//468 507//507 
f 493//493 528//528 527//527 
f 667//667 678//678 330//330 
f 505//505 508//508 490//490 
f 501//501 495//495 507//507 
f 507//507 495//495 60//60 
f 490//490 564//564 493//493 
f 528//528 493//493 564//564 
f 508//508 564//564 490//490 
f 548//548 496//496 483//483 
f 311//311 314//314 483//483 
f 667//667 556//556 679//679 
f 330//330 678//678 676//676 
f 678//678 667//667 679//679 
f 500//500 502//502 488//488 
f 503//503 500//500 499//499 
f 500//500 504//504 502//502 
f 500//500 503//503 504//504 
f 502//502 506//506 505//505 
f 502//502 504//504 595//595 
f 588//588 590//590 503//503 
f 504//504 503//503 590//590 
f 504//504 590//590 589//589 
f 504//504 589//589 595//595 
f 505//505 506//506 508//508 
f 273//273 271//271 514//514 
f 508//508 509//509 564//564 
f 508//508 510//510 509//509 
f 508//508 506//506 510//510 
f 595//595 506//506 502//502 
f 595//595 596//596 506//506 
f 514//514 416//416 273//273 
f 312//312 514//514 296//296 
f 510//510 506//506 596//596 
f 416//416 514//514 518//518 
f 510//510 598//598 509//509 
f 596//596 598//598 510//510 
f 450//450 512//512 511//511 
f 473//473 416//416 518//518 
f 518//518 523//523 473//473 
f 511//511 512//512 520//520 
f 530//530 512//512 450//450 
f 633//633 473//473 523//523 
f 532//532 512//512 530//530 
f 633//633 523//523 571//571 
f 520//520 512//512 532//532 
f 532//532 521//521 522//522 
f 517//517 513//513 511//511 
f 517//517 515//515 513//513 
f 511//511 520//520 517//517 
f 517//517 520//520 522//522 
f 522//522 519//519 517//517 
f 267//267 516//516 38//38 
f 515//515 519//519 525//525 
f 517//517 519//519 515//515 
f 515//515 525//525 480//480 
f 519//519 522//522 543//543 
f 519//519 526//526 525//525 
f 526//526 519//519 543//543 
f 522//522 521//521 544//544 
f 525//525 526//526 524//524 
f 527//527 529//529 530//530 
f 527//527 528//528 529//529 
f 531//531 530//530 529//529 
f 531//531 529//529 535//535 
f 530//530 531//531 532//532 
f 29//29 540//540 587//587 
f 494//494 534//534 425//425 
f 537//537 532//532 531//531 
f 537//537 546//546 521//521 
f 532//532 537//537 521//521 
f 562//562 534//534 494//494 
f 531//531 535//535 537//537 
f 528//528 539//539 529//529 
f 538//538 29//29 24//24 
f 528//528 564//564 539//539 
f 535//535 529//529 539//539 
f 536//536 537//537 535//535 
f 535//535 539//539 541//541 
f 537//537 536//536 553//553 
f 541//541 536//536 535//535 
f 541//541 539//539 566//566 
f 541//541 542//542 536//536 
f 540//540 29//29 538//538 
f 536//536 542//542 553//553 
f 553//553 560//560 552//552 
f 553//553 559//559 560//560 
f 553//553 542//542 559//559 
f 546//546 545//545 521//521 
f 544//544 543//543 522//522 
f 30//30 526//526 543//543 
f 543//543 544//544 30//30 
f 544//544 521//521 545//545 
f 26//26 544//544 545//545 
f 545//545 547//547 26//26 
f 546//546 552//552 545//545 
f 546//546 537//537 553//553 
f 538//538 572//572 540//540 
f 552//552 554//554 545//545 
f 547//547 545//545 554//554 
f 547//547 554//554 13//13 
f 526//526 548//548 524//524 
f 548//548 526//526 30//30 
f 572//572 538//538 189//189 
f 555//555 496//496 548//548 
f 555//555 548//548 30//30 
f 189//189 555//555 550//550 
f 550//550 572//572 189//189 
f 547//547 550//550 549//549 
f 13//13 550//550 547//547 
f 553//553 552//552 546//546 
f 552//552 560//560 554//554 
f 554//554 557//557 13//13 
f 679//679 556//556 677//677 
f 549//549 550//550 555//555 
f 550//550 558//558 572//572 
f 189//189 496//496 555//555 
f 303//303 656//656 641//641 
f 573//573 572//572 558//558 
f 558//558 550//550 13//13 
f 673//673 671//671 556//556 
f 681//681 673//673 556//556 
f 625//625 385//385 533//533 
f 573//573 558//558 557//557 
f 557//557 554//554 563//563 
f 577//577 573//573 557//557 
f 560//560 563//563 554//554 
f 563//563 577//577 557//557 
f 509//509 566//566 564//564 
f 539//539 564//564 566//566 
f 566//566 565//565 541//541 
f 565//565 570//570 542//542 
f 542//542 541//541 565//565 
f 565//565 581//581 570//570 
f 509//509 598//598 568//568 
f 568//568 566//566 509//509 
f 598//598 662//662 569//569 
f 566//566 568//568 565//565 
f 568//568 569//569 580//580 
f 565//565 580//580 581//581 
f 569//569 663//663 580//580 
f 580//580 565//565 568//568 
f 569//569 568//568 598//598 
f 569//569 662//662 666//666 
f 542//542 570//570 559//559 
f 594//594 571//571 377//377 
f 556//556 671//671 677//677 
f 678//678 679//679 677//677 
f 573//573 574//574 540//540 
f 540//540 572//572 573//573 
f 574//574 573//573 577//577 
f 577//577 585//585 574//574 
f 540//540 574//574 587//587 
f 574//574 585//585 587//587 
f 587//587 670//670 29//29 
f 377//377 400//400 584//584 
f 444//444 670//670 587//587 
f 584//584 400//400 561//561 
f 575//575 559//559 570//570 
f 559//559 575//575 560//560 
f 570//570 576//576 575//575 
f 575//575 579//579 563//563 
f 563//563 560//560 575//575 
f 579//579 575//575 576//576 
f 581//581 576//576 570//570 
f 576//576 578//578 579//579 
f 578//578 576//576 581//581 
f 563//563 579//579 577//577 
f 579//579 578//578 583//583 
f 579//579 585//585 577//577 
f 581//581 580//580 663//663 
f 663//663 665//665 581//581 
f 581//581 665//665 578//578 
f 665//665 583//583 578//578 
f 583//583 665//665 582//582 
f 582//582 586//586 583//583 
f 582//582 381//381 586//586 
f 583//583 585//585 579//579 
f 587//587 585//585 586//586 
f 585//585 583//583 586//586 
f 584//584 594//594 377//377 
f 586//586 444//444 587//587 
f 586//586 381//381 444//444 
f 592//592 589//589 590//590 
f 589//589 592//592 600//600 
f 590//590 593//593 592//592 
f 593//593 590//590 588//588 
f 604//604 593//593 591//591 
f 604//604 605//605 593//593 
f 593//593 605//605 592//592 
f 592//592 605//605 600//600 
f 595//595 589//589 597//597 
f 596//596 595//595 597//597 
f 596//596 597//597 599//599 
f 597//597 589//589 600//600 
f 599//599 598//598 596//596 
f 597//597 601//601 599//599 
f 597//597 600//600 601//601 
f 598//598 661//661 662//662 
f 599//599 661//661 598//598 
f 599//599 601//601 602//602 
f 605//605 608//608 600//600 
f 600//600 608//608 601//601 
f 608//608 610//610 601//601 
f 602//602 661//661 599//599 
f 661//661 602//602 676//676 
f 676//676 666//666 661//661 
f 601//601 610//610 602//602 
f 602//602 613//613 676//676 
f 602//602 610//610 613//613 
f 603//603 10//10 618//618 
f 618//618 443//443 603//603 
f 121//121 606//606 604//604 
f 607//607 605//605 604//604 
f 607//607 604//604 606//606 
f 605//605 607//607 609//609 
f 606//606 611//611 607//607 
f 609//609 607//607 612//612 
f 611//611 612//612 607//607 
f 612//612 622//622 609//609 
f 608//608 605//605 609//609 
f 609//609 622//622 608//608 
f 608//608 622//622 610//610 
f 613//613 610//610 614//614 
f 610//610 622//622 614//614 
f 613//613 330//330 676//676 
f 613//613 295//295 330//330 
f 616//616 295//295 613//613 
f 614//614 622//622 623//623 
f 626//626 616//616 614//614 
f 627//627 616//616 626//626 
f 616//616 613//613 614//614 
f 621//621 476//476 616//616 
f 627//627 621//621 616//616 
f 629//629 628//628 154//154 
f 184//184 617//617 629//629 
f 620//620 551//551 476//476 
f 443//443 617//617 184//184 
f 443//443 618//618 617//617 
f 617//617 618//618 620//620 
f 184//184 434//434 443//443 
f 594//594 584//584 615//615 
f 551//551 620//620 618//618 
f 619//619 620//620 621//621 
f 476//476 621//621 620//620 
f 621//621 627//627 619//619 
f 617//617 620//620 619//619 
f 629//629 617//617 619//619 
f 623//623 626//626 614//614 
f 622//622 624//624 623//623 
f 612//612 624//624 622//622 
f 626//626 623//623 651//651 
f 651//651 630//630 626//626 
f 625//625 533//533 534//534 
f 626//626 630//630 627//627 
f 628//628 629//629 631//631 
f 658//658 631//631 630//630 
f 658//658 630//630 651//651 
f 628//628 655//655 139//139 
f 468//468 633//633 641//641 
f 628//628 658//658 655//655 
f 631//631 658//658 628//628 
f 631//631 629//629 619//619 
f 627//627 631//631 619//619 
f 631//631 627//627 630//630 
f 138//138 632//632 606//606 
f 606//606 632//632 611//611 
f 632//632 634//634 611//611 
f 638//638 632//632 138//138 
f 639//639 632//632 638//638 
f 639//639 634//634 632//632 
f 612//612 611//611 652//652 
f 611//611 634//634 652//652 
f 640//640 634//634 639//639 
f 641//641 656//656 468//468 
f 640//640 652//652 634//634 
f 635//635 37//37 660//660 
f 636//636 638//638 637//637 
f 636//636 642//642 638//638 
f 639//639 638//638 642//642 
f 639//639 646//646 640//640 
f 640//640 646//646 647//647 
f 644//644 642//642 636//636 
f 644//644 650//650 642//642 
f 645//645 644//644 643//643 
f 32//32 645//645 643//643 
f 32//32 73//73 645//645 
f 644//644 65//65 650//650 
f 644//644 645//645 65//65 
f 645//645 73//73 65//65 
f 642//642 646//646 639//639 
f 646//646 648//648 647//647 
f 648//648 660//660 647//647 
f 646//646 650//650 105//105 
f 105//105 649//649 51//51 
f 635//635 660//660 648//648 
f 105//105 650//650 649//649 
f 642//642 650//650 646//646 
f 650//650 65//65 649//649 
f 612//612 652//652 624//624 
f 624//624 652//652 653//653 
f 501//501 507//507 664//664 
f 624//624 653//653 623//623 
f 623//623 653//653 651//651 
f 656//656 507//507 468//468 
f 654//654 651//651 653//653 
f 640//640 653//653 652//652 
f 653//653 659//659 654//654 
f 653//653 640//640 659//659 
f 659//659 640//640 647//647 
f 651//651 654//654 658//658 
f 664//664 507//507 656//656 
f 657//657 658//658 654//654 
f 37//37 655//655 657//657 
f 658//658 657//657 655//655 
f 538//538 501//501 664//664 
f 660//660 659//659 647//647 
f 659//659 660//660 657//657 
f 657//657 654//654 659//659 
f 37//37 657//657 660//660 
f 666//666 662//662 661//661 
f 625//625 534//534 562//562 
f 672//672 625//625 562//562 
f 666//666 663//663 569//569 
f 582//582 665//665 7//7 
f 10//10 680//680 618//618 
f 7//7 663//663 6//6 
f 681//681 551//551 680//680 
f 6//6 663//663 666//666 
f 6//6 666//666 678//678 
f 677//677 671//671 668//668 
f 189//189 538//538 664//664 
f 669//669 11//11 680//680 
f 674//674 444//444 381//381 
f 674//674 381//381 668//668 
f 672//672 562//562 675//675 
f 439//439 304//304 436//436 
f 486//486 324//324 439//439 
f 670//670 444//444 674//674 
f 668//668 671//671 674//674 
f 673//673 674//674 671//671 
f 673//673 680//680 11//11 
f 11//11 670//670 673//673 
f 674//674 673//673 670//670 
f 678//678 666//666 676//676 
f 145//145 636//636 682//682 
f 636//636 637//637 682//682 
f 637//637 145//145 682//682 
f 663//663 7//7 683//683 
f 7//7 665//665 683//683 
f 665//665 663//663 683//683 
f 99//99 110//110 684//684 
f 110//110 588//588 684//684 
f 588//588 99//99 684//684 
