# PIPER geometrical reference model based on a manual segmentation. See the
# documentation for more info.
# Author: CEESAR, SOTON, UCBL-Ifsttar
# Version: 1.0.0
# License: Creative Commons Attribution 4.0 International License.
# (https://creativecommons.org/licenses/by/4.0/)
# 
# This work has received funding from the European Union Seventh Framework
# Program ([FP7/2007-2013]) under grant agreement 605544 [PIPER project]).
# Contributors include Pierre Maillez, Christophe Lecomte (SOTON), Erwan
# Jolivet (CEESAR), Philippe Beillas (UCBL-Ifsttar)
# This work is derived from a CT scan provided by CEESAR under a CCBY-4.0
# License
# 
# wavefront obj file written by the visualization toolkit

mtllib C:/desktop/registration_reference_model/22_REF_LTE635_Assembly_hands_corr/CCTu635_BP132_ProximalPhalFourth_L.mtl

v -87.9946 292.813 -950.312
v -88.1416 288.146 -951.818
v -87.2364 287.028 -952.257
v -87.0797 286.423 -953.807
v -85.7794 286.294 -953.328
v -92.1642 293.337 -951.981
v -92.1581 294.92 -952.961
v -91.8092 293.335 -953.506
v -89.9312 290.271 -951.436
v -88.8522 289.796 -951.052
v -88.8215 288.505 -952.711
v -87.8533 290.645 -950.928
v -90.6847 292.277 -950.776
v -91.5166 294.309 -950.911
v -89.7743 293.742 -949.998
v -86.6455 292.137 -950.903
v -89.8928 290.146 -952.896
v -86.1781 286.411 -955.024
v -87.2548 287.393 -955.344
v -89.4589 291.299 -955.166
v -90.2743 294.081 -956.388
v -88.0636 291.542 -957.697
v -88.6509 294.085 -959.058
v -85.5002 288.076 -951.334
v -82.8878 288.402 -951.237
v -81.4109 289.77 -950.976
v -81.7714 288.429 -952.354
v -82.8126 287.323 -951.986
v -84.5353 286.166 -954.355
v -82.5575 287.381 -953.9
v -81.7804 288.957 -954.619
v -86.0186 290.786 -951.168
v -83.0973 292.172 -950.887
v -82.6228 290.055 -950.893
v -81.1697 290.901 -951.687
v -84.6773 293.499 -950.544
v -84.1263 294.22 -950.601
v -81.8868 292.586 -951.288
v -82.6981 295.037 -951.715
v -81.459 293.261 -952.943
v -80.8832 289.806 -952.753
v -83.6169 286.848 -955.172
v -84.8663 287.276 -956.499
v -86.2502 288.006 -957.224
v -83.0433 287.661 -955.862
v -84.139 288.815 -957.968
v -82.8172 290.154 -957.752
v -81.2404 291.186 -956.058
v -86.7442 290.561 -958.726
v -84.07 290.576 -959.929
v -83.2105 291.56 -960.351
v -82.2351 292.32 -959.474
v -80.6639 292.033 -954.491
v -80.6857 293.292 -954.804
v -81.0025 294.918 -958.122
v -85.413 289.338 -958.878
v -85.9982 291.836 -961.502
v -84.9474 291.705 -962.497
v -83.8941 291.882 -962.132
v -81.0661 294.008 -958.527
v -88.2638 294.946 -961.244
v -86.2504 293.439 -963.668
v -84.207 292.708 -965.415
v -82.038 294.147 -961.688
v -83.0372 292.865 -962.469
v -88.5085 295.411 -949.323
v -89.9686 296.133 -949.412
v -86.3349 295.148 -949.667
v -87.8502 297.008 -949.389
v -92.1042 295.888 -951.439
v -91.5164 297.127 -951.215
v -91.9664 296.643 -952.674
v -91.0529 296.218 -950.227
v -89.9129 297.464 -950.127
v -90.1878 298.305 -951.343
v -88.5411 299.227 -951.901
v -86.682 298.046 -950.029
v -87.4493 299.013 -950.795
v -91.241 297.776 -952.51
v -89.7833 298.724 -953.014
v -86.6919 299.416 -952.743
v -90.245 295.814 -957.052
v -91.0962 295.874 -955.644
v -89.9814 297.261 -956.353
v -88.1914 299.214 -954.177
v -89.4268 296.941 -958.653
v -88.6592 298.081 -957.345
v -87.0702 298.59 -958.476
v -89.0618 296.292 -960.461
v -88.4975 297.558 -961.638
v -87.5796 298.248 -961.481
v -88.7017 296.866 -963.134
v -86.1656 298.638 -961.856
v -86.0641 296.884 -949.508
v -83.0598 296.691 -952.058
v -83.6753 297.765 -952.827
v -81.6487 295.718 -953.677
v -82.0144 296.748 -954.508
v -85.0872 298.656 -951.929
v -86.4218 298.82 -956.226
v -82.4932 297.283 -956.921
v -81.1754 295.808 -956.809
v -84.7539 298.338 -955.957
v -81.8931 295.555 -963.535
v -83.5057 297.883 -961.283
v -85.4025 298.542 -959.774
v -81.5245 295.616 -960.789
v -82.2405 296.956 -964.471
v -84.4999 298.981 -964.84
v -82.0777 296.822 -961.176
v -85.78 293.692 -977.14
v -87.2836 295.186 -976.351
v -86.8789 294.031 -978.599
v -82.4699 294.521 -965.337
v -84.1813 292.93 -966.793
v -85.9177 294.759 -969.363
v -85.1285 293.455 -966.782
v -84.5282 293.802 -969.218
v -83.1424 293.991 -968.494
v -82.5418 294.885 -968.744
v -85.3415 294.514 -971.701
v -83.6124 294.458 -971.664
v -84.2703 294.255 -971.889
v -84.9743 294.287 -973.622
v -84.1021 294.359 -974.103
v -84.7836 293.868 -975.772
v -84.0887 294.072 -977.32
v -85.6217 293.447 -978.868
v -87.9423 296.69 -965.341
v -86.9154 295.248 -966.321
v -88.2824 297.795 -964.937
v -87.7668 298.685 -965.459
v -87.2184 296.268 -970.305
v -87.6877 297.164 -967.552
v -87.5276 299.809 -969.226
v -85.986 294.721 -974.253
v -86.3756 295.253 -971.866
v -87.8942 297.925 -970.265
v -87.8734 299.045 -968.15
v -88.3682 299.621 -972.254
v -88.3242 297.516 -973.073
v -87.4145 295.987 -973.715
v -86.8401 299.657 -967.32
v -87.0968 300.669 -972.262
v -86.3658 301.64 -974.422
v -85.7896 300.56 -972.375
v -88.2373 301.016 -974.641
v -89.3004 296.963 -976.455
v -88.3401 295.715 -977.945
v -89.7529 298.32 -975.451
v -89.6793 297.479 -978.138
v -90.6133 298.327 -977.06
v -89.5145 298.839 -978.923
v -87.9311 297.71 -979.526
v -87.2111 302.423 -975.734
v -88.2115 302.26 -976.583
v -85.4254 302.881 -976.935
v -86.233 303.116 -977.385
v -89.8842 299.818 -976.693
v -89.5413 302.108 -979.006
v -88.7322 300.512 -979.592
v -89.8282 301.09 -979.233
v -86.9912 301.284 -979.501
v -87.0393 302.805 -978.934
v -87.8151 303.025 -977.737
v -88.7924 302.796 -979.996
v -86.4454 295.11 -979.968
v -82.169 295.68 -967.088
v -82.146 296.734 -968.068
v -83.8107 299.15 -968.291
v -83.0713 298.258 -965.841
v -85.4623 299.804 -967.321
v -82.3141 297.184 -971.136
v -82.9121 294.939 -971.141
v -82.3797 296.149 -972.452
v -84.8832 300.129 -972.197
v -82.5827 297.936 -968.397
v -82.7239 297.991 -972.2
v -83.7676 299.445 -974.397
v -82.2311 297.397 -974.868
v -82.882 295.216 -974.353
v -81.773 296.653 -977.012
v -83.8638 300.314 -976.527
v -81.8644 297.637 -976.576
v -83.7936 294.865 -979.782
v -82.468 295.663 -977.689
v -84.6112 299.209 -979.693
v -83.9676 300.313 -977.834
v -86.7201 299.084 -979.774
v -81.5204 297.96 -978.781
v -82.7473 298.951 -977.915
v -82.5222 298.534 -979.858
v -84.7963 300.496 -974.438
v -85.5732 300.47 -979.095
v -85.576 302.464 -978.673
v -85.0269 295.121 -980.346
v -85.1217 297.09 -980.744
v -83.3738 296.49 -980.747
v -81.7466 297.17 -979.739
v -83.2739 297.966 -980.654
v -81.9943 295.077 -952.856
v -82.0304 297.697 -979.761
v -86.4921 302.866 -978.304
vn 0.120308 -0.311462 0.942612
vn -0.483996 -0.618358 0.619178
vn -0.364505 -0.74602 0.557306
vn -0.501995 -0.86434 -0.030277
vn -0.0344305 -0.955302 0.293622
vn -0.946085 -0.240943 0.216495
vn -0.991045 0.00191943 -0.133514
vn -0.876475 -0.330149 -0.350419
vn -0.701065 -0.554521 0.448346
vn -0.249652 -0.396439 0.883465
vn -0.783906 -0.620506 0.0215038
vn 0.111563 -0.184507 0.976479
vn -0.555982 -0.340633 0.75819
vn -0.748733 -0.138676 0.648204
vn -0.263748 -0.269084 0.926299
vn 0.12859 -0.262171 0.956416
vn -0.822638 -0.53934 -0.179939
vn -0.243301 -0.898971 -0.364219
vn -0.6876 -0.590226 -0.422894
vn -0.77257 -0.452492 -0.445406
vn -0.812317 -0.301112 -0.499472
vn -0.76281 -0.439842 -0.473983
vn -0.817248 -0.407562 -0.407429
vn -0.0362634 -0.409676 0.91151
vn 0.239187 -0.443917 0.863555
vn 0.61681 -0.227305 0.753577
vn 0.780972 -0.587127 0.212988
vn 0.439576 -0.741519 0.506876
vn 0.208079 -0.97387 -0.090992
vn 0.713823 -0.693888 -0.0947475
vn 0.844283 -0.459478 -0.275801
vn 0.0323087 -0.10607 0.993834
vn 0.141085 -0.013556 0.989905
vn -0.00210182 -0.0855556 0.996331
vn 0.910213 0.144767 0.388014
vn 0.143566 -0.208881 0.967346
vn 0.406158 0.0240111 0.913487
vn 0.659206 0.24791 0.709921
vn 0.704423 0.265005 0.658453
vn 0.894423 0.246157 0.373383
vn 0.955725 -0.289401 0.0532667
vn 0.458678 -0.815181 -0.353686
vn 0.122572 -0.802376 -0.584097
vn -0.419914 -0.66319 -0.619557
vn 0.633082 -0.618675 -0.465241
vn 0.404804 -0.667205 -0.625277
vn 0.71569 -0.523855 -0.461914
vn 0.875291 -0.368341 -0.313353
vn -0.683966 -0.527266 -0.504164
vn 0.467459 -0.738832 -0.485396
vn 0.676644 -0.63559 -0.371725
vn 0.806494 -0.479248 -0.346249
vn 0.998634 -0.0422206 0.0307973
vn 0.982471 0.122299 0.140693
vn 0.983087 0.150111 -0.104911
vn -0.19084 -0.725358 -0.661389
vn -0.660943 -0.607052 -0.441183
vn -0.170168 -0.882796 -0.437851
vn 0.494926 -0.791551 -0.358463
vn 0.954197 -0.183015 -0.236673
vn -0.835936 -0.470831 -0.282009
vn -0.71705 -0.637861 -0.281023
vn 0.17851 -0.946792 -0.267804
vn 0.903887 -0.366436 -0.220712
vn 0.753423 -0.610701 -0.243717
vn 0.00238913 -0.162306 0.986738
vn -0.362775 0.105382 0.925899
vn 0.195393 -0.213271 0.957255
vn -0.0222324 0.30532 0.95199
vn -0.938794 0.0740474 0.336426
vn -0.748592 0.519322 0.412208
vn -0.915879 0.37524 -0.142688
vn -0.6539 0.165317 0.738299
vn -0.371508 0.580801 0.724328
vn -0.476303 0.798468 0.368218
vn -0.25247 0.94766 0.195449
vn 0.243134 0.61305 0.751702
vn 0.0227639 0.83796 0.545256
vn -0.717065 0.69422 -0.0622604
vn -0.490326 0.866426 -0.0942676
vn 0.17612 0.983149 0.0489805
vn -0.898006 0.0373642 -0.438393
vn -0.881475 0.161288 -0.443833
vn -0.761344 0.557199 -0.331489
vn -0.222742 0.961644 -0.160086
vn -0.861235 0.455444 -0.225488
vn -0.554702 0.804349 -0.212904
vn -0.185451 0.978788 -0.0870728
vn -0.960566 -0.0868129 -0.264152
vn -0.80989 0.584388 -0.050686
vn -0.439396 0.898063 0.020346
vn -0.98406 -0.0527545 -0.169831
vn -0.118734 0.988083 0.0979493
vn 0.349925 0.24431 0.904359
vn 0.703272 0.468125 0.53504
vn 0.614964 0.76351 0.19716
vn 0.868492 0.359499 0.341295
vn 0.749726 0.643093 0.156021
vn 0.507316 0.795742 0.330796
vn 0.16198 0.981672 -0.100412
vn 0.600426 0.799563 0.0137143
vn 0.898427 0.438694 0.0194122
vn 0.37853 0.925348 -0.021119
vn 0.989747 -0.0700591 -0.12447
vn 0.519202 0.852617 0.0589374
vn 0.187149 0.982039 0.023955
vn 0.979836 0.126013 -0.155058
vn 0.903196 0.429016 0.0134614
vn 0.370127 0.91391 0.166657
vn 0.778358 0.627038 -0.0313437
vn -0.234734 -0.954219 0.185383
vn -0.64197 -0.735542 0.216457
vn -0.635588 -0.73851 -0.225011
vn 0.899243 -0.425558 -0.101304
vn 0.0669652 -0.978819 -0.193467
vn -0.653059 -0.750083 -0.104354
vn -0.579222 -0.783798 -0.223971
vn -0.337342 -0.910485 -0.239203
vn 0.686002 -0.711591 -0.151787
vn 0.885255 -0.455928 -0.0919389
vn -0.438487 -0.898314 -0.027568
vn 0.471313 -0.874693 -0.113035
vn 0.0618253 -0.996057 -0.0636293
vn -0.189277 -0.979849 0.0637998
vn 0.384566 -0.92172 0.0504085
vn 0.0966832 -0.983394 0.153585
vn 0.510385 -0.859192 -0.0360007
vn -0.0282781 -0.942808 -0.332134
vn -0.908255 -0.349197 -0.23051
vn -0.801171 -0.568695 -0.18631
vn -0.977771 0.171314 -0.120894
vn -0.723128 0.682759 0.104526
vn -0.841047 -0.540236 0.0280232
vn -0.953903 -0.285798 -0.0915941
vn -0.591942 0.78315 0.190475
vn -0.534781 -0.832014 0.147521
vn -0.652436 -0.756314 0.0481254
vn -0.966264 -0.23892 0.0961857
vn -0.965135 0.254262 0.0621677
vn -0.888339 0.359971 0.285089
vn -0.884319 -0.378448 0.273418
vn -0.711971 -0.681726 0.168367
vn -0.272449 0.941384 0.198914
vn -0.271538 0.907843 0.319512
vn 0.300338 0.842971 0.446315
vn 0.288043 0.928194 0.235557
vn -0.679625 0.642422 0.354124
vn -0.747992 -0.637843 0.183479
vn -0.741837 -0.656528 -0.136561
vn -0.903772 -0.166662 0.394234
vn -0.763468 -0.475553 -0.436996
vn -0.981695 -0.183819 0.0498531
vn -0.642971 -0.224959 -0.732108
vn -0.447353 -0.122085 -0.885986
vn -0.222581 0.869061 0.441803
vn -0.620949 0.686906 0.377601
vn 0.531365 0.832833 0.155049
vn 0.12996 0.991013 0.0316716
vn -0.865185 0.399038 0.303683
vn -0.837805 0.545951 0.00455115
vn -0.214355 -0.11328 -0.970165
vn -0.853289 0.0622338 -0.517711
vn 0.260639 0.154469 -0.952999
vn 0.251305 0.787432 -0.562847
vn -0.29165 0.946763 0.136306
vn -0.274431 0.624202 -0.731477
vn -0.451137 -0.401622 -0.796979
vn 0.986007 -0.162953 -0.0351692
vn 0.989972 0.140583 -0.0138375
vn 0.571369 0.816383 0.0839945
vn 0.677726 0.727409 0.107534
vn 0.164635 0.973291 0.159999
vn 0.975341 0.219505 -0.0229827
vn 0.761693 -0.63352 -0.135927
vn 0.965661 -0.259669 -0.00838463
vn 0.502395 0.858679 0.101342
vn 0.842429 0.538372 0.0216809
vn 0.84643 0.532457 0.0068
vn 0.74535 0.65183 0.139897
vn 0.925839 0.34725 0.149128
vn 0.73306 -0.680047 0.0126237
vn 0.952517 -0.297676 0.0640404
vn 0.799691 0.588714 0.117945
vn 0.926434 0.321104 0.196498
vn 0.494933 -0.700354 -0.514341
vn 0.762832 -0.64035 -0.0896618
vn 0.15586 0.665736 -0.729729
vn 0.718617 0.624495 -0.305935
vn -0.0809237 0.198368 -0.976781
vn 0.927157 0.36154 -0.0983301
vn 0.735567 0.677151 0.020177
vn 0.545277 0.638649 -0.542955
vn 0.649329 0.708471 0.276479
vn 0.403703 0.332651 -0.852272
vn 0.543111 0.586257 -0.60111
vn -0.0285735 -0.472224 -0.881016
vn -0.19198 0.052844 -0.979975
vn 0.328567 -0.257391 -0.908732
vn 0.846664 -0.160056 -0.507486
vn 0.252847 0.351583 -0.901364
vn 0.827068 0.218086 0.518071
vn 0.766865 0.392016 -0.508175
vn 0.268967 0.907749 -0.321946

g grp1
usemtl mtl1
f 10//10 9//9 2//2 
f 9//9 11//11 2//2 
f 24//24 2//2 3//3 
f 10//10 2//2 24//24 
f 12//12 10//10 24//24 
f 24//24 32//32 12//12 
f 3//3 11//11 4//4 
f 5//5 3//3 4//4 
f 19//19 4//4 11//11 
f 18//18 5//5 4//4 
f 4//4 19//19 18//18 
f 3//3 2//2 11//11 
f 17//17 19//19 11//11 
f 17//17 20//20 19//19 
f 14//14 7//7 6//6 
f 7//7 8//8 6//6 
f 13//13 9//9 10//10 
f 17//17 11//11 9//9 
f 6//6 9//9 13//13 
f 6//6 17//17 9//9 
f 12//12 1//1 10//10 
f 10//10 1//1 15//15 
f 12//12 16//16 1//1 
f 12//12 32//32 16//16 
f 15//15 13//13 10//10 
f 13//13 15//15 14//14 
f 67//67 14//14 15//15 
f 13//13 14//14 6//6 
f 1//1 16//16 68//68 
f 8//8 17//17 6//6 
f 8//8 20//20 17//17 
f 44//44 18//18 19//19 
f 20//20 22//22 19//19 
f 19//19 22//22 49//49 
f 19//19 49//49 44//44 
f 20//20 8//8 21//21 
f 20//20 21//21 22//22 
f 83//83 21//21 8//8 
f 21//21 83//83 82//82 
f 21//21 82//82 23//23 
f 21//21 23//23 22//22 
f 22//22 57//57 49//49 
f 57//57 22//22 23//23 
f 57//57 23//23 61//61 
f 61//61 130//130 62//62 
f 3//3 28//28 24//24 
f 34//34 32//32 24//24 
f 34//34 25//25 26//26 
f 25//25 24//24 28//28 
f 25//25 34//34 24//24 
f 28//28 27//27 25//25 
f 25//25 27//27 26//26 
f 27//27 41//41 26//26 
f 5//5 28//28 3//3 
f 29//29 28//28 5//5 
f 29//29 5//5 18//18 
f 28//28 29//29 30//30 
f 30//30 29//29 42//42 
f 28//28 30//30 27//27 
f 27//27 30//30 31//31 
f 27//27 31//31 41//41 
f 26//26 33//33 34//34 
f 34//34 33//33 32//32 
f 38//38 26//26 35//35 
f 37//37 68//68 36//36 
f 16//16 36//36 68//68 
f 36//36 16//16 32//32 
f 37//37 36//36 33//33 
f 32//32 33//33 36//36 
f 33//33 38//38 37//37 
f 33//33 26//26 38//38 
f 38//38 35//35 40//40 
f 37//37 38//38 39//39 
f 40//40 39//39 38//38 
f 54//54 97//97 40//40 
f 41//41 35//35 26//26 
f 35//35 41//41 53//53 
f 35//35 53//53 40//40 
f 40//40 53//53 54//54 
f 31//31 48//48 41//41 
f 53//53 41//41 48//48 
f 44//44 43//43 18//18 
f 29//29 18//18 43//43 
f 42//42 29//29 43//43 
f 43//43 45//45 42//42 
f 46//46 45//45 43//43 
f 30//30 42//42 45//45 
f 30//30 45//45 31//31 
f 31//31 45//45 47//47 
f 43//43 44//44 56//56 
f 49//49 56//56 44//44 
f 43//43 56//56 46//46 
f 46//46 47//47 45//45 
f 31//31 47//47 48//48 
f 48//48 47//47 52//52 
f 46//46 56//56 50//50 
f 50//50 47//47 46//46 
f 47//47 50//50 51//51 
f 51//51 52//52 47//47 
f 48//48 60//60 53//53 
f 54//54 53//53 60//60 
f 52//52 60//60 48//48 
f 54//54 60//60 55//55 
f 49//49 57//57 56//56 
f 57//57 58//58 56//56 
f 56//56 58//58 50//50 
f 50//50 58//58 59//59 
f 59//59 51//51 50//50 
f 51//51 59//59 65//65 
f 65//65 52//52 51//51 
f 52//52 65//65 64//64 
f 60//60 52//52 64//64 
f 59//59 58//58 63//63 
f 63//63 65//65 59//59 
f 57//57 61//61 62//62 
f 57//57 62//62 58//58 
f 58//58 62//62 117//117 
f 117//117 63//63 58//58 
f 64//64 65//65 114//114 
f 66//66 67//67 15//15 
f 66//66 69//69 67//67 
f 68//68 66//66 1//1 
f 15//15 1//1 66//66 
f 66//66 68//68 69//69 
f 94//94 69//69 68//68 
f 69//69 94//94 77//77 
f 70//70 14//14 73//73 
f 73//73 71//71 70//70 
f 14//14 70//70 7//7 
f 70//70 72//72 7//7 
f 72//72 70//70 71//71 
f 71//71 79//79 72//72 
f 72//72 83//83 7//7 
f 72//72 79//79 83//83 
f 83//83 8//8 7//7 
f 14//14 67//67 73//73 
f 73//73 67//67 74//74 
f 71//71 73//73 74//74 
f 67//67 69//69 74//74 
f 74//74 75//75 71//71 
f 69//69 78//78 74//74 
f 74//74 78//78 75//75 
f 80//80 79//79 75//75 
f 71//71 75//75 79//79 
f 78//78 76//76 75//75 
f 76//76 80//80 75//75 
f 69//69 77//77 78//78 
f 99//99 78//78 77//77 
f 81//81 76//76 78//78 
f 99//99 81//81 78//78 
f 85//85 80//80 76//76 
f 85//85 87//87 80//80 
f 79//79 80//80 87//87 
f 76//76 81//81 85//85 
f 100//100 85//85 81//81 
f 83//83 79//79 84//84 
f 84//84 82//82 83//83 
f 84//84 86//86 82//82 
f 79//79 87//87 84//84 
f 84//84 87//87 86//86 
f 88//88 87//87 85//85 
f 100//100 88//88 85//85 
f 89//89 23//23 82//82 
f 82//82 86//86 89//89 
f 90//90 86//86 87//87 
f 87//87 91//91 90//90 
f 87//87 88//88 91//91 
f 88//88 93//93 91//91 
f 86//86 90//90 89//89 
f 92//92 61//61 89//89 
f 92//92 89//89 90//90 
f 23//23 89//89 61//61 
f 61//61 129//129 130//130 
f 61//61 92//92 129//129 
f 90//90 131//131 92//92 
f 92//92 131//131 129//129 
f 91//91 132//132 90//90 
f 90//90 132//132 131//131 
f 91//91 143//143 132//132 
f 91//91 93//93 143//143 
f 93//93 172//172 143//143 
f 37//37 94//94 68//68 
f 37//37 39//39 94//94 
f 95//95 94//94 39//39 
f 77//77 94//94 99//99 
f 94//94 95//95 99//99 
f 96//96 99//99 95//95 
f 95//95 39//39 97//97 
f 95//95 97//97 98//98 
f 103//103 99//99 96//96 
f 99//99 103//103 81//81 
f 81//81 103//103 100//100 
f 98//98 96//96 95//95 
f 96//96 101//101 103//103 
f 98//98 101//101 96//96 
f 102//102 98//98 97//97 
f 98//98 102//102 101//101 
f 60//60 107//107 55//55 
f 100//100 103//103 106//106 
f 106//106 88//88 100//100 
f 88//88 106//106 93//93 
f 105//105 106//106 103//103 
f 103//103 101//101 105//105 
f 97//97 54//54 102//102 
f 54//54 55//55 102//102 
f 102//102 55//55 107//107 
f 64//64 107//107 60//60 
f 102//102 107//107 110//110 
f 102//102 110//110 101//101 
f 107//107 64//64 104//104 
f 101//101 110//110 105//105 
f 64//64 114//114 104//104 
f 107//107 104//104 108//108 
f 110//110 107//107 108//108 
f 106//106 109//109 93//93 
f 93//93 109//109 172//172 
f 105//105 109//109 106//106 
f 108//108 105//105 110//110 
f 105//105 108//108 171//171 
f 105//105 171//171 109//109 
f 177//177 171//171 108//108 
f 136//136 112//112 111//111 
f 112//112 149//149 113//113 
f 112//112 113//113 111//111 
f 167//167 128//128 113//113 
f 130//130 117//117 62//62 
f 63//63 117//117 115//115 
f 117//117 130//130 116//116 
f 65//65 63//63 119//119 
f 65//65 119//119 114//114 
f 115//115 119//119 63//63 
f 119//119 120//120 114//114 
f 116//116 118//118 117//117 
f 115//115 117//117 118//118 
f 137//137 121//121 116//116 
f 121//121 118//118 116//116 
f 115//115 118//118 122//122 
f 122//122 119//119 115//115 
f 118//118 121//121 123//123 
f 118//118 123//123 122//122 
f 124//124 123//123 121//121 
f 119//119 122//122 174//174 
f 119//119 174//174 120//120 
f 121//121 136//136 124//124 
f 123//123 124//124 125//125 
f 125//125 122//122 123//123 
f 124//124 136//136 126//126 
f 126//126 125//125 124//124 
f 125//125 126//126 127//127 
f 136//136 111//111 126//126 
f 127//127 126//126 111//111 
f 125//125 127//127 181//181 
f 181//181 127//127 186//186 
f 111//111 113//113 128//128 
f 127//127 111//111 128//128 
f 127//127 128//128 185//185 
f 196//196 128//128 167//167 
f 196//196 185//185 128//128 
f 129//129 134//134 130//130 
f 129//129 131//131 134//134 
f 132//132 139//139 131//131 
f 131//131 139//139 134//134 
f 132//132 135//135 139//139 
f 132//132 143//143 135//135 
f 134//134 133//133 130//130 
f 134//134 138//138 133//133 
f 138//138 134//134 139//139 
f 146//146 143//143 172//172 
f 142//142 136//136 137//137 
f 133//133 141//141 142//142 
f 142//142 137//137 133//133 
f 139//139 140//140 138//138 
f 139//139 135//135 140//140 
f 138//138 141//141 133//133 
f 138//138 140//140 141//141 
f 141//141 148//148 142//142 
f 141//141 150//150 148//148 
f 141//141 140//140 150//150 
f 140//140 159//159 150//150 
f 144//144 135//135 143//143 
f 143//143 146//146 144//144 
f 135//135 144//144 140//140 
f 147//147 159//159 140//140 
f 140//140 144//144 147//147 
f 155//155 147//147 144//144 
f 144//144 146//146 145//145 
f 145//145 155//155 144//144 
f 148//148 151//151 149//149 
f 148//148 112//112 142//142 
f 112//112 136//136 142//142 
f 148//148 149//149 112//112 
f 150//150 152//152 148//148 
f 152//152 150//150 159//159 
f 148//148 152//152 151//151 
f 149//149 167//167 113//113 
f 149//149 151//151 167//167 
f 154//154 167//167 151//151 
f 151//151 152//152 153//153 
f 154//154 151//151 153//153 
f 161//161 154//154 153//153 
f 154//154 189//189 197//197 
f 147//147 155//155 156//156 
f 156//156 159//159 147//147 
f 157//157 155//155 145//145 
f 165//165 156//156 155//155 
f 157//157 158//158 155//155 
f 158//158 165//165 155//155 
f 159//159 162//162 152//152 
f 152//152 162//162 153//153 
f 156//156 160//160 159//159 
f 159//159 160//160 162//162 
f 153//153 162//162 161//161 
f 166//166 162//162 160//160 
f 161//161 162//162 166//166 
f 154//154 161//161 189//189 
f 189//189 161//161 163//163 
f 163//163 194//194 189//189 
f 194//194 163//163 195//195 
f 163//163 161//161 166//166 
f 163//163 166//166 164//164 
f 163//163 164//164 195//195 
f 160//160 156//156 165//165 
f 165//165 166//166 160//160 
f 158//158 164//164 165//165 
f 165//165 164//164 166//166 
f 197//197 167//167 154//154 
f 104//104 114//114 168//168 
f 104//104 168//168 108//108 
f 108//108 168//168 169//169 
f 108//108 169//169 177//177 
f 114//114 120//120 168//168 
f 109//109 171//171 170//170 
f 109//109 170//170 172//172 
f 133//133 116//116 130//130 
f 133//133 137//137 116//116 
f 120//120 175//175 168//168 
f 168//168 175//175 169//169 
f 175//175 173//173 169//169 
f 177//177 169//169 173//173 
f 172//172 170//170 176//176 
f 171//171 177//177 170//170 
f 170//170 177//177 179//179 
f 172//172 176//176 146//146 
f 137//137 136//136 121//121 
f 120//120 174//174 175//175 
f 122//122 181//181 174//174 
f 181//181 175//175 174//174 
f 170//170 179//179 176//176 
f 178//178 179//179 177//177 
f 177//177 173//173 178//178 
f 125//125 181//181 122//122 
f 173//173 175//175 180//180 
f 175//175 181//181 182//182 
f 175//175 182//182 180//180 
f 173//173 180//180 178//178 
f 180//180 179//179 178//178 
f 176//176 193//193 146//146 
f 146//146 193//193 145//145 
f 176//176 179//179 193//193 
f 193//193 157//157 145//145 
f 182//182 181//181 186//186 
f 182//182 184//184 180//180 
f 184//184 183//183 179//179 
f 184//184 191//191 183//183 
f 179//179 180//180 184//184 
f 186//186 127//127 185//185 
f 186//186 199//199 182//182 
f 185//185 199//199 186//186 
f 188//188 187//187 194//194 
f 187//187 189//189 194//194 
f 192//192 187//187 188//188 
f 200//200 189//189 187//187 
f 187//187 192//192 200//200 
f 184//184 182//182 190//190 
f 191//191 184//184 190//190 
f 182//182 199//199 190//190 
f 192//192 188//188 191//191 
f 190//190 192//192 191//191 
f 183//183 193//193 179//179 
f 193//193 183//183 157//157 
f 183//183 191//191 188//188 
f 157//157 183//183 188//188 
f 188//188 195//195 157//157 
f 188//188 194//194 195//195 
f 157//157 195//195 158//158 
f 196//196 167//167 197//197 
f 197//197 198//198 196//196 
f 185//185 196//196 198//198 
f 198//198 197//197 200//200 
f 198//198 199//199 185//185 
f 199//199 198//198 200//200 
f 197//197 189//189 200//200 
f 192//192 199//199 200//200 
f 40//40 97//97 201//201 
f 97//97 39//39 201//201 
f 39//39 40//40 201//201 
f 190//190 199//199 202//202 
f 199//199 192//192 202//202 
f 192//192 190//190 202//202 
f 195//195 164//164 203//203 
f 164//164 158//158 203//203 
f 158//158 195//195 203//203 
