# PIPER geometrical reference model based on a manual segmentation. See the
# documentation for more info.
# Author: CEESAR, SOTON, UCBL-Ifsttar
# Version: 1.0.0
# License: Creative Commons Attribution 4.0 International License.
# (https://creativecommons.org/licenses/by/4.0/)
# 
# This work has received funding from the European Union Seventh Framework
# Program ([FP7/2007-2013]) under grant agreement 605544 [PIPER project]).
# Contributors include Pierre Maillez, Christophe Lecomte (SOTON), Erwan
# Jolivet (CEESAR), Philippe Beillas (UCBL-Ifsttar)
# This work is derived from a CT scan provided by CEESAR under a CCBY-4.0
# License
# 
# wavefront obj file written by the visualization toolkit

mtllib C:/desktop/registration_reference_model/22_REF_LTE635_Assembly_hands_corr/CCTu635_BP105_Pisiform_R.mtl

v 69.2774 271.497 -912.054
v 68.3805 268.433 -914.769
v 69.1057 268.41 -913.967
v 70.616 270.797 -911.982
v 72.592 269.41 -913.921
v 67.765 266.01 -919.469
v 69.0736 266.911 -915.265
v 67.2442 268.839 -917.284
v 70.0028 266.551 -915.577
v 70.28 268.068 -914.063
v 70.2829 266.086 -916.622
v 67.6021 270.932 -915.373
v 68.8806 266.01 -917.05
v 67.4494 266.527 -918.516
v 71.9215 266.279 -918.511
v 66.815 270.619 -917.49
v 73.0449 267.214 -916.82
v 72.4655 267.886 -915.398
v 75.3995 268.456 -915.863
v 75.6534 269.418 -914.92
v 75.1551 267.36 -917.705
v 75.6883 267.54 -918.544
v 77.0529 270.195 -915.186
v 77.04 269.292 -916.46
v 77.6814 270.639 -916.954
v 77.4858 269.857 -918.76
v 71.1452 272.257 -911.539
v 69.3986 273.131 -911.576
v 70.5572 273.773 -911.78
v 68.0443 273.753 -912.842
v 68.9227 274.524 -912.599
v 70.3335 274.802 -912.463
v 67.5244 273.013 -914.477
v 66.7801 272.78 -917.532
v 67.771 274.615 -913.278
v 67.3618 274.352 -915.549
v 68.4499 275.392 -914.881
v 68.7957 275.98 -916.585
v 70.4244 275.841 -914.98
v 67.1061 274.897 -917.325
v 67.3312 275.216 -918.936
v 70.9783 276.171 -916.85
v 69.4178 275.831 -919.206
v 72.8852 273.248 -912.221
v 73.9444 270.884 -913.24
v 75.3077 272.356 -913.268
v 76.5908 272.543 -914.575
v 72.3947 274.62 -912.865
v 75.257 273.987 -913.523
v 72.6574 275.648 -914.842
v 76.3761 270.888 -914.339
v 74.6816 275.193 -914.919
v 76.7081 273.404 -916.512
v 75.8281 274.308 -915.111
v 76.236 274.379 -918.726
v 75.3706 275.268 -918.372
v 77.5099 271.638 -916.002
v 77.3966 272.372 -921.459
v 73.5497 276.024 -916.972
v 72.3679 276.186 -918.821
v 74.2013 275.906 -918.877
v 69.1862 265.766 -919.92
v 65.9739 267.684 -920.271
v 65.7704 267.999 -921.255
v 66.5855 269.893 -923.214
v 72.5073 266.323 -920.949
v 71.0523 266.078 -921.308
v 66.8469 266.483 -921.246
v 66.8798 267.32 -922.497
v 70.441 268.507 -926.231
v 69.3736 267.317 -924.343
v 70.6706 266.536 -923.379
v 72.2223 266.625 -922.962
v 71.4856 267.789 -925.514
v 67.9209 268.89 -924.653
v 69.3722 269.881 -926.302
v 68.5783 270.875 -925.853
v 71.9562 270.184 -927.326
v 70.8795 270.566 -927.376
v 74.3304 266.854 -919.836
v 73.9592 267.063 -921.952
v 75.7485 267.947 -920.918
v 72.939 267.567 -924.165
v 76.8569 269.407 -921.201
v 76.8232 268.666 -919.128
v 77.2848 270.86 -921.421
v 74.1141 268.406 -924.151
v 73.2192 269.967 -926.594
v 73.3784 271.196 -926.752
v 65.7681 270.47 -920.005
v 66.1073 273.332 -920.343
v 65.889 270.734 -921.222
v 66.2469 272.638 -922.948
v 69.8369 275.392 -921.379
v 66.4196 274.317 -920.807
v 67.7295 273.572 -923.426
v 68.0426 274.844 -921.649
v 69.7787 274.669 -923.064
v 70.5063 273.419 -925.213
v 67.1837 271.549 -924.41
v 68.4289 272.239 -925.097
v 70.2567 271.807 -926.451
v 72.1913 275.306 -922.378
v 72.5899 276.007 -920.301
v 75.906 274.627 -920.751
v 76.4283 273.389 -922.466
v 75.1749 274.644 -922.481
v 75.4047 270.184 -924.276
v 74.3457 275.43 -921.771
v 71.6764 274.213 -924.302
v 75.0438 273.617 -924.124
v 77.0447 273.396 -920.359
v 76.6255 271.635 -923.049
v 74.3918 272.499 -925.595
v 73.6776 274.211 -924.27
v 75.6483 272.172 -924.611
v 72.2385 271.5 -927.193
v 77.3731 270.253 -919.979
vn -0.520339 -0.310358 0.795566
vn -0.79715 -0.351475 0.490935
vn -0.431481 -0.527305 0.731966
vn 0.0295117 -0.466623 0.883964
vn 0.284037 -0.633276 0.71992
vn -0.422757 -0.90377 0.0669059
vn -0.418259 -0.692544 0.587744
vn -0.888381 -0.222986 0.401318
vn 0.107921 -0.826453 0.552565
vn 0.115371 -0.662401 0.740212
vn 0.177811 -0.937554 0.298959
vn -0.908758 -0.190507 0.371303
vn -0.31855 -0.90121 0.293849
vn -0.729834 -0.597577 0.33203
vn 0.247357 -0.960868 0.124688
vn -0.924663 -0.100478 0.367292
vn 0.283287 -0.861313 0.421768
vn 0.304921 -0.744206 0.59429
vn 0.3862 -0.757935 0.525722
vn 0.378724 -0.629065 0.678856
vn 0.408306 -0.869708 0.277297
vn 0.587908 -0.807622 0.0459448
vn 0.745993 -0.37425 0.550846
vn 0.752844 -0.593229 0.28514
vn 0.986841 -0.128345 0.0983492
vn 0.952305 -0.300061 -0.0554811
vn 0.162982 -0.106759 0.980836
vn -0.356096 0.116763 0.927126
vn 0.0729531 0.419617 0.904765
vn -0.772343 0.0246082 0.634729
vn -0.32266 0.666509 0.672054
vn -0.0300517 0.760782 0.648311
vn -0.95052 -0.0863665 0.298418
vn -0.963587 0.0695174 0.258201
vn -0.71544 0.513897 0.473345
vn -0.916335 0.337275 0.215814
vn -0.440518 0.860587 0.255605
vn -0.31783 0.943937 0.0892563
vn -0.0530192 0.956083 0.288261
vn -0.831376 0.53207 0.160362
vn -0.585423 0.807865 -0.0680718
vn -0.0211953 0.997437 0.0683345
vn -0.198803 0.967465 -0.156492
vn 0.341031 0.237205 0.909633
vn 0.333256 -0.459531 0.823269
vn 0.531552 -0.0666945 0.844396
vn 0.82617 0.239798 0.509843
vn 0.242626 0.700133 0.671526
vn 0.564902 0.486846 0.666233
vn 0.144253 0.929527 0.339367
vn 0.590874 -0.255037 0.765391
vn 0.425631 0.843603 0.327372
vn 0.843926 0.518247 0.138595
vn 0.740152 0.623431 0.252008
vn 0.76263 0.645101 0.0473407
vn 0.601692 0.797964 0.0349398
vn 0.946662 0.17852 0.268257
vn 0.943002 0.211448 -0.256977
vn 0.241427 0.962871 0.120796
vn 0.0240314 0.997896 -0.0602216
vn 0.340721 0.939027 -0.0462267
vn -0.0336641 -0.996656 -0.0744494
vn -0.893307 -0.386446 0.229482
vn -0.940992 -0.274902 -0.197391
vn -0.862391 -0.126406 -0.490208
vn 0.257451 -0.962996 -0.0797407
vn 0.116511 -0.985063 -0.126794
vn -0.552534 -0.808652 -0.201963
vn -0.635811 -0.542594 -0.54894
vn -0.229272 -0.600783 -0.765829
vn -0.31534 -0.757677 -0.57139
vn -0.0156491 -0.92268 -0.385249
vn 0.271471 -0.905901 -0.325034
vn 0.164251 -0.764351 -0.62353
vn -0.653112 -0.368799 -0.661386
vn -0.541723 -0.195866 -0.817418
vn -0.598823 0.0834118 -0.796526
vn 0.188606 -0.298943 -0.935447
vn -0.299786 0.0213494 -0.953767
vn 0.399737 -0.915696 -0.0413672
vn 0.47304 -0.834011 -0.284004
vn 0.643688 -0.718642 -0.263096
vn 0.433224 -0.752381 -0.496225
vn 0.827139 -0.459157 -0.324061
vn 0.795281 -0.603524 -0.0573413
vn 0.932334 -0.19768 -0.302781
vn 0.587424 -0.632056 -0.505409
vn 0.538919 -0.41433 -0.733414
vn 0.551496 0.0716861 -0.831092
vn -0.985933 0.0183433 0.166132
vn -0.969322 0.233771 0.0759341
vn -0.983533 0.0454799 -0.174914
vn -0.841475 0.3068 -0.44474
vn -0.174994 0.937099 -0.302032
vn -0.769525 0.622828 -0.14113
vn -0.46875 0.666739 -0.579424
vn -0.355883 0.860858 -0.363691
vn -0.218293 0.850878 -0.477866
vn -0.199616 0.719977 -0.66467
vn -0.737873 0.148758 -0.658342
vn -0.505372 0.491097 -0.709523
vn -0.374364 0.46563 -0.801898
vn -0.0279569 0.915574 -0.401177
vn 0.0268063 0.979077 -0.201717
vn 0.653956 0.741106 -0.151998
vn 0.768566 0.501718 -0.396971
vn 0.532951 0.750894 -0.390029
vn 0.744117 -0.365132 -0.559435
vn 0.309503 0.901641 -0.302078
vn -0.0456927 0.822078 -0.567538
vn 0.537442 0.622501 -0.568901
vn 0.85766 0.510032 -0.0654809
vn 0.867164 -0.0389993 -0.496494
vn 0.480526 0.457324 -0.748298
vn 0.191389 0.782665 -0.592288
vn 0.763205 0.150594 -0.628363
vn 0.130137 0.401568 -0.906536
vn 0.934417 -0.304182 -0.185307

g grp1
usemtl mtl1
f 3//3 2//2 7//7 
f 3//3 7//7 10//10 
f 3//3 1//1 2//2 
f 3//3 4//4 1//1 
f 3//3 10//10 4//4 
f 10//10 5//5 4//4 
f 5//5 10//10 18//18 
f 13//13 6//6 62//62 
f 11//11 13//13 62//62 
f 11//11 62//62 15//15 
f 16//16 63//63 8//8 
f 34//34 90//90 16//16 
f 14//14 13//13 7//7 
f 2//2 8//8 14//14 
f 2//2 14//14 7//7 
f 10//10 7//7 9//9 
f 10//10 9//9 18//18 
f 7//7 13//13 9//9 
f 9//9 13//13 11//11 
f 11//11 18//18 9//9 
f 2//2 12//12 8//8 
f 16//16 8//8 12//12 
f 13//13 14//14 6//6 
f 63//63 14//14 8//8 
f 45//45 4//4 5//5 
f 5//5 18//18 20//20 
f 5//5 20//20 45//45 
f 20//20 51//51 45//45 
f 18//18 11//11 17//17 
f 17//17 19//19 18//18 
f 17//17 21//21 19//19 
f 19//19 21//21 24//24 
f 19//19 20//20 18//18 
f 19//19 24//24 20//20 
f 24//24 23//23 20//20 
f 20//20 23//23 51//51 
f 11//11 15//15 17//17 
f 17//17 15//15 21//21 
f 21//21 15//15 80//80 
f 22//22 24//24 21//21 
f 24//24 22//22 85//85 
f 80//80 22//22 21//21 
f 22//22 80//80 82//82 
f 82//82 85//85 22//22 
f 23//23 24//24 25//25 
f 25//25 24//24 26//26 
f 24//24 85//85 26//26 
f 30//30 1//1 28//28 
f 27//27 28//28 4//4 
f 1//1 4//4 28//28 
f 27//27 29//29 28//28 
f 28//28 31//31 30//30 
f 28//28 29//29 31//31 
f 2//2 30//30 12//12 
f 30//30 2//2 1//1 
f 33//33 12//12 30//30 
f 35//35 30//30 31//31 
f 35//35 33//33 30//30 
f 31//31 37//37 35//35 
f 31//31 32//32 37//37 
f 29//29 32//32 31//31 
f 29//29 48//48 32//32 
f 39//39 37//37 32//32 
f 50//50 32//32 48//48 
f 50//50 39//39 32//32 
f 91//91 90//90 34//34 
f 40//40 91//91 34//34 
f 41//41 91//91 40//40 
f 16//16 12//12 33//33 
f 34//34 16//16 33//33 
f 33//33 36//36 34//34 
f 35//35 36//36 33//33 
f 35//35 37//37 36//36 
f 36//36 37//37 40//40 
f 37//37 38//38 40//40 
f 37//37 39//39 38//38 
f 42//42 38//38 39//39 
f 36//36 40//40 34//34 
f 38//38 41//41 40//40 
f 38//38 43//43 41//41 
f 42//42 43//43 38//38 
f 59//59 60//60 42//42 
f 42//42 60//60 43//43 
f 29//29 27//27 44//44 
f 29//29 44//44 48//48 
f 27//27 4//4 45//45 
f 45//45 46//46 27//27 
f 46//46 44//44 27//27 
f 51//51 46//46 45//45 
f 51//51 47//47 46//46 
f 46//46 47//47 49//49 
f 49//49 48//48 44//44 
f 52//52 48//48 49//49 
f 48//48 52//52 50//50 
f 46//46 49//49 44//44 
f 49//49 47//47 54//54 
f 47//47 53//53 54//54 
f 39//39 50//50 42//42 
f 52//52 49//49 54//54 
f 54//54 53//53 56//56 
f 56//56 53//53 55//55 
f 52//52 54//54 56//56 
f 56//56 59//59 52//52 
f 59//59 56//56 61//61 
f 53//53 112//112 55//55 
f 51//51 23//23 47//47 
f 47//47 23//23 57//57 
f 47//47 57//57 53//53 
f 25//25 57//57 23//23 
f 57//57 25//25 58//58 
f 57//57 58//58 112//112 
f 53//53 57//57 112//112 
f 25//25 26//26 58//58 
f 50//50 59//59 42//42 
f 50//50 52//52 59//59 
f 60//60 104//104 43//43 
f 61//61 60//60 59//59 
f 68//68 62//62 6//6 
f 62//62 67//67 15//15 
f 14//14 63//63 68//68 
f 63//63 64//64 68//68 
f 68//68 64//64 69//69 
f 16//16 90//90 63//63 
f 92//92 64//64 90//90 
f 63//63 90//90 64//64 
f 92//92 65//65 64//64 
f 65//65 69//69 64//64 
f 92//92 93//93 65//65 
f 68//68 6//6 14//14 
f 62//62 68//68 72//72 
f 67//67 66//66 15//15 
f 62//62 72//72 67//67 
f 71//71 68//68 69//69 
f 72//72 68//68 71//71 
f 75//75 69//69 65//65 
f 75//75 71//71 69//69 
f 70//70 71//71 75//75 
f 67//67 72//72 73//73 
f 71//71 74//74 72//72 
f 73//73 72//72 74//74 
f 65//65 100//100 75//75 
f 70//70 74//74 71//71 
f 75//75 76//76 70//70 
f 75//75 100//100 77//77 
f 77//77 76//76 75//75 
f 74//74 70//70 78//78 
f 70//70 76//76 79//79 
f 70//70 79//79 78//78 
f 79//79 117//117 78//78 
f 15//15 66//66 80//80 
f 66//66 81//81 80//80 
f 81//81 82//82 80//80 
f 85//85 82//82 84//84 
f 66//66 67//67 73//73 
f 66//66 73//73 81//81 
f 81//81 73//73 83//83 
f 73//73 74//74 83//83 
f 83//83 87//87 81//81 
f 82//82 81//81 87//87 
f 87//87 84//84 82//82 
f 113//113 84//84 108//108 
f 108//108 84//84 87//87 
f 26//26 85//85 84//84 
f 86//86 84//84 113//113 
f 74//74 87//87 83//83 
f 87//87 74//74 88//88 
f 78//78 88//88 74//74 
f 88//88 108//108 87//87 
f 117//117 89//89 78//78 
f 88//88 78//78 89//89 
f 92//92 91//91 93//93 
f 90//90 91//91 92//92 
f 91//91 41//41 95//95 
f 93//93 91//91 95//95 
f 93//93 100//100 65//65 
f 43//43 97//97 41//41 
f 43//43 94//94 97//97 
f 41//41 97//97 95//95 
f 43//43 104//104 94//94 
f 104//104 103//103 94//94 
f 101//101 100//100 96//96 
f 96//96 100//100 93//93 
f 96//96 93//93 95//95 
f 95//95 97//97 96//96 
f 97//97 98//98 96//96 
f 94//94 98//98 97//97 
f 99//99 96//96 98//98 
f 94//94 103//103 98//98 
f 103//103 110//110 98//98 
f 110//110 99//99 98//98 
f 77//77 100//100 101//101 
f 101//101 96//96 99//99 
f 102//102 77//77 101//101 
f 101//101 99//99 102//102 
f 77//77 102//102 76//76 
f 99//99 117//117 102//102 
f 76//76 102//102 79//79 
f 79//79 102//102 117//117 
f 61//61 109//109 104//104 
f 112//112 105//105 55//55 
f 55//55 105//105 56//56 
f 56//56 105//105 109//109 
f 61//61 56//56 109//109 
f 105//105 106//106 107//107 
f 112//112 106//106 105//105 
f 109//109 105//105 107//107 
f 116//116 113//113 108//108 
f 106//106 113//113 116//116 
f 116//116 111//111 106//106 
f 109//109 115//115 103//103 
f 103//103 104//104 109//109 
f 115//115 110//110 103//103 
f 109//109 107//107 115//115 
f 111//111 115//115 107//107 
f 107//107 106//106 111//111 
f 58//58 26//26 86//86 
f 106//106 112//112 58//58 
f 113//113 58//58 86//86 
f 58//58 113//113 106//106 
f 104//104 60//60 61//61 
f 114//114 115//115 111//111 
f 114//114 89//89 117//117 
f 115//115 117//117 99//99 
f 114//114 117//117 115//115 
f 108//108 88//88 116//116 
f 114//114 111//111 116//116 
f 116//116 88//88 89//89 
f 89//89 114//114 116//116 
f 115//115 99//99 110//110 
f 84//84 86//86 118//118 
f 86//86 26//26 118//118 
f 26//26 84//84 118//118 
