# PIPER geometrical reference model based on a manual segmentation. See the
# documentation for more info.
# Author: CEESAR, SOTON, UCBL-Ifsttar
# Version: 1.0.0
# License: Creative Commons Attribution 4.0 International License.
# (https://creativecommons.org/licenses/by/4.0/)
# 
# This work has received funding from the European Union Seventh Framework
# Program ([FP7/2007-2013]) under grant agreement 605544 [PIPER project]).
# Contributors include Pierre Maillez, Christophe Lecomte (SOTON), Erwan
# Jolivet (CEESAR), Philippe Beillas (UCBL-Ifsttar)
# This work is derived from a CT scan provided by CEESAR under a CCBY-4.0
# License
# 
# wavefront obj file written by the visualization toolkit

mtllib C:/desktop/registration_reference_model/22_REF_LTE635_Assembly_hands_corr/CCTu635_BPXXX_Toe2_L.mtl

v -109.867 231.626 -1743.86
v -111.16 233.84 -1738.68
v -110.852 239.726 -1741
v -112.136 232.058 -1743.87
v -112.767 233.895 -1743.58
v -110.751 238.961 -1745.05
v -109.349 238.785 -1737.24
v -108.758 244.454 -1737.46
v -114.335 252.822 -1738.23
v -112.295 253.891 -1736.05
v -110.903 245.456 -1740.96
v -110.675 242.322 -1742.56
v -110.21 248.125 -1743.14
v -109.019 242.999 -1744.73
v -110.359 244.826 -1738.94
v -113.507 251.373 -1741.08
v -107.992 248.533 -1743.06
v -112.488 252.072 -1742.82
v -105.138 233.932 -1736.86
v -102.915 235.196 -1737.12
v -106.483 235.035 -1735.4
v -109.489 232.85 -1738.37
v -99.725 236.477 -1743.41
v -100.834 233.272 -1740.74
v -100.239 234.902 -1739.93
v -99.374 234.14 -1743.52
v -101.954 234.345 -1746.31
v -106.69 254.222 -1736.65
v -103.492 241.734 -1740.58
v -105.761 242.186 -1738.14
v -104.298 242.102 -1743.71
v -107.29 248.542 -1737.7
v -105.627 248.154 -1740.6
v -105.714 246.659 -1742.12
v -105.756 253.553 -1739.78
v -107.163 252.774 -1742.64
v -109.613 253.694 -1735.64
v -109.126 256.504 -1735.76
v -110.73 259.925 -1737.76
v -115.886 256.792 -1742.5
v -110.71 253.45 -1743.98
v -114.586 256.115 -1737.17
v -113.515 263.833 -1742.53
v -110.901 264.749 -1741.86
v -113.277 268.726 -1744.48
v -108.668 268.148 -1743.56
v -106.011 256.683 -1736.72
v -104.838 257.577 -1741.52
v -108.316 263.113 -1740.99
v -106.771 261.7 -1743.98
v -108.806 262.592 -1746.39
v -106.472 264.287 -1744.68
v -111.142 233.129 -1746.43
v -107.638 232.897 -1746.68
v -108.821 235.57 -1747.33
v -105.968 239.934 -1745.69
v -100.726 236.948 -1746.2
v -115.045 255.914 -1744.15
v -113.606 258.254 -1746.11
v -106.282 257.622 -1745.06
v -115.217 260.811 -1745.74
v -114.682 266.607 -1751.1
v -112.494 263.488 -1747.46
v -115.091 265.199 -1745.35
v -114.346 264.834 -1747.66
v -110.267 265.098 -1748.9
v -116.967 270.609 -1750.46
v -115.623 272.841 -1749.66
v -115.948 273.75 -1751.96
v -112.737 275.031 -1750.46
v -109.843 271.706 -1746.62
v -109.032 269.379 -1752.84
v -112.996 271.462 -1754.58
v -116.12 270.419 -1753.15
v -108.941 273.38 -1753.53
v -113.527 274.69 -1754.31
v -105.967 266.975 -1744.71
v -107.046 271.963 -1748.92
v -105.75 267.694 -1748.54
v -106.999 267.887 -1750.7
v -109.777 274.526 -1751.08
v -106.412 271.346 -1751.88
v -106.569 234.647 -1735.92
v -111.388 260.848 -1738.88
v -111.632 269.901 -1745.3
v -106.12 255.478 -1737.31
v -114.721 255.662 -1738.06
v -107.754 267.72 -1743.93
v -113.886 266.521 -1744.3
v -106.605 270.511 -1748.79
v -115.937 267.874 -1748.28
vn -0.0253546 -0.993551 -0.110512
vn -0.77252 -0.301401 0.558901
vn -0.978919 0.108319 0.173163
vn -0.663448 -0.740094 -0.109986
vn -0.996006 -0.026911 -0.0851358
vn -0.793379 0.28685 -0.536906
vn -0.70224 0.0711951 0.708372
vn -0.215456 -0.029062 0.976081
vn -0.854532 -0.355277 0.378883
vn -0.392775 -0.111211 0.912885
vn -0.978862 -0.177716 -0.10122
vn -0.950886 0.0927272 -0.295327
vn -0.442992 -0.0959758 -0.891374
vn -0.401281 0.27423 -0.87394
vn -0.859334 -0.199561 0.470871
vn -0.850901 -0.435658 -0.293545
vn 0.259213 0.109761 -0.959563
vn -0.522493 -0.415555 -0.744524
vn 0.236361 -0.780004 0.57942
vn 0.600082 -0.127065 0.789782
vn -0.00112377 -0.246961 0.969025
vn -0.234527 -0.824506 0.514964
vn 0.930869 0.365007 -0.01589
vn 0.507516 -0.827926 0.238676
vn 0.852552 -0.0575004 0.519469
vn 0.837084 -0.51391 -0.18758
vn 0.358779 -0.559569 -0.747102
vn 0.663265 -0.151622 0.732864
vn 0.854811 0.440795 0.273857
vn 0.580413 0.265319 0.769887
vn 0.678575 0.505876 -0.532565
vn 0.66181 -0.0831724 0.745044
vn 0.98551 0.149956 0.0792717
vn 0.795318 0.320126 -0.514771
vn 0.991857 -0.127017 -0.00931409
vn 0.654742 -0.149317 -0.740957
vn 0.08233 -0.0931856 0.992239
vn 0.0674233 0.276077 0.958768
vn -0.110942 0.573538 0.811632
vn -0.991758 -0.12226 -0.038313
vn 0.0483736 -0.271229 -0.961298
vn -0.721853 0.136015 0.678549
vn -0.54149 0.472595 0.6953
vn -0.164026 0.51693 0.840166
vn -0.452867 0.482853 0.74951
vn 0.234778 0.571712 0.786145
vn 0.703029 0.202202 0.681809
vn 0.994651 0.092107 -0.0467487
vn 0.526409 0.506735 0.682725
vn 0.961864 0.197717 -0.18901
vn 0.440418 -0.368502 -0.818681
vn 0.953181 -0.301309 -0.0256739
vn -0.525472 -0.389849 -0.756239
vn 0.112538 -0.684966 -0.719831
vn -0.182985 0.0818573 -0.979702
vn 0.154513 0.383979 -0.910322
vn 0.633313 0.267495 -0.726197
vn -0.699437 -0.415977 -0.581164
vn -0.232949 -0.331974 -0.914072
vn 0.63109 -0.182659 -0.753897
vn -0.853345 -0.114731 -0.508565
vn -0.441498 -0.703908 -0.556411
vn -0.0340158 -0.400427 -0.915697
vn -0.967455 0.1098 0.227979
vn -0.644784 -0.524211 -0.556289
vn 0.151182 -0.697846 -0.700111
vn -0.995755 0.0032154 0.0919836
vn -0.641125 0.564199 0.520228
vn -0.77676 0.617352 -0.124585
vn -0.10762 0.939616 0.324869
vn 0.152784 0.728987 0.667259
vn 0.303396 -0.450349 -0.839724
vn -0.0510967 -0.213109 -0.975691
vn -0.710358 -0.226374 -0.666443
vn 0.546562 0.468255 -0.694267
vn -0.205651 0.682303 -0.701549
vn 0.87621 0.222703 0.427387
vn 0.704188 0.641776 0.303716
vn 0.942262 -0.234409 -0.239154
vn 0.554998 -0.582408 -0.593952
vn 0.417313 0.903621 0.0965351
vn 0.855725 0.232158 -0.462426
vn -0.00802316 -0.801849 0.597473
vn -0.413108 0.571791 0.7088
vn -0.0736475 0.636325 0.767897
vn 0.914316 -0.242423 0.324435
vn -0.965521 -0.143473 0.217222
vn 0.504825 0.424131 0.75184
vn -0.781862 0.263359 0.565096
vn 0.946242 0.298393 0.124854
vn -0.866838 -0.466569 -0.175798

g grp1
usemtl mtl1
f 21//21 2//2 22//22 
f 2//2 21//21 7//7 
f 3//3 2//2 7//7 
f 22//22 4//4 1//1 
f 53//53 1//1 4//4 
f 4//4 22//22 2//2 
f 2//2 3//3 5//5 
f 5//5 4//4 2//2 
f 6//6 5//5 3//3 
f 15//15 8//8 10//10 
f 10//10 9//9 15//15 
f 37//37 10//10 8//8 
f 8//8 32//32 37//37 
f 7//7 15//15 3//3 
f 11//11 3//3 15//15 
f 15//15 7//7 8//8 
f 3//3 11//11 12//12 
f 6//6 3//3 12//12 
f 14//14 6//6 12//12 
f 11//11 13//13 12//12 
f 14//14 12//12 13//13 
f 13//13 17//17 14//14 
f 9//9 11//11 15//15 
f 16//16 11//11 9//9 
f 9//9 40//40 16//16 
f 18//18 11//11 16//16 
f 13//13 11//11 18//18 
f 13//13 18//18 41//41 
f 13//13 41//41 17//17 
f 17//17 41//41 36//36 
f 20//20 21//21 19//19 
f 22//22 24//24 19//19 
f 24//24 20//20 19//19 
f 21//21 20//20 30//30 
f 1//1 24//24 22//22 
f 20//20 24//24 25//25 
f 25//25 29//29 20//20 
f 23//23 29//29 25//25 
f 27//27 1//1 54//54 
f 27//27 24//24 1//1 
f 24//24 26//26 25//25 
f 26//26 23//23 25//25 
f 24//24 27//27 26//26 
f 23//23 26//26 57//57 
f 23//23 57//57 31//31 
f 8//8 7//7 21//21 
f 8//8 21//21 30//30 
f 20//20 29//29 30//30 
f 8//8 30//30 32//32 
f 30//30 33//33 32//32 
f 30//30 29//29 33//33 
f 29//29 34//34 33//33 
f 23//23 31//31 29//29 
f 29//29 31//31 34//34 
f 17//17 31//31 56//56 
f 56//56 14//14 17//17 
f 31//31 17//17 34//34 
f 33//33 28//28 32//32 
f 33//33 35//35 28//28 
f 33//33 34//34 36//36 
f 33//33 36//36 35//35 
f 17//17 36//36 34//34 
f 42//42 9//9 10//10 
f 10//10 37//37 38//38 
f 10//10 38//38 42//42 
f 42//42 38//38 39//39 
f 47//47 39//39 38//38 
f 49//49 39//39 47//47 
f 40//40 61//61 58//58 
f 58//58 16//16 40//40 
f 58//58 18//18 16//16 
f 18//18 58//58 59//59 
f 18//18 59//59 41//41 
f 36//36 41//41 59//59 
f 59//59 60//60 36//36 
f 42//42 64//64 40//40 
f 40//40 64//64 61//61 
f 44//44 39//39 49//49 
f 42//42 43//43 64//64 
f 45//45 43//43 44//44 
f 44//44 46//46 45//45 
f 46//46 44//44 49//49 
f 32//32 28//28 37//37 
f 47//47 38//38 28//28 
f 37//37 28//28 38//38 
f 47//47 35//35 48//48 
f 36//36 48//48 35//35 
f 48//48 49//49 47//47 
f 49//49 48//48 50//50 
f 60//60 48//48 36//36 
f 60//60 50//50 48//48 
f 50//50 52//52 49//49 
f 50//50 51//51 52//52 
f 77//77 49//49 52//52 
f 78//78 46//46 77//77 
f 53//53 54//54 1//1 
f 5//5 53//53 4//4 
f 53//53 5//5 6//6 
f 6//6 55//55 53//53 
f 55//55 54//54 53//53 
f 6//6 14//14 55//55 
f 27//27 54//54 55//55 
f 27//27 55//55 57//57 
f 55//55 14//14 56//56 
f 56//56 57//57 55//55 
f 31//31 57//57 56//56 
f 27//27 57//57 26//26 
f 59//59 58//58 61//61 
f 65//65 59//59 61//61 
f 51//51 60//60 59//59 
f 64//64 62//62 65//65 
f 59//59 65//65 63//63 
f 63//63 51//51 59//59 
f 61//61 64//64 65//65 
f 51//51 63//63 66//66 
f 63//63 65//65 66//66 
f 65//65 62//62 66//66 
f 66//66 62//62 72//72 
f 80//80 66//66 72//72 
f 45//45 67//67 64//64 
f 45//45 68//68 67//67 
f 62//62 67//67 74//74 
f 70//70 69//69 68//68 
f 67//67 68//68 69//69 
f 46//46 78//78 71//71 
f 68//68 45//45 70//70 
f 45//45 71//71 70//70 
f 81//81 71//71 78//78 
f 71//71 81//81 70//70 
f 62//62 74//74 73//73 
f 67//67 69//69 74//74 
f 76//76 74//74 69//69 
f 74//74 76//76 73//73 
f 62//62 73//73 72//72 
f 82//82 72//72 75//75 
f 78//78 82//82 75//75 
f 75//75 72//72 73//73 
f 73//73 76//76 75//75 
f 70//70 76//76 69//69 
f 70//70 81//81 76//76 
f 81//81 75//75 76//76 
f 78//78 75//75 81//81 
f 51//51 50//50 60//60 
f 52//52 51//51 79//79 
f 66//66 79//79 51//51 
f 77//77 52//52 79//79 
f 79//79 66//66 80//80 
f 80//80 82//82 79//79 
f 82//82 80//80 72//72 
f 22//22 19//19 83//83 
f 19//19 21//21 83//83 
f 21//21 22//22 83//83 
f 43//43 84//84 44//44 
f 84//84 39//39 44//44 
f 39//39 84//84 42//42 
f 84//84 43//43 42//42 
f 71//71 45//45 85//85 
f 45//45 46//46 85//85 
f 46//46 71//71 85//85 
f 28//28 35//35 86//86 
f 35//35 47//47 86//86 
f 47//47 28//28 86//86 
f 40//40 9//9 87//87 
f 9//9 42//42 87//87 
f 42//42 40//40 87//87 
f 49//49 77//77 88//88 
f 77//77 46//46 88//88 
f 46//46 49//49 88//88 
f 43//43 45//45 89//89 
f 45//45 64//64 89//89 
f 64//64 43//43 89//89 
f 78//78 90//90 82//82 
f 90//90 79//79 82//82 
f 79//79 90//90 77//77 
f 90//90 78//78 77//77 
f 64//64 67//67 91//91 
f 67//67 62//62 91//91 
f 62//62 64//64 91//91 
