# PIPER geometrical reference model based on a manual segmentation. See the
# documentation for more info.
# Author: CEESAR, SOTON, UCBL-Ifsttar
# Version: 1.0.0
# License: Creative Commons Attribution 4.0 International License.
# (https://creativecommons.org/licenses/by/4.0/)
# 
# This work has received funding from the European Union Seventh Framework
# Program ([FP7/2007-2013]) under grant agreement 605544 [PIPER project]).
# Contributors include Pierre Maillez, Christophe Lecomte (SOTON), Erwan
# Jolivet (CEESAR), Philippe Beillas (UCBL-Ifsttar)
# This work is derived from a CT scan provided by CEESAR under a CCBY-4.0
# License
# 
# wavefront obj file written by the visualization toolkit

mtllib C:/desktop/registration_reference_model/22_REF_LTE635_Assembly_hands_corr/CCTu635_BP176_Metatarsal1_L.mtl

v -88.793 182.162 -1703.49
v -85.188 184.013 -1702.19
v -86.103 186.59 -1703.64
v -91.383 177.645 -1714.74
v -92.268 176.684 -1717.5
v -89.764 175.999 -1714.23
v -90.24 168.939 -1721.75
v -91.808 173.774 -1721.88
v -90.227 172.998 -1725.7
v -90.854 180.985 -1706.29
v -91.543 180.597 -1712.57
v -86.542 192.067 -1708.3
v -87.878 191.609 -1711.07
v -87.038 196.858 -1713.98
v -84.667 197.451 -1712.67
v -89.842 186.184 -1706.17
v -91.656 181.514 -1722.73
v -88.745 180.675 -1726.31
v -87.852 187.938 -1724.51
v -88.533 190.224 -1720.55
v -87.491 194.797 -1723.49
v -87.085 200.741 -1724.49
v -80.196 182.55 -1703.47
v -88.923 180.625 -1706.18
v -84.497 175.567 -1714.08
v -79.193 175.987 -1714.77
v -76.858 179.818 -1706.87
v -74.899 179.216 -1711.59
v -87.656 168.491 -1723.25
v -82.006 172.036 -1720.69
v -77.706 173.299 -1720.62
v -78.555 178.283 -1723.45
v -75.175 175.3 -1720.98
v -77.386 181.875 -1705.88
v -82.027 189.797 -1707.63
v -80.473 198.359 -1715.57
v -80.778 191.118 -1723.79
v -76.307 187.976 -1720.01
v -73.122 180.747 -1716.2
v -73.611 181.889 -1718.52
v -76.08 190.347 -1717.6
v -78.603 191.594 -1713.21
v -77.05 197.59 -1719.36
v -77.156 194.973 -1721.77
v -86.192 200.451 -1714.9
v -87.104 204.746 -1721.17
v -86.83 202.314 -1726.77
v -84.392 212.318 -1721.48
v -86.282 207.545 -1719.68
v -86.936 213.526 -1723.23
v -83.617 220.179 -1724.6
v -76.874 203.379 -1725.66
v -82.042 207.073 -1719.09
v -78.451 206.652 -1721.44
v -79.159 215.207 -1724.38
v -85.704 169.304 -1725.65
v -84.86 174.343 -1727.3
v -83.895 183.926 -1725.28
v -85.549 188.099 -1725.52
v -84.73 193.544 -1726.31
v -80.963 172.599 -1725.32
v -84.645 204.277 -1729.49
v -86.267 208.962 -1733.07
v -87.853 209.707 -1725.17
v -89.176 210.818 -1731.68
v -89.86 213.851 -1730.02
v -94.04 214.092 -1738.36
v -94.887 212.89 -1742.16
v -95.495 215.847 -1741.23
v -90.529 211.786 -1736.34
v -86.047 217.631 -1723.94
v -88.521 226.841 -1727.77
v -89.244 224.501 -1726.44
v -81.415 226.174 -1724.81
v -91.689 225.038 -1730.42
v -90.548 226.634 -1731.98
v -84.882 229.923 -1731.39
v -93.81 218.896 -1742.91
v -91.294 221.111 -1731.68
v -92.647 220.213 -1738.45
v -89.475 225.742 -1736.09
v -83.161 227.787 -1737.24
v -88.606 222.983 -1739.77
v -84.614 219.9 -1742.65
v -90.778 211.659 -1744.17
v -95.064 214.76 -1744.49
v -88.344 212.171 -1744.37
v -84.219 216.49 -1744.44
v -89.418 215.742 -1746.02
v -91.159 220.521 -1744.92
v -79.996 202.866 -1728.07
v -80.874 207.161 -1731.04
v -76.475 206.487 -1724.02
v -74.879 210.076 -1728.24
v -74.164 214.894 -1727.68
v -77.763 210.745 -1734.35
v -75.698 208.953 -1730.19
v -73.381 213.166 -1730.66
v -72.243 219.459 -1728.07
v -83.463 212.59 -1738.45
v -77.043 212.419 -1739.02
v -74.352 214.721 -1738.59
v -77.829 212.864 -1745.21
v -77.525 220.234 -1726.29
v -74.555 225.493 -1728.18
v -75.003 225.163 -1736.08
v -72.104 219.105 -1732.62
v -72.492 225.427 -1731.1
v -80.751 229.058 -1727.86
v -80.637 229.46 -1732.62
v -80.149 223.477 -1739.96
v -81.1 220.582 -1743.44
v -76.95 219.228 -1744.77
v -75.259 219.127 -1741.33
v -72.913 221.282 -1736.81
v -80.934 211.253 -1744.23
v -82.911 213.779 -1745.45
v -80.23 217.642 -1746.85
v -84.471 225.784 -1725.63
vn -0.464296 -0.341453 0.817214
vn 0.00579325 0.0416965 0.999114
vn -0.147101 0.530518 0.834813
vn -0.79568 -0.464533 0.388718
vn -0.96052 -0.193401 0.199995
vn -0.446594 -0.70645 0.549073
vn -0.522168 -0.845881 0.108744
vn -0.971528 -0.178958 -0.155266
vn -0.648583 -0.239461 -0.722495
vn -0.782914 -0.437865 0.44195
vn -0.993824 0.0672176 0.088298
vn -0.473832 0.613394 0.631847
vn -0.916754 0.359394 0.174351
vn -0.953471 0.224939 0.200737
vn 0.20356 0.581594 0.787599
vn -0.821539 0.379316 0.425668
vn -0.923167 0.201252 -0.327506
vn -0.401906 0.157581 -0.90202
vn -0.708784 0.22814 -0.667516
vn -0.9629 0.250794 -0.0996286
vn -0.941524 0.0419401 -0.334325
vn -0.997512 0.0174063 -0.0683136
vn 0.401153 -0.127062 0.907156
vn -0.135586 -0.867452 0.47869
vn 0.0426108 -0.84397 0.534696
vn 0.222913 -0.869803 0.440174
vn 0.599385 -0.548839 0.582678
vn 0.805626 -0.457881 0.375914
vn -0.0617148 -0.996975 -0.0472414
vn 0.218198 -0.809098 0.545664
vn 0.491646 -0.861851 0.124487
vn 0.557374 0.107961 -0.823213
vn 0.83498 -0.435802 -0.335983
vn 0.772165 0.149529 0.617578
vn 0.472298 0.548369 0.690091
vn 0.598336 0.410779 0.687935
vn 0.527235 -0.17549 -0.8314
vn 0.791686 0.120524 -0.598922
vn 0.993252 -0.0486518 0.105282
vn 0.90155 0.1282 -0.413245
vn 0.965002 0.239368 0.107121
vn 0.778806 0.384889 0.4953
vn 0.934818 0.168535 0.312587
vn 0.893069 -0.107665 -0.436848
vn -0.563484 0.447186 0.694629
vn -0.98699 0.0615424 0.148536
vn -0.876371 -0.211218 -0.432853
vn -0.0733057 0.441937 0.894046
vn -0.773809 0.3235 0.54458
vn -0.736878 0.157927 0.65732
vn 0.0548518 0.212808 0.975553
vn 0.872599 -0.323264 -0.366156
vn 0.385975 0.435277 0.813362
vn 0.678185 0.300732 0.670542
vn 0.436972 0.271718 0.857453
vn 0.104968 -0.782483 -0.613761
vn 0.117969 -0.0746796 -0.990205
vn 0.340945 0.089846 -0.93578
vn -0.0161664 0.0201975 -0.999665
vn -0.171227 -0.201743 -0.964355
vn 0.572149 -0.423539 -0.702325
vn -0.191129 -0.499414 -0.845018
vn -0.253037 -0.750871 -0.610054
vn -0.969606 -0.0484804 0.239819
vn -0.824596 -0.564424 0.038316
vn -0.915203 -0.183936 0.358568
vn -0.871247 -0.303419 0.385831
vn -0.739277 -0.670596 -0.0614068
vn -0.980123 0.134814 0.145551
vn -0.324018 -0.942677 -0.0798301
vn -0.208745 0.294107 0.932699
vn -0.468711 0.705863 0.531101
vn -0.622073 0.245605 0.74344
vn 0.0969829 0.400366 0.911209
vn -0.967031 0.234341 0.0996765
vn -0.737085 0.671728 -0.0740719
vn -0.23008 0.97308 0.0133626
vn -0.772567 0.586006 -0.244412
vn -0.958188 0.000343175 0.286139
vn -0.863839 0.503702 0.00820708
vn -0.542868 0.710534 -0.4477
vn -0.016028 0.785785 -0.618292
vn -0.288559 0.755047 -0.58876
vn -0.00936539 0.607661 -0.794141
vn -0.1047 -0.853525 -0.510425
vn -0.744232 -0.140931 -0.652884
vn 0.166903 -0.787269 -0.593592
vn -0.190485 0.299854 -0.934774
vn 0.0654291 -0.0390871 -0.997091
vn -0.232276 0.663447 -0.711257
vn 0.388459 -0.441408 -0.808862
vn 0.174121 -0.626132 -0.760027
vn 0.916342 0.043562 0.398019
vn 0.951802 -0.297725 0.0737041
vn 0.751365 -0.0926394 0.653351
vn 0.223252 -0.838574 -0.496943
vn 0.698708 -0.595195 -0.396926
vn 0.939288 -0.340931 0.038784
vn 0.808309 -0.0114324 0.588647
vn -0.0191969 -0.983618 -0.17924
vn 0.413253 -0.899965 -0.138874
vn 0.860268 -0.404216 -0.310722
vn 0.526815 -0.537874 -0.658147
vn 0.367648 0.0958882 0.925008
vn 0.564856 0.496068 0.659434
vn 0.535873 0.674032 -0.50845
vn 0.99169 -0.0874636 -0.0943497
vn 0.823311 0.564445 0.059669
vn 0.169549 0.876266 0.45101
vn 0.263257 0.9466 -0.18613
vn 0.17726 0.650948 -0.738137
vn -0.0911609 0.751487 -0.65342
vn 0.602375 0.541481 -0.586467
vn 0.777724 0.307215 -0.54842
vn 0.892979 0.201168 -0.402642
vn -0.160357 -0.908834 -0.385107
vn -0.292626 -0.439986 -0.848989
vn -0.046089 0.271876 -0.961228
vn -0.280097 0.538445 0.794746

g grp1
usemtl mtl1
f 10//10 24//24 1//1 
f 16//16 1//1 3//3 
f 2//2 3//3 1//1 
f 12//12 16//16 3//3 
f 10//10 4//4 24//24 
f 10//10 11//11 4//4 
f 24//24 4//4 6//6 
f 24//24 6//6 25//25 
f 9//9 7//7 8//8 
f 56//56 29//29 7//7 
f 9//9 56//56 7//7 
f 6//6 5//5 7//7 
f 7//7 25//25 6//6 
f 29//29 30//30 7//7 
f 30//30 25//25 7//7 
f 6//6 4//4 5//5 
f 4//4 11//11 5//5 
f 5//5 8//8 7//7 
f 17//17 9//9 8//8 
f 5//5 17//17 8//8 
f 1//1 16//16 10//10 
f 10//10 16//16 11//11 
f 11//11 16//16 17//17 
f 16//16 12//12 13//13 
f 3//3 15//15 12//12 
f 12//12 14//14 13//13 
f 13//13 20//20 16//16 
f 13//13 14//14 20//20 
f 45//45 14//14 12//12 
f 12//12 15//15 45//45 
f 11//11 17//17 5//5 
f 20//20 17//17 16//16 
f 17//17 19//19 18//18 
f 20//20 19//19 17//17 
f 14//14 21//21 20//20 
f 19//19 20//20 21//21 
f 1//1 23//23 2//2 
f 1//1 27//27 23//23 
f 23//23 27//27 34//34 
f 23//23 35//35 2//2 
f 2//2 35//35 3//3 
f 27//27 24//24 25//25 
f 25//25 26//26 27//27 
f 27//27 26//26 28//28 
f 28//28 26//26 31//31 
f 26//26 25//25 30//30 
f 26//26 30//30 31//31 
f 33//33 28//28 31//31 
f 29//29 56//56 31//31 
f 30//30 29//29 31//31 
f 56//56 61//61 31//31 
f 31//31 61//61 33//33 
f 33//33 61//61 32//32 
f 28//28 33//33 39//39 
f 33//33 40//40 39//39 
f 1//1 24//24 27//27 
f 35//35 23//23 34//34 
f 42//42 34//34 41//41 
f 35//35 34//34 42//42 
f 27//27 28//28 34//34 
f 34//34 28//28 39//39 
f 39//39 41//41 34//34 
f 3//3 35//35 15//15 
f 15//15 35//35 36//36 
f 35//35 42//42 36//36 
f 38//38 40//40 32//32 
f 41//41 40//40 38//38 
f 33//33 32//32 40//40 
f 38//38 32//32 58//58 
f 38//38 58//58 37//37 
f 39//39 40//40 41//41 
f 42//42 41//41 43//43 
f 41//41 38//38 44//44 
f 41//41 44//44 43//43 
f 42//42 43//43 36//36 
f 37//37 44//44 38//38 
f 44//44 37//37 91//91 
f 15//15 48//48 45//45 
f 45//45 49//49 14//14 
f 49//49 46//46 14//14 
f 49//49 45//45 48//48 
f 15//15 53//53 48//48 
f 46//46 21//21 14//14 
f 22//22 21//21 46//46 
f 49//49 64//64 46//46 
f 64//64 22//22 46//46 
f 47//47 22//22 64//64 
f 49//49 50//50 64//64 
f 49//49 48//48 50//50 
f 50//50 48//48 71//71 
f 48//48 51//51 71//71 
f 15//15 36//36 53//53 
f 36//36 43//43 54//54 
f 53//53 36//36 54//54 
f 93//93 43//43 44//44 
f 44//44 52//52 93//93 
f 54//54 43//43 93//93 
f 53//53 55//55 48//48 
f 54//54 55//55 53//53 
f 55//55 54//54 93//93 
f 48//48 55//55 51//51 
f 9//9 57//57 56//56 
f 57//57 9//9 18//18 
f 57//57 18//18 58//58 
f 17//17 18//18 9//9 
f 19//19 59//59 18//18 
f 18//18 59//59 58//58 
f 58//58 59//59 37//37 
f 37//37 59//59 60//60 
f 59//59 19//19 60//60 
f 19//19 21//21 60//60 
f 21//21 22//22 47//47 
f 60//60 21//21 47//47 
f 57//57 61//61 56//56 
f 61//61 57//57 32//32 
f 32//32 57//57 58//58 
f 60//60 62//62 91//91 
f 37//37 60//60 91//91 
f 62//62 60//60 47//47 
f 64//64 65//65 47//47 
f 47//47 65//65 62//62 
f 92//92 62//62 63//63 
f 63//63 62//62 65//65 
f 64//64 66//66 65//65 
f 64//64 50//50 66//66 
f 79//79 66//66 50//50 
f 50//50 73//73 79//79 
f 73//73 50//50 71//71 
f 66//66 67//67 65//65 
f 70//70 63//63 65//65 
f 66//66 79//79 67//67 
f 68//68 70//70 67//67 
f 68//68 86//86 85//85 
f 69//69 68//68 67//67 
f 68//68 69//69 86//86 
f 69//69 78//78 86//86 
f 65//65 67//67 70//70 
f 96//96 63//63 70//70 
f 70//70 100//100 96//96 
f 68//68 85//85 70//70 
f 70//70 85//85 87//87 
f 70//70 87//87 100//100 
f 117//117 100//100 87//87 
f 73//73 75//75 79//79 
f 75//75 73//73 72//72 
f 71//71 51//51 73//73 
f 51//51 74//74 73//73 
f 72//72 76//76 75//75 
f 75//75 76//76 79//79 
f 74//74 109//109 72//72 
f 77//77 72//72 109//109 
f 72//72 77//77 76//76 
f 77//77 81//81 76//76 
f 79//79 80//80 67//67 
f 67//67 80//80 69//69 
f 81//81 83//83 80//80 
f 79//79 76//76 80//80 
f 76//76 81//81 80//80 
f 82//82 83//83 81//81 
f 80//80 78//78 69//69 
f 83//83 78//78 80//80 
f 90//90 78//78 83//83 
f 84//84 90//90 83//83 
f 82//82 81//81 77//77 
f 85//85 86//86 89//89 
f 90//90 89//89 86//86 
f 89//89 87//87 85//85 
f 117//117 87//87 88//88 
f 89//89 88//88 87//87 
f 84//84 88//88 89//89 
f 90//90 86//86 78//78 
f 89//89 90//90 84//84 
f 91//91 62//62 92//92 
f 91//91 52//52 44//44 
f 52//52 94//94 93//93 
f 91//91 97//97 52//52 
f 97//97 91//91 92//92 
f 52//52 97//97 94//94 
f 97//97 92//92 96//96 
f 94//94 95//95 93//93 
f 94//94 97//97 98//98 
f 93//93 95//95 55//55 
f 104//104 55//55 95//95 
f 92//92 63//63 96//96 
f 96//96 102//102 97//97 
f 97//97 102//102 98//98 
f 94//94 98//98 95//95 
f 95//95 99//99 104//104 
f 95//95 98//98 99//99 
f 99//99 98//98 107//107 
f 102//102 107//107 98//98 
f 102//102 96//96 101//101 
f 101//101 96//96 100//100 
f 100//100 116//116 101//101 
f 101//101 116//116 103//103 
f 100//100 117//117 116//116 
f 103//103 102//102 101//101 
f 115//115 102//102 114//114 
f 102//102 103//103 114//114 
f 114//114 103//103 113//113 
f 51//51 55//55 104//104 
f 74//74 51//51 104//104 
f 105//105 109//109 74//74 
f 74//74 104//104 105//105 
f 108//108 109//109 105//105 
f 108//108 106//106 110//110 
f 99//99 105//105 104//104 
f 105//105 99//99 108//108 
f 99//99 107//107 108//108 
f 107//107 115//115 108//108 
f 115//115 106//106 108//108 
f 109//109 110//110 77//77 
f 82//82 77//77 110//110 
f 106//106 82//82 110//110 
f 109//109 108//108 110//110 
f 106//106 111//111 82//82 
f 114//114 111//111 106//106 
f 114//114 106//106 115//115 
f 84//84 83//83 111//111 
f 112//112 84//84 111//111 
f 112//112 111//111 114//114 
f 112//112 114//114 113//113 
f 82//82 111//111 83//83 
f 107//107 102//102 115//115 
f 117//117 103//103 116//116 
f 88//88 118//118 117//117 
f 103//103 117//117 118//118 
f 103//103 118//118 113//113 
f 112//112 88//88 84//84 
f 112//112 118//118 88//88 
f 113//113 118//118 112//112 
f 72//72 73//73 119//119 
f 73//73 74//74 119//119 
f 74//74 72//72 119//119 
