# PIPER geometrical reference model based on a manual segmentation. See the
# documentation for more info.
# Author: CEESAR, SOTON, UCBL-Ifsttar
# Version: 1.0.0
# License: Creative Commons Attribution 4.0 International License.
# (https://creativecommons.org/licenses/by/4.0/)
# 
# This work has received funding from the European Union Seventh Framework
# Program ([FP7/2007-2013]) under grant agreement 605544 [PIPER project]).
# Contributors include Pierre Maillez, Christophe Lecomte (SOTON), Erwan
# Jolivet (CEESAR), Philippe Beillas (UCBL-Ifsttar)
# This work is derived from a CT scan provided by CEESAR under a CCBY-4.0
# License
# 
# wavefront obj file written by the visualization toolkit

mtllib C:/desktop/registration_reference_model/22_REF_LTE635_Assembly_hands_corr/CCTu635_BP108_Triquetrum_L.mtl

v -89.1403 268.954 -878.554
v -89.3982 270.124 -877.782
v -87.966 270.108 -877.685
v -91.3479 266.88 -881.705
v -90.7766 268.729 -879.433
v -87.0761 267.597 -879.743
v -90.4797 270.124 -878.633
v -92.6337 264.828 -885.643
v -91.1086 264.934 -883.484
v -85.8772 265.539 -882.846
v -90.198 263.674 -885.045
v -91.9418 264.322 -884.821
v -88.6743 264.276 -884.658
v -88.1616 265.137 -886.267
v -93.2313 266.589 -885.39
v -93.711 268.584 -886.509
v -92.4431 265.469 -883.919
v -89.6392 267.13 -880.573
v -88.131 265.735 -882.36
v -92.3865 267.795 -882.681
v -85.7756 269.466 -877.948
v -84.3467 266.994 -880.172
v -84.1866 267.849 -878.802
v -87.0139 268.919 -877.998
v -83.9818 268.662 -878.762
v -86.4405 270.869 -878.322
v -82.864 269.477 -880.095
v -81.8646 269.997 -881.776
v -83.7305 265.601 -882.739
v -82.1572 266.319 -882.301
v -81.449 266.434 -884.098
v -82.1139 268.253 -880.757
v -85.1926 266.265 -886.258
v -82.2056 266.646 -885.481
v -84.5042 265.091 -884.304
v -82.8482 265.581 -883.572
v -80.9598 267.227 -883.255
v -80.626 268.726 -883.481
v -80.3289 267.653 -884.829
v -80.0483 269.886 -884.693
v -79.6841 268.564 -885.07
v -80.6552 267.98 -885.868
v -89.5992 271.081 -878.097
v -88.2089 271.514 -878.294
v -90.9513 271.652 -879.401
v -89.995 272.634 -879.537
v -93.6065 271.612 -889.057
v -93.3326 270.94 -885.313
v -91.4013 270.521 -879.861
v -93.1117 268.648 -884.228
v -92.6382 273.283 -883.358
v -91.6047 273.174 -881.23
v -90.5802 273.917 -881.283
v -91.5032 274.52 -882.904
v -89.3969 274.443 -883.698
v -87.4719 274.99 -885.244
v -84.5198 270.328 -879.058
v -87.023 272.08 -879.16
v -85.5257 272.538 -880.709
v -83.2452 271.335 -881.075
v -81.5904 271.46 -883.413
v -83.522 273.245 -883.001
v -82.3365 273.574 -884.989
v -82.3013 273.39 -886.689
v -84.612 274.358 -884.142
v -83.558 274.633 -885.293
v -80.8309 272.461 -885.575
v -80.029 270.399 -885.756
v -91.1882 263.922 -886.655
v -92.3986 264.581 -887.333
v -93.2727 265.696 -887.693
v -92.5028 265.442 -889.231
v -93.5341 267.337 -887.843
v -92.8215 267.031 -890.486
v -93.4702 269.766 -890.62
v -87.0836 266.827 -887.994
v -91.858 265.993 -890.274
v -90.2866 265.904 -888.956
v -92.3274 267.721 -892.656
v -91.1954 266.837 -891.274
v -89.0582 267.315 -889.69
v -93.6477 271.441 -893.99
v -93.0834 269.602 -893.612
v -92.4279 269.576 -894.48
v -91.0655 269.019 -893.825
v -90.0299 267.835 -891.525
v -86.6594 270.027 -892.403
v -85.7945 268.71 -889.554
v -84.0031 267.627 -887.242
v -83.0801 269.331 -888.293
v -80.6165 269.507 -886.657
v -84.8805 271.132 -891.702
v -92.5049 274.734 -885.926
v -93.5283 273.725 -888.24
v -93.176 274.853 -888.714
v -93.713 273.903 -890.814
v -91.2482 274.974 -885.075
v -91.9301 275.817 -888.456
v -90.8476 276.932 -890.114
v -90.0541 275.719 -886.976
v -85.8098 275.717 -886.667
v -89.4299 277.164 -889.269
v -92.812 275.792 -891.464
v -90.9189 277.23 -891.958
v -89.0694 277.417 -890.422
v -87.8437 276.732 -891.36
v -93.8861 272.75 -892.843
v -93.1726 271.838 -895.159
v -93.5744 274.622 -893.636
v -92.7866 275.52 -893.642
v -91.9558 273.099 -895.249
v -91.9199 274.708 -894.613
v -91.0177 276.595 -893.515
v -90.2953 275.376 -894.448
v -89.5485 277.317 -892.553
v -87.6923 275.054 -893.194
v -88.4891 273.855 -894.864
v -86.5849 273.255 -894.387
v -90.8864 270.566 -895.134
v -90.5311 272.099 -895.47
v -87.7719 271.735 -895.218
v -92.087 276.639 -892.894
v -81.1144 271.147 -887.01
v -82.5262 271.028 -888.732
v -82.893 272.459 -888.664
v -83.8882 273.888 -888.823
v -85.5083 275.703 -889.298
v -84.1014 275.044 -887.393
v -84.6349 272.845 -892.069
v -85.8664 276.309 -888.214
v -87.3249 270.954 -894.387
v -86.0915 272.148 -894.186
v -85.9974 274.109 -892.808
vn -0.251761 -0.609766 0.751533
vn -0.325535 -0.166614 0.930734
vn -0.00368049 0.00994734 0.999944
vn -0.580531 -0.529224 0.618794
vn -0.600404 -0.440087 0.667711
vn -0.100774 -0.787859 0.607555
vn -0.663817 -0.129982 0.736513
vn -0.802325 -0.582242 0.131407
vn -0.256868 -0.742839 0.61823
vn 0.0520053 -0.895889 0.441224
vn 0.0825832 -0.988547 0.126313
vn -0.510577 -0.800955 0.312703
vn 0.271238 -0.958105 0.0920039
vn 0.326577 -0.817343 -0.474656
vn -0.951948 -0.21417 0.218921
vn -0.994086 -0.0445889 0.0990205
vn -0.749022 -0.463668 0.473263
vn -0.176494 -0.741092 0.64779
vn 0.00445805 -0.826281 0.563241
vn -0.873907 -0.191819 0.446646
vn 0.285152 0.0433545 0.957501
vn 0.0715097 -0.850171 0.521629
vn 0.314182 -0.56213 0.765049
vn -0.0705135 -0.530388 0.844817
vn 0.579752 0.0333394 0.814111
vn 0.320198 0.515369 0.794901
vn 0.7174 0.284625 0.635866
vn 0.800332 0.319255 0.507489
vn 0.148367 -0.911471 0.383676
vn 0.546844 -0.715479 0.4348
vn 0.61016 -0.787037 -0.0909773
vn 0.791353 -0.147894 0.593202
vn 0.29073 -0.753157 -0.590111
vn 0.391033 -0.750832 -0.532301
vn 0.22702 -0.964908 -0.131966
vn 0.390313 -0.920456 0.0204182
vn 0.838947 -0.421027 0.344826
vn 0.876342 0.0190938 0.481311
vn 0.791974 -0.608777 -0.0465728
vn 0.888029 0.25678 0.381403
vn 0.968153 -0.248918 -0.0268174
vn 0.574655 -0.563074 -0.593902
vn -0.334636 0.398167 0.854097
vn 0.0708275 0.603519 0.794197
vn -0.69375 0.328891 0.640735
vn -0.213423 0.712577 0.668344
vn -0.999195 -0.00735906 0.0394355
vn -0.977026 0.0730369 0.200216
vn -0.869657 -0.00626848 0.493617
vn -0.94679 -0.0477398 0.318293
vn -0.891507 0.317812 0.322815
vn -0.708787 0.461659 0.533378
vn -0.130497 0.857348 0.49792
vn -0.360432 0.865387 0.348129
vn 0.108031 0.935659 0.335965
vn 0.0230511 0.895273 0.444921
vn 0.514177 0.481504 0.709772
vn 0.256112 0.754298 0.604517
vn 0.311205 0.784646 0.536174
vn 0.59154 0.56261 0.577538
vn 0.735489 0.462614 0.495019
vn 0.480564 0.712034 0.511923
vn 0.632953 0.732812 0.249714
vn 0.713813 0.637395 -0.29017
vn 0.172174 0.865264 0.470824
vn 0.476883 0.846918 0.235184
vn 0.815153 0.579059 -0.014732
vn 0.942248 0.224921 -0.248151
vn -0.044612 -0.959677 -0.277542
vn -0.554785 -0.8091 -0.193833
vn -0.906423 -0.407897 -0.109624
vn -0.496222 -0.733693 -0.464175
vn -0.984414 -0.153998 -0.0849394
vn -0.831274 -0.448984 -0.327714
vn -0.984306 -0.158682 -0.0772112
vn 0.339951 -0.7384 -0.582408
vn -0.0831054 -0.817043 -0.570556
vn 0.405121 -0.750625 -0.521957
vn -0.361646 -0.730733 -0.579
vn 0.317729 -0.767676 -0.556527
vn 0.421048 -0.732373 -0.535116
vn -0.944809 -0.175212 -0.276832
vn -0.843888 -0.40768 -0.348783
vn -0.349211 -0.558473 -0.752436
vn 0.202626 -0.713246 -0.670987
vn 0.435619 -0.743957 -0.506719
vn 0.489941 -0.721508 -0.489268
vn 0.405576 -0.718833 -0.564612
vn 0.345156 -0.674334 -0.652795
vn 0.505512 -0.529575 -0.681182
vn 0.715393 -0.169956 -0.677738
vn 0.689646 -0.458329 -0.560646
vn -0.668876 0.701254 0.246672
vn -0.968593 0.206164 0.139009
vn -0.815938 0.557266 0.15395
vn -0.972031 0.227805 0.0570992
vn -0.1455 0.954303 0.261028
vn -0.465152 0.845721 0.261516
vn -0.403748 0.885562 0.229712
vn -0.135129 0.907794 0.397052
vn 0.199464 0.909367 0.365056
vn -0.128049 0.933987 0.333575
vn -0.754855 0.650867 0.0810364
vn -0.326414 0.944153 -0.0450386
vn 0.107013 0.993143 0.0470648
vn 0.521145 0.788961 -0.325498
vn -0.996975 0.0105679 -0.0769982
vn -0.599264 -0.0610485 -0.798221
vn -0.829946 0.394438 -0.394473
vn -0.599565 0.616426 -0.510432
vn -0.208057 0.265231 -0.941469
vn -0.280782 0.432632 -0.856732
vn -0.120979 0.751774 -0.648228
vn 0.0937611 0.516077 -0.851395
vn 0.205705 0.884452 -0.418845
vn 0.487835 0.636043 -0.597885
vn 0.254938 0.424539 -0.868777
vn 0.542844 0.391957 -0.742758
vn 0.0425952 -0.445197 -0.894419
vn 0.0120008 0.0145983 -0.999821
vn 0.317974 -0.210291 -0.924484
vn -0.533991 0.805742 -0.25619
vn 0.775572 0.267624 -0.571722
vn 0.765187 -0.0765848 -0.639237
vn 0.803641 0.384024 -0.454627
vn 0.749485 0.547632 -0.371984
vn 0.660252 0.685713 -0.306374
vn 0.62779 0.769265 -0.118788
vn 0.835421 0.213835 -0.506307
vn 0.416106 0.905861 0.0792003
vn 0.442253 -0.633543 -0.634851
vn 0.704302 -0.163658 -0.690778
vn 0.641999 0.595725 -0.482648

g grp1
usemtl mtl1
f 3//3 2//2 1//1 
f 2//2 3//3 43//43 
f 1//1 24//24 3//3 
f 5//5 20//20 4//4 
f 6//6 18//18 19//19 
f 19//19 22//22 6//6 
f 1//1 5//5 18//18 
f 5//5 1//1 7//7 
f 2//2 7//7 1//1 
f 2//2 43//43 7//7 
f 49//49 5//5 7//7 
f 5//5 49//49 20//20 
f 24//24 1//1 6//6 
f 18//18 6//6 1//1 
f 9//9 11//11 19//19 
f 12//12 11//11 9//9 
f 12//12 17//17 8//8 
f 12//12 8//8 70//70 
f 70//70 69//69 12//12 
f 12//12 69//69 11//11 
f 11//11 69//69 14//14 
f 13//13 19//19 11//11 
f 19//19 13//13 10//10 
f 13//13 35//35 10//10 
f 13//13 14//14 35//35 
f 13//13 11//11 14//14 
f 51//51 48//48 50//50 
f 50//50 15//15 20//20 
f 17//17 20//20 15//15 
f 17//17 15//15 8//8 
f 71//71 8//8 15//15 
f 73//73 71//71 15//15 
f 15//15 16//16 73//73 
f 50//50 16//16 15//15 
f 48//48 16//16 50//50 
f 17//17 4//4 20//20 
f 5//5 4//4 18//18 
f 4//4 17//17 9//9 
f 9//9 17//17 12//12 
f 18//18 4//4 9//9 
f 9//9 19//19 18//18 
f 20//20 49//49 50//50 
f 24//24 21//21 3//3 
f 21//21 26//26 3//3 
f 6//6 22//22 23//23 
f 30//30 22//22 29//29 
f 30//30 23//23 22//22 
f 30//30 32//32 23//23 
f 24//24 6//6 23//23 
f 21//21 24//24 23//23 
f 23//23 25//25 21//21 
f 26//26 21//21 57//57 
f 21//21 25//25 57//57 
f 25//25 23//23 32//32 
f 32//32 27//27 25//25 
f 57//57 25//25 27//27 
f 60//60 57//57 27//27 
f 28//28 60//60 27//27 
f 27//27 32//32 28//28 
f 22//22 19//19 10//10 
f 22//22 10//10 29//29 
f 32//32 30//30 37//37 
f 29//29 36//36 30//30 
f 30//30 36//36 31//31 
f 37//37 30//30 31//31 
f 35//35 14//14 33//33 
f 10//10 35//35 29//29 
f 35//35 33//33 34//34 
f 76//76 33//33 14//14 
f 33//33 76//76 89//89 
f 33//33 89//89 34//34 
f 35//35 36//36 29//29 
f 36//36 35//35 34//34 
f 31//31 36//36 34//34 
f 32//32 37//37 38//38 
f 32//32 38//38 28//28 
f 28//28 38//38 61//61 
f 31//31 39//39 37//37 
f 34//34 39//39 31//31 
f 37//37 39//39 38//38 
f 38//38 39//39 41//41 
f 41//41 40//40 38//38 
f 61//61 38//38 40//40 
f 39//39 34//34 42//42 
f 41//41 39//39 42//42 
f 42//42 91//91 41//41 
f 68//68 41//41 91//91 
f 91//91 123//123 68//68 
f 40//40 41//41 68//68 
f 3//3 44//44 43//43 
f 26//26 44//44 3//3 
f 7//7 43//43 45//45 
f 46//46 45//45 43//43 
f 49//49 7//7 45//45 
f 45//45 52//52 49//49 
f 45//45 46//46 52//52 
f 46//46 53//53 52//52 
f 43//43 44//44 46//46 
f 44//44 26//26 58//58 
f 44//44 58//58 46//46 
f 46//46 58//58 53//53 
f 58//58 59//59 53//53 
f 51//51 94//94 48//48 
f 48//48 94//94 47//47 
f 51//51 93//93 94//94 
f 51//51 50//50 49//49 
f 51//51 49//49 52//52 
f 53//53 59//59 55//55 
f 54//54 52//52 53//53 
f 51//51 52//52 54//54 
f 53//53 55//55 54//54 
f 93//93 51//51 54//54 
f 54//54 55//55 97//97 
f 100//100 97//97 55//55 
f 54//54 97//97 93//93 
f 56//56 100//100 55//55 
f 58//58 26//26 59//59 
f 57//57 59//59 26//26 
f 60//60 59//59 57//57 
f 59//59 60//60 62//62 
f 28//28 61//61 60//60 
f 60//60 61//61 62//62 
f 63//63 62//62 61//61 
f 56//56 55//55 59//59 
f 65//65 56//56 59//59 
f 59//59 62//62 65//65 
f 61//61 67//67 63//63 
f 67//67 123//123 64//64 
f 62//62 66//66 65//65 
f 101//101 56//56 65//65 
f 65//65 66//66 101//101 
f 62//62 63//63 66//66 
f 63//63 64//64 66//66 
f 63//63 67//67 64//64 
f 61//61 40//40 67//67 
f 40//40 68//68 67//67 
f 123//123 67//67 68//68 
f 78//78 14//14 69//69 
f 8//8 71//71 70//70 
f 70//70 71//71 72//72 
f 16//16 75//75 73//73 
f 73//73 75//75 74//74 
f 47//47 75//75 16//16 
f 47//47 107//107 75//75 
f 74//74 72//72 71//71 
f 73//73 74//74 71//71 
f 74//74 75//75 83//83 
f 75//75 107//107 82//82 
f 74//74 83//83 79//79 
f 75//75 82//82 83//83 
f 70//70 72//72 69//69 
f 69//69 77//77 78//78 
f 69//69 72//72 77//77 
f 14//14 78//78 76//76 
f 76//76 78//78 81//81 
f 78//78 77//77 80//80 
f 74//74 77//77 72//72 
f 78//78 80//80 86//86 
f 86//86 81//81 78//78 
f 77//77 74//74 79//79 
f 79//79 80//80 77//77 
f 80//80 79//79 85//85 
f 80//80 85//85 86//86 
f 81//81 86//86 87//87 
f 88//88 81//81 87//87 
f 84//84 79//79 83//83 
f 108//108 83//83 82//82 
f 83//83 108//108 84//84 
f 85//85 79//79 84//84 
f 85//85 84//84 119//119 
f 84//84 108//108 119//119 
f 119//119 131//131 85//85 
f 87//87 86//86 131//131 
f 131//131 86//86 85//85 
f 121//121 131//131 119//119 
f 76//76 81//81 88//88 
f 76//76 88//88 89//89 
f 89//89 88//88 90//90 
f 34//34 89//89 42//42 
f 42//42 89//89 90//90 
f 90//90 91//91 42//42 
f 92//92 90//90 88//88 
f 88//88 87//87 92//92 
f 48//48 47//47 16//16 
f 94//94 96//96 47//47 
f 47//47 96//96 107//107 
f 94//94 93//93 95//95 
f 93//93 98//98 95//95 
f 94//94 95//95 96//96 
f 103//103 96//96 95//95 
f 95//95 98//98 103//103 
f 97//97 98//98 93//93 
f 98//98 97//97 100//100 
f 99//99 98//98 100//100 
f 102//102 100//100 56//56 
f 102//102 56//56 101//101 
f 99//99 103//103 98//98 
f 99//99 100//100 102//102 
f 102//102 101//101 130//130 
f 105//105 99//99 102//102 
f 104//104 122//122 103//103 
f 104//104 103//103 99//99 
f 99//99 105//105 104//104 
f 105//105 115//115 104//104 
f 130//130 127//127 106//106 
f 106//106 105//105 130//130 
f 102//102 130//130 105//105 
f 105//105 106//106 115//115 
f 109//109 82//82 107//107 
f 109//109 108//108 82//82 
f 108//108 109//109 111//111 
f 96//96 109//109 107//107 
f 110//110 109//109 103//103 
f 96//96 103//103 109//109 
f 122//122 110//110 103//103 
f 112//112 109//109 110//110 
f 111//111 109//109 112//112 
f 117//117 120//120 111//111 
f 121//121 132//132 131//131 
f 132//132 121//121 118//118 
f 118//118 121//121 117//117 
f 122//122 113//113 110//110 
f 111//111 112//112 114//114 
f 111//111 114//114 117//117 
f 112//112 110//110 113//113 
f 113//113 114//114 112//112 
f 117//117 114//114 115//115 
f 106//106 116//116 115//115 
f 118//118 117//117 116//116 
f 117//117 115//115 116//116 
f 111//111 120//120 108//108 
f 119//119 108//108 120//120 
f 119//119 120//120 121//121 
f 121//121 120//120 117//117 
f 113//113 122//122 104//104 
f 104//104 115//115 113//113 
f 113//113 115//115 114//114 
f 123//123 124//124 125//125 
f 123//123 125//125 64//64 
f 125//125 126//126 64//64 
f 90//90 92//92 124//124 
f 125//125 124//124 129//129 
f 90//90 124//124 91//91 
f 91//91 124//124 123//123 
f 101//101 66//66 128//128 
f 101//101 128//128 130//130 
f 128//128 127//127 130//130 
f 66//66 64//64 128//128 
f 64//64 126//126 128//128 
f 128//128 126//126 127//127 
f 124//124 92//92 129//129 
f 125//125 129//129 126//126 
f 129//129 127//127 126//126 
f 127//127 129//129 133//133 
f 127//127 133//133 106//106 
f 106//106 133//133 116//116 
f 92//92 87//87 131//131 
f 131//131 132//132 92//92 
f 92//92 132//132 129//129 
f 132//132 118//118 129//129 
f 116//116 133//133 118//118 
f 118//118 133//133 129//129 
