# PIPER geometrical reference model based on a manual segmentation. See the
# documentation for more info.
# Author: CEESAR, SOTON, UCBL-Ifsttar
# Version: 1.0.0
# License: Creative Commons Attribution 4.0 International License.
# (https://creativecommons.org/licenses/by/4.0/)
# 
# This work has received funding from the European Union Seventh Framework
# Program ([FP7/2007-2013]) under grant agreement 605544 [PIPER project]).
# Contributors include Pierre Maillez, Christophe Lecomte (SOTON), Erwan
# Jolivet (CEESAR), Philippe Beillas (UCBL-Ifsttar)
# This work is derived from a CT scan provided by CEESAR under a CCBY-4.0
# License
# 
# wavefront obj file written by the visualization toolkit

mtllib C:/desktop/registration_reference_model/22_REF_LTE635_Assembly_hands_corr/CCTu635_BP164_Talus_L.mtl

v -103.99 107.648 -1658.56
v -105.144 111.064 -1657.81
v -107.282 113.651 -1658.22
v -104.823 114.5 -1657.65
v -97.493 118.816 -1658.97
v -98.165 98.31 -1662.8
v -97.225 94.837 -1666.21
v -99.873 97.16 -1666.51
v -97.865 87.551 -1671.66
v -96.56 88.304 -1669.66
v -100.13 89.914 -1670.13
v -100.281 94.364 -1671.3
v -101.402 96.833 -1671.59
v -103.991 102.444 -1661.95
v -103.045 100.702 -1668.9
v -107.387 114.524 -1664.51
v -105.401 105.041 -1668.37
v -108.27 116.577 -1669.85
v -102.639 97.459 -1670.47
v -103.993 100.662 -1672.81
v -112.751 107.624 -1677.83
v -107.934 107.426 -1671.95
v -109.526 104.591 -1676.05
v -106.467 107.316 -1681.35
v -88.759 102.651 -1678.15
v -101.818 100.804 -1673.9
v -109.426 113.189 -1672.79
v -112.058 113.216 -1677.38
v -93.571 106.584 -1658.62
v -82 106.999 -1657.52
v -89.735 111.316 -1657.45
v -88.912 118.309 -1658.31
v -81.916 112.996 -1656.64
v -80.095 106.68 -1659.01
v -91.75 95.181 -1666.18
v -87.3 94.599 -1669.59
v -80.85 101.404 -1660.2
v -83.119 96.984 -1663.09
v -83.197 96.246 -1666.9
v -93.697 88.05 -1670.68
v -90.67 90.174 -1674.55
v -88.36 92.683 -1671.49
v -83.699 94.637 -1674.29
v -89.359 93.947 -1675.99
v -96.84 89.578 -1672.92
v -87.548 93.391 -1674.31
v -82.13 94.66 -1671.48
v -80.408 98.379 -1667.62
v -78.877 94.155 -1674.52
v -86.045 95.262 -1676.67
v -96.651 100.628 -1660.9
v -86.171 98.492 -1661.65
v -83.906 101.851 -1659.5
v -78.296 109.636 -1665.17
v -75.175 107.66 -1671.45
v -79.825 112.712 -1659.19
v -78.502 104.138 -1665.8
v -77.335 96.396 -1675.44
v -76.455 102.248 -1676.08
v -75.795 116.221 -1675.13
v -75.555 111.651 -1675.09
v -77.127 109.113 -1676.83
v -76.184 101.069 -1671.36
v -74.906 104.999 -1674.07
v -108.689 121.684 -1661.32
v -107.352 119.713 -1658.5
v -102.997 121.996 -1660.01
v -107.384 122.265 -1659.51
v -106.422 127.998 -1664.02
v -107.452 113.41 -1667.75
v -108.11 118.832 -1666.88
v -108.769 125.916 -1665.88
v -104.952 125.663 -1662.07
v -97.759 123.6 -1661.02
v -99.304 126.449 -1663.04
v -96.417 128.649 -1665.89
v -102.023 130.625 -1668.05
v -108.093 120.878 -1671.98
v -107.188 125.341 -1673.5
v -106.772 128.454 -1669.24
v -104.398 127.578 -1675.93
v -102.645 129.696 -1673.71
v -91.398 130.819 -1671.13
v -97.107 131.273 -1672.96
v -98.389 132.56 -1676.79
v -97.007 137.611 -1679.12
v -90.79 122.414 -1659.86
v -82.626 117.032 -1656.93
v -83.869 122.044 -1658.34
v -81.809 123.907 -1659.03
v -80.226 120.014 -1659.57
v -77.363 123.028 -1668.49
v -90.947 126.375 -1662.21
v -85.694 125.45 -1660.33
v -88.4 129.642 -1666.91
v -82.608 128.413 -1662.41
v -79.601 128.443 -1665
v -77.885 116.991 -1670.36
v -76.364 122.084 -1673.98
v -83.136 130.581 -1666.59
v -85.893 133.016 -1673.27
v -91.079 132.667 -1675.15
v -93.349 136.392 -1677.76
v -77.269 127.339 -1671.59
v -81.447 131.371 -1671.01
v -78.183 129.934 -1673.83
v -88.068 137.229 -1677.91
v -83.199 135.182 -1675.89
v -83.154 138.478 -1679.38
v -114.381 106.163 -1681.29
v -114.305 109.123 -1683.46
v -114.599 110.974 -1680.8
v -105.527 103.586 -1675.97
v -90.947 106.103 -1679.4
v -111.192 116.365 -1680.68
v -110.563 109.453 -1685.18
v -95.771 108.254 -1681.37
v -103.033 111.848 -1688.24
v -95.773 111.37 -1685
v -98.381 114.2 -1686.26
v -92.102 115.88 -1685.22
v -109.242 111.837 -1686.9
v -85.314 97.089 -1679.13
v -82.231 98.952 -1680.68
v -80.292 95.757 -1679.19
v -79.123 98.053 -1680.41
v -83.763 104.034 -1679.29
v -79.941 103.255 -1678.69
v -80.95 107.132 -1678.87
v -90.708 109.695 -1682.16
v -86.516 107.444 -1680.15
v -85.542 111.761 -1682.46
v -87.135 113.78 -1686.7
v -77.404 111.812 -1679.39
v -75.102 114.792 -1682.21
v -77.779 113.581 -1683.03
v -89.698 113.239 -1684.58
v -108.452 121.843 -1678.9
v -108.11 115.391 -1686.07
v -105.092 125.655 -1680.73
v -110.694 115.158 -1683.96
v -104.205 121.726 -1683.63
v -97.438 118.39 -1685.06
v -96.711 123.593 -1684.83
v -100.315 123.652 -1683.81
v -92.783 121.418 -1686.11
v -99.26 127.486 -1684.84
v -102.25 129.495 -1678.63
v -100.942 131.814 -1682.16
v -102.211 126.174 -1682.91
v -100.277 132.539 -1684.11
v -97.887 132.581 -1689.95
v -94.947 128.491 -1691.41
v -93.237 129.031 -1697.15
v -95.261 143.381 -1683.52
v -98.305 139.327 -1687.2
v -99.281 135.766 -1681.11
v -94.736 143.836 -1686.37
v -97.461 137.089 -1692.9
v -94.755 136.652 -1695.11
v -74.987 116.54 -1680.17
v -76.355 130.414 -1679.56
v -90.662 117.054 -1686.96
v -89.07 116.209 -1690.32
v -91.234 123.272 -1690.21
v -81.862 118.677 -1695.01
v -87.713 120.442 -1695.01
v -86.591 116.635 -1692.61
v -76.812 115.977 -1688.99
v -75.318 118.352 -1687.74
v -76.144 122.006 -1695.29
v -76.24 139.558 -1689.04
v -78.194 134.237 -1696.08
v -74.806 122.402 -1679.7
v -75.064 126.524 -1678.61
v -71.028 124.347 -1685.97
v -71.443 129.149 -1685.63
v -73.726 134.556 -1686.15
v -72.983 123.188 -1691.77
v -72.271 126.891 -1692.51
v -72.344 131.243 -1690.02
v -92.202 141.892 -1679.82
v -80.182 135.788 -1678.64
v -84.802 144.844 -1683.92
v -78.086 133.938 -1679.69
v -77.654 141.03 -1687.05
v -89.094 145.989 -1684.89
v -90.816 141.631 -1693.14
v -85.002 142.009 -1694.38
v -80.202 141.228 -1691.85
v -82.043 144.005 -1688.33
v -89.985 144.722 -1689.55
v -91.548 124.748 -1696.31
v -89.444 123.959 -1698.03
v -82.532 122.089 -1697.27
v -85.698 127.696 -1699.05
v -90.496 129.378 -1698.82
v -86.206 134.171 -1699.35
v -78.358 127.652 -1698.26
v -79.792 130.129 -1698.72
v -91.287 136.63 -1697.38
v -82.059 136.67 -1696.93
v -86.729 138.692 -1696.77
v -91.041 135.02 -1676.68
v -91.281 140.853 -1679.39
vn -0.351917 -0.377102 0.856708
vn -0.2977 -0.222798 0.928297
vn -0.767004 -0.151909 0.6234
vn -0.0809717 0.069084 0.994319
vn 0.00351811 0.297258 0.954791
vn -0.281829 -0.673308 0.683541
vn -0.259935 -0.603807 0.753559
vn -0.671585 -0.548448 0.498175
vn -0.439813 -0.851699 -0.284909
vn -0.0533433 -0.705696 0.706504
vn -0.828851 -0.541224 0.141715
vn -0.387832 -0.204893 -0.898669
vn -0.509521 -0.394826 -0.764526
vn -0.687149 -0.563159 0.458997
vn -0.846392 -0.480801 0.229022
vn -0.983035 -0.182117 0.0217971
vn -0.902605 -0.388307 0.185799
vn -0.981131 0.0192169 0.192386
vn -0.905858 -0.420754 0.0488578
vn -0.594685 -0.741696 -0.310221
vn -0.808084 -0.210295 0.550251
vn -0.8228 -0.270341 0.499917
vn -0.562755 -0.823162 0.0755727
vn 0.0575598 -0.847765 -0.527239
vn -0.274157 -0.258246 -0.926362
vn -0.201334 -0.600395 -0.773944
vn -0.890793 -0.0100936 0.454297
vn -0.885936 0.252946 0.388762
vn -0.0485128 -0.27496 0.960231
vn 0.262879 -0.231716 0.936591
vn -0.0751851 -0.036084 0.996517
vn -0.13374 0.211534 0.968177
vn 0.387579 0.0258916 0.921473
vn 0.816538 -0.149736 0.557535
vn 0.143231 -0.765264 0.62758
vn 0.341135 -0.866782 0.363752
vn 0.609659 -0.469074 0.638972
vn 0.362079 -0.797774 0.482136
vn 0.385701 -0.880762 0.27476
vn 0.337068 -0.891572 0.302465
vn 0.339594 -0.72367 -0.600815
vn 0.727228 -0.664149 0.173339
vn 0.0504154 -0.991049 -0.12361
vn -0.0674265 -0.445003 -0.892987
vn -0.386318 -0.229694 -0.893308
vn 0.499842 -0.826082 -0.260283
vn 0.201597 -0.935022 0.291707
vn 0.724085 -0.575431 0.380237
vn 0.463076 -0.885737 0.032093
vn 0.120377 -0.861854 -0.492663
vn -0.113424 -0.485204 0.867014
vn -0.0125889 -0.64202 0.766585
vn 0.0323019 -0.454406 0.890209
vn 0.950034 0.0338834 0.310303
vn 0.963235 0.0366971 0.266141
vn 0.888925 0.0324922 0.456899
vn 0.904958 -0.216952 0.366036
vn 0.878467 -0.456705 -0.140413
vn 0.808784 -0.047792 -0.586161
vn 0.964941 0.0675137 0.253637
vn 0.980014 -0.08564 -0.179551
vn 0.73525 -0.19339 -0.649622
vn 0.887946 -0.32262 0.327822
vn 0.97604 -0.0798262 -0.202418
vn -0.95827 0.123538 0.257792
vn -0.4761 0.204146 0.855367
vn 0.0737652 0.459476 0.885122
vn -0.409758 0.451837 0.792428
vn -0.40673 0.766526 0.497
vn -0.960977 -0.167822 0.219906
vn -0.995188 -0.097577 0.00887175
vn -0.933135 0.34956 0.0840623
vn 0.0211231 0.602566 0.797789
vn -0.0233888 0.484183 0.874654
vn 0.0203486 0.683215 0.729934
vn 0.0251077 0.846029 0.532545
vn -0.156843 0.957621 0.241584
vn -0.987451 0.149976 0.0494703
vn -0.881523 0.426928 -0.201619
vn -0.677189 0.726986 -0.113607
vn -0.700931 0.684154 -0.201568
vn -0.485638 0.863935 -0.133312
vn -0.0950766 0.923641 0.371278
vn -0.11723 0.963615 0.240213
vn -0.460632 0.727755 0.508125
vn -0.530482 0.508121 0.678529
vn -0.122948 0.404836 0.906086
vn 0.272618 0.153234 0.949841
vn -0.0819875 0.332011 0.939706
vn 0.404673 0.419847 0.812384
vn 0.820899 0.135768 0.554699
vn 0.968825 0.0457109 0.243494
vn -0.116228 0.689443 0.714955
vn -0.134033 0.552783 0.822476
vn -0.147796 0.88666 0.438168
vn 0.165286 0.760625 0.627798
vn 0.711424 0.58043 0.396204
vn 0.96141 0.0272855 0.273764
vn 0.964394 0.00474463 0.264428
vn 0.100625 0.915143 0.390368
vn -0.096806 0.834418 0.542563
vn -0.171245 0.761371 0.625292
vn -0.138348 0.445097 0.884731
vn 0.891547 0.368815 0.262905
vn 0.442042 0.817925 0.368236
vn 0.757876 0.539927 0.3662
vn -0.00686036 0.568125 0.822914
vn 0.172759 0.766061 0.619116
vn 0.262981 0.628972 0.731598
vn -0.683601 -0.710186 -0.168303
vn -0.781195 -0.111904 -0.614175
vn -0.961641 0.256926 0.0961032
vn -0.119917 -0.77107 -0.625357
vn -0.0560032 -0.548342 -0.834377
vn -0.867387 0.49036 -0.0847757
vn -0.146824 -0.64787 -0.747467
vn 0.0637409 -0.747612 -0.66107
vn 0.0645747 -0.266059 -0.961792
vn 0.232997 -0.450586 -0.861791
vn 0.411064 0.10429 -0.905621
vn -0.24951 -0.233356 -0.939835
vn -0.400976 -0.0352158 -0.915411
vn -0.316485 -0.434264 -0.843358
vn -0.079228 -0.0570908 -0.99522
vn 0.207472 -0.753803 -0.623487
vn 0.502913 -0.179933 -0.845401
vn 0.0206119 0.0227517 -0.999529
vn 0.408637 0.17486 -0.89579
vn 0.315419 -0.135236 -0.939267
vn 0.134498 -0.609128 -0.781584
vn 0.104678 -0.405959 -0.907876
vn 0.17812 -0.713627 -0.677503
vn -0.051402 -0.897726 -0.437546
vn 0.53238 -0.671262 -0.515732
vn 0.866737 -0.456724 -0.200424
vn 0.305409 -0.870616 -0.385686
vn -0.0762758 -0.663856 -0.743961
vn -0.860467 0.491186 -0.1354
vn -0.384475 0.439618 -0.811736
vn -0.732875 0.53019 -0.426371
vn -0.701027 0.469542 -0.536741
vn -0.293866 0.395523 -0.870175
vn 0.0231835 0.156984 -0.987329
vn -0.429219 -0.26978 -0.861969
vn -0.255752 0.0544979 -0.965205
vn -0.62083 -0.368881 -0.691734
vn -0.65709 -0.200695 -0.726604
vn -0.76101 0.644943 0.0700947
vn -0.923851 0.348226 -0.158864
vn -0.549522 0.177536 -0.816398
vn -0.933745 0.0769765 -0.349564
vn -0.870989 -0.244659 -0.426051
vn -0.780326 -0.495046 -0.382127
vn -0.724798 -0.196542 -0.660332
vn -0.582415 0.755343 0.300417
vn -0.875477 0.462484 -0.140169
vn -0.848752 0.45742 0.265306
vn -0.556433 0.807705 -0.194925
vn -0.787366 0.284742 -0.546788
vn -0.53792 0.353408 -0.76534
vn 0.998322 -0.0370298 0.0445229
vn 0.810634 0.392756 0.434299
vn -0.78147 -0.339616 -0.523417
vn -0.663404 -0.568861 -0.486099
vn -0.779069 -0.513254 -0.360029
vn 0.109429 -0.68568 -0.719631
vn -0.476995 -0.615933 -0.626979
vn -0.193559 -0.759836 -0.620632
vn 0.534262 -0.735846 -0.416046
vn 0.886827 -0.429238 -0.17115
vn 0.554687 -0.446588 -0.702055
vn 0.773521 0.597013 -0.212699
vn 0.604601 0.394085 -0.69221
vn 0.956034 -0.117337 0.268756
vn 0.903772 0.171569 0.392124
vn 0.960403 -0.250074 0.122838
vn 0.946753 0.22938 0.225929
vn 0.850746 0.4495 0.272362
vn 0.818909 -0.424792 -0.385928
vn 0.873036 0.0193982 -0.48727
vn 0.902666 0.321329 -0.286256
vn -0.140156 0.623203 0.769399
vn 0.569924 0.618497 0.54097
vn 0.327605 0.842377 0.427874
vn 0.741719 0.484528 0.463773
vn 0.674294 0.706165 0.216006
vn -0.0444699 0.982814 0.179164
vn -0.336784 0.698414 -0.631502
vn 0.14059 0.740539 -0.657143
vn 0.51344 0.686357 -0.515067
vn 0.397279 0.902709 -0.165182
vn -0.185099 0.891181 -0.414167
vn -0.748806 -0.543049 -0.379984
vn -0.355142 -0.485911 -0.798602
vn 0.0714737 -0.452023 -0.889138
vn 0.0129863 -0.155957 -0.987678
vn -0.335065 -0.0440474 -0.941165
vn 0.01342 0.253155 -0.967333
vn 0.447441 -0.0652806 -0.891928
vn 0.353971 0.127787 -0.926485
vn -0.363546 0.393958 -0.844175
vn 0.359101 0.483441 -0.79833
vn -0.0156514 0.564563 -0.825242
vn -0.0630733 0.546656 0.834979
vn 0.054657 0.419884 0.90593

g grp1
usemtl mtl1
f 29//29 1//1 51//51 
f 3//3 1//1 2//2 
f 3//3 65//65 16//16 
f 4//4 3//3 2//2 
f 66//66 3//3 4//4 
f 1//1 29//29 2//2 
f 29//29 31//31 2//2 
f 2//2 31//31 4//4 
f 5//5 4//4 31//31 
f 52//52 6//6 7//7 
f 7//7 8//8 10//10 
f 10//10 40//40 7//7 
f 7//7 40//40 35//35 
f 6//6 8//8 7//7 
f 9//9 10//10 11//11 
f 9//9 40//40 10//10 
f 11//11 10//10 8//8 
f 12//12 9//9 11//11 
f 9//9 12//12 45//45 
f 8//8 19//19 11//11 
f 13//13 11//11 19//19 
f 11//11 13//13 12//12 
f 15//15 19//19 8//8 
f 19//19 20//20 13//13 
f 12//12 13//13 25//25 
f 12//12 25//25 44//44 
f 45//45 12//12 44//44 
f 28//28 21//21 27//27 
f 3//3 14//14 1//1 
f 14//14 3//3 17//17 
f 14//14 17//17 15//15 
f 14//14 6//6 51//51 
f 14//14 51//51 1//1 
f 14//14 15//15 8//8 
f 6//6 14//14 8//8 
f 16//16 17//17 3//3 
f 17//17 70//70 22//22 
f 16//16 70//70 17//17 
f 22//22 15//15 17//17 
f 22//22 23//23 15//15 
f 15//15 23//23 20//20 
f 19//19 15//15 20//20 
f 20//20 113//113 26//26 
f 21//21 23//23 22//22 
f 110//110 24//24 23//23 
f 113//113 23//23 24//24 
f 21//21 110//110 23//23 
f 23//23 113//113 20//20 
f 20//20 26//26 13//13 
f 13//13 26//26 114//114 
f 113//113 114//114 26//26 
f 22//22 70//70 27//27 
f 18//18 27//27 70//70 
f 22//22 27//27 21//21 
f 78//78 28//28 27//27 
f 29//29 53//53 30//30 
f 53//53 37//37 30//30 
f 37//37 34//34 30//30 
f 29//29 30//30 31//31 
f 32//32 5//5 31//31 
f 32//32 87//87 5//5 
f 31//31 88//88 32//32 
f 33//33 31//31 30//30 
f 30//30 34//34 33//33 
f 56//56 33//33 34//34 
f 31//31 33//33 88//88 
f 88//88 33//33 56//56 
f 7//7 35//35 52//52 
f 38//38 52//52 35//35 
f 38//38 35//35 39//39 
f 39//39 36//36 47//47 
f 35//35 36//36 39//39 
f 39//39 48//48 38//38 
f 40//40 36//36 35//35 
f 36//36 40//40 42//42 
f 40//40 9//9 41//41 
f 42//42 40//40 41//41 
f 41//41 46//46 42//42 
f 36//36 42//42 46//46 
f 36//36 46//46 43//43 
f 9//9 45//45 41//41 
f 45//45 44//44 41//41 
f 46//46 41//41 44//44 
f 44//44 50//50 46//46 
f 43//43 46//46 50//50 
f 25//25 123//123 44//44 
f 123//123 50//50 44//44 
f 36//36 43//43 47//47 
f 47//47 48//48 39//39 
f 49//49 48//48 47//47 
f 48//48 49//49 63//63 
f 43//43 49//49 47//47 
f 125//125 49//49 43//43 
f 50//50 125//125 43//43 
f 63//63 49//49 58//58 
f 125//125 58//58 49//49 
f 6//6 52//52 51//51 
f 52//52 53//53 51//51 
f 53//53 29//29 51//51 
f 38//38 37//37 52//52 
f 53//53 52//52 37//37 
f 37//37 57//57 34//34 
f 37//37 38//38 48//48 
f 48//48 57//57 37//37 
f 57//57 55//55 54//54 
f 34//34 54//54 56//56 
f 34//34 57//57 54//54 
f 98//98 56//56 54//54 
f 114//114 25//25 13//13 
f 123//123 25//25 124//124 
f 48//48 63//63 57//57 
f 57//57 63//63 55//55 
f 63//63 58//58 64//64 
f 64//64 58//58 59//59 
f 58//58 126//126 59//59 
f 126//126 128//128 59//59 
f 64//64 59//59 62//62 
f 128//128 62//62 59//59 
f 55//55 61//61 60//60 
f 54//54 55//55 98//98 
f 60//60 98//98 55//55 
f 61//61 64//64 62//62 
f 128//128 129//129 62//62 
f 60//60 61//61 161//161 
f 62//62 134//134 61//61 
f 64//64 55//55 63//63 
f 55//55 64//64 61//61 
f 66//66 65//65 3//3 
f 4//4 5//5 66//66 
f 67//67 68//68 66//66 
f 66//66 5//5 67//67 
f 74//74 67//67 5//5 
f 87//87 74//74 5//5 
f 65//65 71//71 16//16 
f 66//66 68//68 65//65 
f 65//65 68//68 72//72 
f 68//68 69//69 72//72 
f 65//65 72//72 71//71 
f 68//68 67//67 73//73 
f 68//68 73//73 69//69 
f 16//16 71//71 70//70 
f 70//70 71//71 18//18 
f 78//78 18//18 71//71 
f 67//67 74//74 73//73 
f 87//87 93//93 74//74 
f 75//75 73//73 74//74 
f 74//74 93//93 75//75 
f 80//80 72//72 69//69 
f 69//69 77//77 80//80 
f 73//73 75//75 69//69 
f 76//76 77//77 69//69 
f 76//76 69//69 75//75 
f 76//76 75//75 93//93 
f 83//83 77//77 76//76 
f 76//76 95//95 83//83 
f 18//18 78//78 27//27 
f 72//72 78//78 71//71 
f 72//72 79//79 78//78 
f 138//138 28//28 78//78 
f 138//138 78//78 79//79 
f 79//79 81//81 138//138 
f 138//138 81//81 140//140 
f 72//72 80//80 79//79 
f 77//77 82//82 80//80 
f 80//80 81//81 79//79 
f 80//80 82//82 81//81 
f 84//84 82//82 77//77 
f 83//83 84//84 77//77 
f 82//82 85//85 81//81 
f 81//81 85//85 148//148 
f 82//82 84//84 85//85 
f 85//85 157//157 148//148 
f 85//85 86//86 157//157 
f 83//83 102//102 84//84 
f 102//102 85//85 84//84 
f 85//85 103//103 86//86 
f 102//102 103//103 85//85 
f 182//182 86//86 103//103 
f 89//89 87//87 32//32 
f 88//88 89//89 32//32 
f 91//91 88//88 56//56 
f 89//89 88//88 90//90 
f 90//90 88//88 91//91 
f 89//89 90//90 94//94 
f 94//94 87//87 89//89 
f 94//94 93//93 87//87 
f 96//96 93//93 94//94 
f 90//90 91//91 97//97 
f 56//56 92//92 91//91 
f 98//98 92//92 56//56 
f 97//97 91//91 92//92 
f 95//95 93//93 96//96 
f 93//93 95//95 76//76 
f 100//100 95//95 96//96 
f 90//90 96//96 94//94 
f 90//90 97//97 96//96 
f 96//96 97//97 100//100 
f 92//92 104//104 97//97 
f 100//100 97//97 105//105 
f 92//92 98//98 99//99 
f 60//60 99//99 98//98 
f 161//161 174//174 60//60 
f 99//99 60//60 174//174 
f 99//99 104//104 92//92 
f 104//104 99//99 175//175 
f 101//101 83//83 95//95 
f 101//101 102//102 83//83 
f 100//100 105//105 101//101 
f 95//95 100//100 101//101 
f 97//97 104//104 105//105 
f 104//104 106//106 105//105 
f 105//105 108//108 101//101 
f 106//106 104//104 175//175 
f 106//106 175//175 162//162 
f 106//106 162//162 185//185 
f 105//105 183//183 108//108 
f 105//105 106//106 183//183 
f 106//106 185//185 183//183 
f 107//107 102//102 101//101 
f 101//101 108//108 107//107 
f 183//183 109//109 108//108 
f 112//112 110//110 21//21 
f 110//110 112//112 111//111 
f 116//116 110//110 111//111 
f 28//28 112//112 21//21 
f 28//28 115//115 112//112 
f 115//115 141//141 112//112 
f 112//112 141//141 111//111 
f 24//24 117//117 113//113 
f 113//113 117//117 114//114 
f 24//24 110//110 116//116 
f 28//28 138//138 115//115 
f 141//141 122//122 111//111 
f 122//122 116//116 111//111 
f 24//24 116//116 118//118 
f 122//122 141//141 139//139 
f 117//117 24//24 118//118 
f 118//118 119//119 117//117 
f 130//130 117//117 119//119 
f 118//118 120//120 119//119 
f 143//143 120//120 118//118 
f 119//119 120//120 143//143 
f 143//143 121//121 119//119 
f 122//122 118//118 116//116 
f 122//122 139//139 118//118 
f 50//50 123//123 125//125 
f 125//125 123//123 124//124 
f 124//124 126//126 125//125 
f 58//58 125//125 126//126 
f 25//25 114//114 131//131 
f 124//124 25//25 127//127 
f 127//127 25//25 131//131 
f 124//124 127//127 128//128 
f 126//126 124//124 128//128 
f 128//128 127//127 129//129 
f 117//117 130//130 114//114 
f 114//114 130//130 131//131 
f 130//130 132//132 131//131 
f 132//132 130//130 137//137 
f 119//119 137//137 130//130 
f 121//121 137//137 119//119 
f 137//137 121//121 163//163 
f 137//137 133//133 132//132 
f 133//133 136//136 132//132 
f 129//129 127//127 131//131 
f 134//134 129//129 131//131 
f 134//134 131//131 132//132 
f 134//134 62//62 129//129 
f 61//61 134//134 135//135 
f 134//134 132//132 136//136 
f 135//135 134//134 136//136 
f 133//133 169//169 136//136 
f 135//135 136//136 169//169 
f 135//135 169//169 170//170 
f 137//137 163//163 164//164 
f 137//137 164//164 133//133 
f 133//133 164//164 168//168 
f 133//133 168//168 169//169 
f 61//61 135//135 161//161 
f 138//138 141//141 115//115 
f 138//138 140//140 141//141 
f 140//140 142//142 141//141 
f 142//142 140//140 150//150 
f 142//142 139//139 141//141 
f 118//118 139//139 142//142 
f 143//143 142//142 145//145 
f 118//118 142//142 143//143 
f 121//121 143//143 144//144 
f 146//146 121//121 144//144 
f 150//150 145//145 142//142 
f 145//145 147//147 144//144 
f 143//143 145//145 144//144 
f 81//81 148//148 140//140 
f 149//149 140//140 148//148 
f 148//148 157//157 149//149 
f 149//149 150//150 140//140 
f 147//147 145//145 150//150 
f 151//151 150//150 149//149 
f 150//150 151//151 147//147 
f 147//147 151//151 152//152 
f 144//144 153//153 146//146 
f 146//146 153//153 165//165 
f 153//153 144//144 147//147 
f 151//151 159//159 152//152 
f 147//147 152//152 153//153 
f 154//154 153//153 152//152 
f 153//153 154//154 193//193 
f 159//159 154//154 152//152 
f 159//159 160//160 154//154 
f 86//86 155//155 157//157 
f 86//86 182//182 155//155 
f 156//156 151//151 149//149 
f 149//149 157//157 156//156 
f 156//156 157//157 155//155 
f 155//155 158//158 156//156 
f 151//151 156//156 159//159 
f 156//156 158//158 159//159 
f 158//158 188//188 159//159 
f 188//188 158//158 192//192 
f 188//188 160//160 159//159 
f 121//121 146//146 163//163 
f 161//161 170//170 174//174 
f 174//174 175//175 99//99 
f 165//165 163//163 146//146 
f 167//167 164//164 163//163 
f 163//163 165//165 167//167 
f 164//164 167//167 168//168 
f 167//167 166//166 168//168 
f 166//166 167//167 195//195 
f 165//165 193//193 167//167 
f 166//166 171//171 169//169 
f 170//170 169//169 171//171 
f 169//169 168//168 166//166 
f 170//170 171//171 179//179 
f 195//195 171//171 166//166 
f 165//165 153//153 193//193 
f 180//180 171//171 199//199 
f 200//200 173//173 199//199 
f 199//199 173//173 180//180 
f 181//181 173//173 172//172 
f 170//170 161//161 135//135 
f 174//174 170//170 176//176 
f 162//162 175//175 177//177 
f 174//174 176//176 175//175 
f 175//175 176//176 177//177 
f 178//178 162//162 177//177 
f 178//178 177//177 181//181 
f 176//176 170//170 179//179 
f 179//179 180//180 176//176 
f 176//176 180//180 177//177 
f 180//180 181//181 177//177 
f 171//171 180//180 179//179 
f 181//181 180//180 173//173 
f 109//109 107//107 108//108 
f 184//184 182//182 109//109 
f 183//183 184//184 109//109 
f 183//183 186//186 184//184 
f 185//185 162//162 178//178 
f 183//183 185//185 186//186 
f 178//178 186//186 185//185 
f 184//184 186//186 191//191 
f 182//182 187//187 155//155 
f 187//187 158//158 155//155 
f 187//187 192//192 158//158 
f 182//182 184//184 187//187 
f 184//184 191//191 187//187 
f 189//189 192//192 191//191 
f 188//188 201//201 160//160 
f 201//201 188//188 203//203 
f 203//203 188//188 189//189 
f 192//192 189//189 188//188 
f 186//186 178//178 172//172 
f 172//172 190//190 191//191 
f 172//172 191//191 186//186 
f 202//202 190//190 173//173 
f 190//190 172//172 173//173 
f 189//189 191//191 190//190 
f 202//202 189//189 190//190 
f 187//187 191//191 192//192 
f 181//181 172//172 178//178 
f 194//194 167//167 193//193 
f 194//194 195//195 167//167 
f 196//196 195//195 194//194 
f 171//171 195//195 199//199 
f 193//193 154//154 194//194 
f 194//194 154//154 197//197 
f 194//194 197//197 196//196 
f 160//160 197//197 154//154 
f 160//160 201//201 197//197 
f 198//198 197//197 201//201 
f 197//197 198//198 196//196 
f 196//196 198//198 200//200 
f 195//195 196//196 199//199 
f 199//199 196//196 200//200 
f 200//200 202//202 173//173 
f 203//203 198//198 201//201 
f 200//200 198//198 202//202 
f 198//198 203//203 202//202 
f 202//202 203//203 189//189 
f 102//102 107//107 204//204 
f 107//107 103//103 204//204 
f 103//103 102//102 204//204 
f 182//182 205//205 109//109 
f 205//205 107//107 109//109 
f 107//107 205//205 103//103 
f 205//205 182//182 103//103 
