# PIPER geometrical reference model based on a manual segmentation. See the
# documentation for more info.
# Author: CEESAR, SOTON, UCBL-Ifsttar
# Version: 1.0.0
# License: Creative Commons Attribution 4.0 International License.
# (https://creativecommons.org/licenses/by/4.0/)
# 
# This work has received funding from the European Union Seventh Framework
# Program ([FP7/2007-2013]) under grant agreement 605544 [PIPER project]).
# Contributors include Pierre Maillez, Christophe Lecomte (SOTON), Erwan
# Jolivet (CEESAR), Philippe Beillas (UCBL-Ifsttar)
# This work is derived from a CT scan provided by CEESAR under a CCBY-4.0
# License
# 
# wavefront obj file written by the visualization toolkit

mtllib C:/desktop/registration_reference_model/22_REF_LTE635_Assembly_hands_corr/CCTu635_BP113_MetacarpusThumb_R.mtl

v 69.8696 246.426 -976.867
v 71.1924 244.166 -974.973
v 69.8458 245.745 -974.937
v 72.9297 244.35 -975.766
v 74.3133 246.183 -974.989
v 84.7466 245.436 -974.888
v 84.7175 245.97 -977.15
v 71.2951 246.207 -973.396
v 71.9865 247.623 -973.291
v 72.0112 248.383 -974.945
v 73.1174 246.339 -973.285
v 73.2453 248.332 -976.142
v 74.2748 247.885 -974.874
v 78.586 248.934 -974.597
v 78.4636 247.002 -975.343
v 79.7535 247.971 -974.162
v 81.6088 246.469 -975.475
v 78.4976 249.55 -976.362
v 82.1201 248.523 -973.565
v 79.1628 249.735 -975.4
v 84.2956 246.377 -973.694
v 83.9877 247.715 -973.849
v 83.9426 248.585 -975.524
v 70.0492 244.018 -977.422
v 71.2468 245.461 -978.312
v 72.9727 243.808 -977.406
v 74.588 246.114 -976.751
v 72.8258 244.957 -978.54
v 82.3779 245.756 -976.969
v 82.6306 246.083 -978.454
v 85.8863 246.416 -974.705
v 71.1877 247.203 -977.778
v 70.4637 248.013 -976.141
v 73.1958 247.11 -977.685
v 77.5019 248.135 -976.417
v 79.651 247.146 -978.443
v 80.0129 246.272 -977.797
v 81.8454 248.514 -978.453
v 79.4364 248.647 -977.902
v 81.0452 249.342 -976.903
v 81.2673 247.643 -979.079
v 83.5619 248.492 -977.134
v 83.5273 247.378 -978.466
v 85.2277 247.199 -976.591
v 67.99 238.485 -939.154
v 71.7201 237.009 -937.963
v 69.7683 238.862 -938.229
v 72.1835 238.82 -937.969
v 73.9955 238.039 -938.4
v 65.7353 235.375 -944.033
v 67.7393 234.097 -944.189
v 69.9698 235.229 -938.976
v 71.7662 234.489 -939.514
v 69.8246 233.53 -941.992
v 71.0608 233.606 -941.724
v 66.7194 234.948 -942.093
v 66.4836 237.697 -940.533
v 68.2452 240.868 -939.856
v 64.5332 237.182 -944.734
v 65.3523 237.188 -942.58
v 65.1959 236.119 -946.098
v 64.1251 238.046 -945.742
v 68.9934 236.368 -938.661
v 69.9645 233.944 -947.84
v 67.4495 234.164 -946.655
v 74.9999 234.497 -946.242
v 66.8923 236.109 -948.631
v 68.0819 234.512 -948.374
v 66.644 238.163 -949.84
v 67.8955 236.612 -951.903
v 64.8336 240.303 -947.256
v 68.8544 235.146 -951.804
v 70.3651 234.427 -952.516
v 72.6628 234.49 -951.992
v 71.3279 234.621 -955.872
v 67.9111 240.171 -952.112
v 69.013 236.027 -955.514
v 68.2033 237.74 -953.392
v 70.0205 240.29 -955.784
v 74.1946 236.486 -938.842
v 74.3925 234.952 -940.408
v 77.5205 236.669 -941.987
v 76.1714 239.608 -939.778
v 77.6415 238.261 -941.068
v 77.242 242.342 -940.765
v 78.6966 240.36 -941.805
v 73.3061 234.137 -941.507
v 79.7362 238.981 -943.319
v 79.6862 241.404 -943.155
v 79.6261 238.164 -944.448
v 79.7423 240.262 -944.882
v 77.7967 235.62 -944.994
v 79.0097 236.829 -944.271
v 79.3332 238.408 -947.014
v 78.9265 239.879 -948.351
v 77.0745 235.646 -949.499
v 78.5185 236.619 -948.316
v 77.3127 241.638 -949.992
v 78.2604 240.758 -953.745
v 79.1172 238.384 -951.001
v 76.0081 235.25 -954.165
v 78.0268 236.268 -953.829
v 79.3174 236.848 -958.142
v 78.2086 241.226 -957.523
v 79.9129 237.697 -957.66
v 79.0899 237.391 -953.938
v 79.6118 238.561 -954.749
v 79.2194 239.451 -953.656
v 79.7166 240.386 -958.519
v 65.7644 242.093 -941.898
v 67.5951 243.343 -940.429
v 69.2556 244.055 -939.662
v 67.1174 246.361 -940.295
v 64.674 240.538 -943.723
v 64.5261 242.188 -945.474
v 64.9619 243.769 -945.431
v 66.2398 246.733 -941.439
v 66.5049 247.449 -942.601
v 70.8621 241.545 -939.078
v 71.6586 244.716 -939.313
v 74.0695 241.954 -939.432
v 70.0583 247.504 -938.996
v 74.0914 245.62 -939.692
v 71.617 247.624 -939.012
v 74.1745 246.987 -940.616
v 73.9795 247.135 -942.438
v 74.7537 244.83 -945.923
v 72.0853 246.981 -944.583
v 67.7625 247.987 -940.141
v 68.3111 248.302 -941.478
v 70.5284 248.186 -942.203
v 70.5194 248.603 -939.914
v 65.631 243.239 -947.553
v 66.0857 245.795 -945.637
v 67.6654 246.879 -945.968
v 68.0943 241.859 -951.447
v 69.0092 247.292 -945.58
v 72.2859 245.042 -947.629
v 67.3317 245.422 -948.092
v 69.2777 243.201 -951.396
v 74.7557 243.92 -947.554
v 71.6919 243.495 -951.435
v 74.7574 243.075 -950.165
v 68.9965 245.69 -948.169
v 70.3079 242.047 -954.03
v 73.8452 242.733 -953.613
v 72.4158 242.666 -955.053
v 74.186 242.455 -956.981
v 71.3053 241.424 -956.512
v 76.3513 244.941 -940.461
v 79.22 242.6 -944.097
v 78.408 243.727 -942.47
v 78.4906 241.421 -946.765
v 77.401 245.48 -943.35
v 78.1538 244.831 -943.509
v 77.2666 242.722 -946.505
v 76.2228 241.963 -954.443
v 77.062 241.844 -959.104
v 71.2544 235.088 -960.425
v 72.9361 234.739 -959.711
v 69.9687 235.285 -956.674
v 70.2493 236.381 -960.36
v 69.554 237.724 -957.588
v 70.6888 238.56 -960.565
v 71.7993 240.455 -962.575
v 71.022 240.082 -958.674
v 70.6802 236.117 -964.394
v 70.8184 238.153 -963.625
v 72.3251 234.845 -963.804
v 73.4623 234.599 -964.984
v 72.346 234.583 -969.632
v 74.8113 234.144 -968.764
v 71.6109 235.228 -964.289
v 71.305 240.08 -966.64
v 70.2924 235.88 -968.969
v 70.1879 237.322 -967.219
v 69.7737 237.277 -970.017
v 70.6736 240.098 -969.717
v 72.5299 234.315 -972.277
v 70.9087 235.28 -973.48
v 70.1622 240.31 -972.505
v 70.3041 237.205 -973.328
v 74.0712 234.529 -975.627
v 73.0015 236.877 -977.772
v 70.9357 238.009 -975.141
v 71.7975 239.122 -976.834
v 73.8035 239.082 -978.314
v 74.6106 234.858 -957.919
v 74.8706 234.704 -963.045
v 78.0973 235.901 -959.029
v 76.5217 235.156 -960.779
v 78.6356 235.512 -964.456
v 79.9931 236.444 -962.959
v 79.8192 241.172 -961.822
v 80.7144 237.451 -961.56
v 80.7919 238.266 -959.977
v 81.5466 239.251 -961.731
v 82.1485 238.389 -964.227
v 81.2656 240.457 -962.651
v 76.8292 234.773 -966.203
v 76.8472 234.211 -970.582
v 79.2368 234.959 -969.681
v 83.4123 240.089 -966.063
v 81.0577 235.904 -968.205
v 82.0611 237.113 -966.487
v 84.3372 238.185 -969.573
v 75.7295 234.16 -974.569
v 78.6419 234.5 -972.495
v 81.0724 234.434 -975.042
v 77.4476 234.451 -976.729
v 80.3145 234.746 -972.617
v 80.8715 235.381 -976.67
v 82.2953 235.101 -973.264
v 84.0754 236.334 -972.46
v 83.748 237.946 -974.602
v 84.4458 239.903 -972.59
v 84.4395 237.634 -971.825
v 82.2271 236.031 -976.145
v 82.7836 239.054 -976.701
v 81.0655 237.445 -977.53
v 80.8861 240.709 -977.865
v 82.892 241.995 -976.637
v 83.9927 241.841 -975.477
v 77.3302 236.005 -978.011
v 74.9073 235.468 -977.608
v 78.5831 238.304 -978.385
v 75.0294 236.889 -978.53
v 76.6051 240.083 -978.682
v 78.7639 240.616 -978.566
v 72.7593 242.033 -959.021
v 75.94 242.341 -962.084
v 73.7126 242.441 -959.974
v 73.1893 242.083 -962.74
v 72.804 242.197 -966.754
v 73.5389 243.456 -970.097
v 75.2332 242.782 -965.983
v 71.5439 242.253 -969.946
v 70.5177 241.627 -974.53
v 71.068 243.351 -971.978
v 73.6291 244.296 -972.805
v 71.0248 243.515 -973.685
v 71.0567 242.37 -975.393
v 73.357 243.873 -974.569
v 72.9666 241.536 -977.403
v 72.7982 242.778 -976.355
v 75.2051 241.746 -978.293
v 78.0205 241.907 -961.784
v 77.2041 242.825 -965.4
v 78.9273 242.39 -964.711
v 78.722 243.791 -968.824
v 81.0286 245.233 -970.739
v 81.8352 241.387 -965.121
v 80.9512 243.302 -967.94
v 83.0988 241.458 -966.362
v 83.9456 241.513 -968.404
v 84.6069 240.257 -969.821
v 76.5747 244.395 -971.249
v 79.3135 245.275 -971.347
v 77.6722 245.153 -973.177
v 81.4747 246.439 -973.434
v 79.0632 245.609 -974.79
v 75.9759 244.904 -975.432
v 78.4485 244.438 -977.19
v 80.4799 245.28 -975.615
v 83.6481 243.151 -973.816
v 82.8521 245.016 -973.263
v 82.0993 245.552 -971.887
v 81.0567 243.552 -977.108
v 82.6998 244.269 -975.362
v 75.5263 243.179 -977.768
v 78.3177 242.404 -978.217
v 70.7522 233.701 -943.441
v 70.3026 237.031 -972.757
v 82.2524 248.935 -977.014
v 71.1254 247.761 -976.742
vn -0.906956 0.23154 -0.351881
vn -0.207595 -0.831765 0.51485
vn -0.896156 -0.0949793 0.433455
vn 0.508008 -0.780683 0.363954
vn 0.866542 -0.33832 0.36694
vn 0.222764 -0.941375 0.253358
vn 0.589053 -0.616183 -0.522814
vn -0.440467 -0.176387 0.880271
vn -0.171066 0.557308 0.812492
vn -0.128891 0.9675 0.217559
vn 0.438024 -0.222755 0.870928
vn 0.340613 0.887986 -0.308973
vn 0.761351 0.592896 0.262334
vn -0.599016 0.354308 0.718085
vn -0.581318 -0.697415 0.419145
vn -0.305954 -0.328153 0.893704
vn -0.282838 -0.879805 0.382029
vn -0.517071 0.82256 -0.236711
vn 0.0704487 0.498957 0.863759
vn -0.172321 0.953031 0.249074
vn 0.139823 -0.411013 0.900843
vn 0.458362 0.514802 0.724488
vn 0.506527 0.856326 0.100676
vn -0.669242 -0.639311 -0.378678
vn -0.336752 0.0511258 -0.940204
vn 0.4251 -0.867252 -0.259158
vn 0.955195 -0.0615495 -0.289506
vn 0.302366 -0.219447 -0.927587
vn -0.15978 -0.987146 -0.00375599
vn 0.121595 -0.698058 -0.705641
vn 0.944491 -0.0982625 0.313498
vn -0.293362 0.554363 -0.778859
vn -0.631125 0.770337 -0.0908986
vn 0.391358 0.527102 -0.754323
vn -0.986583 -0.031215 -0.160247
vn -0.531226 -0.277758 -0.800406
vn -0.383804 -0.869007 -0.312283
vn 0.173565 0.730254 -0.66076
vn -0.374241 0.56784 -0.733146
vn 0.132056 0.957368 -0.256919
vn -0.076481 0.09743 -0.992299
vn 0.483415 0.803434 -0.347567
vn 0.527482 0.194555 -0.826989
vn 0.866205 0.335666 -0.370159
vn -0.606952 0.113248 0.786628
vn 0.0363991 -0.251572 0.967154
vn -0.297106 0.169913 0.939605
vn 0.089977 0.171967 0.980985
vn 0.406844 -0.0202616 0.913273
vn -0.739023 -0.660467 0.132771
vn -0.368877 -0.928869 0.033635
vn -0.241514 -0.643905 0.725987
vn 0.0970131 -0.781136 0.616778
vn -0.177281 -0.962403 0.205796
vn 0.0963026 -0.981515 0.16539
vn -0.630229 -0.675697 0.38242
vn -0.755681 -0.121379 0.643595
vn -0.50545 0.18422 0.842961
vn -0.923978 -0.331205 0.191228
vn -0.872966 -0.235582 0.42712
vn -0.789733 -0.550114 -0.27147
vn -0.975728 -0.174097 -0.132834
vn -0.448029 -0.331099 0.830448
vn -0.0640219 -0.992592 -0.103262
vn -0.441791 -0.877737 -0.185468
vn 0.28499 -0.958092 -0.0290041
vn -0.774272 -0.490533 -0.399851
vn -0.511336 -0.811701 -0.282272
vn -0.871988 -0.174462 -0.457383
vn -0.877112 -0.373277 -0.302223
vn -0.894143 0.0724205 -0.441887
vn -0.665013 -0.708144 -0.237253
vn -0.22258 -0.966862 -0.125045
vn 0.114426 -0.991731 -0.0581024
vn -0.180179 -0.979994 -0.0845371
vn -0.840104 0.224737 -0.493678
vn -0.88919 -0.383 -0.250303
vn -0.945456 -0.0359018 -0.323765
vn -0.770417 0.502609 -0.392227
vn 0.444233 -0.408042 0.797596
vn 0.462222 -0.75057 0.472224
vn 0.657395 -0.5775 0.484071
vn 0.522891 0.0447991 0.851221
vn 0.676531 -0.242044 0.695501
vn 0.591953 0.126586 0.795969
vn 0.725889 0.0156806 0.687633
vn 0.297934 -0.93505 0.192139
vn 0.925002 -0.188284 0.33003
vn 0.934468 0.198446 0.295615
vn 0.958575 -0.284674 -0.00975693
vn 0.975485 0.140274 -0.169564
vn 0.557013 -0.826938 0.076872
vn 0.794573 -0.581672 0.174098
vn 0.979735 -0.153493 -0.128682
vn 0.919589 0.36794 -0.137751
vn 0.500619 -0.865018 -0.0335457
vn 0.794173 -0.605075 -0.0563354
vn 0.628174 0.769067 -0.118035
vn 0.664107 0.745705 0.0537206
vn 0.994143 -0.096739 0.0481717
vn 0.331607 -0.943395 0.00648026
vn 0.590719 -0.806233 0.0322208
vn 0.671422 -0.729219 0.132031
vn 0.469873 0.876977 0.100649
vn 0.830031 -0.525907 0.185663
vn 0.856739 -0.506851 0.0953952
vn 0.972183 -0.103699 0.210016
vn 0.904697 0.405513 0.130699
vn 0.668267 0.716894 0.198699
vn -0.779025 0.0309001 0.626231
vn -0.517301 -0.0349296 0.85509
vn -0.292358 -0.0216716 0.956063
vn -0.607086 0.0396646 0.793645
vn -0.940809 0.0557291 0.334325
vn -0.976703 0.211631 -0.035548
vn -0.941005 0.31883 -0.113385
vn -0.870361 0.329527 0.365902
vn -0.665039 0.7422 -0.0828404
vn -0.123812 0.229219 0.965468
vn 0.0294554 -0.0228812 0.999304
vn 0.256824 0.162028 0.952779
vn -0.181616 0.270828 0.94534
vn 0.349027 0.228913 0.908724
vn 0.264038 0.453823 0.851075
vn 0.514813 0.763333 0.390244
vn 0.364561 0.916953 -0.16215
vn 0.408945 0.757826 -0.508393
vn 0.283066 0.864973 -0.414363
vn -0.513534 0.640155 0.571388
vn -0.229181 0.969693 -0.08468
vn 0.135227 0.962516 -0.235111
vn 0.0696908 0.945002 0.319553
vn -0.817754 0.324851 -0.475131
vn -0.749706 0.583736 -0.311758
vn -0.344742 0.849247 -0.399914
vn -0.693295 0.40685 -0.594824
vn 0.010629 0.916145 -0.400707
vn 0.312078 0.845244 -0.433786
vn -0.485572 0.664612 -0.5679
vn -0.366382 0.717284 -0.592679
vn 0.458056 0.818431 -0.346924
vn 0.0500018 0.924823 -0.377097
vn 0.382754 0.895787 -0.225975
vn 0.0148424 0.838426 -0.544814
vn -0.557185 0.713459 -0.424877
vn 0.194029 0.971521 -0.136011
vn -0.211432 0.952437 -0.219456
vn 0.0780704 0.99577 -0.0484512
vn -0.659924 0.689041 -0.299539
vn 0.58636 0.385192 0.712608
vn 0.871892 0.444057 -0.206442
vn 0.810504 0.382645 0.443471
vn 0.769797 0.55818 -0.309592
vn 0.59204 0.796599 -0.122145
vn 0.739159 0.667621 -0.0890239
vn 0.578013 0.705405 -0.41025
vn 0.385881 0.922263 -0.0229324
vn 0.298444 0.950976 0.081086
vn -0.509749 -0.855485 -0.0911097
vn -0.0571325 -0.998212 -0.017594
vn -0.600243 -0.779747 -0.178053
vn -0.952002 -0.24089 -0.18885
vn -0.935375 0.187962 -0.299573
vn -0.935125 0.315369 -0.161508
vn -0.844838 0.534479 -0.0240852
vn -0.821842 0.524561 -0.222289
vn -0.921035 -0.387811 0.0360126
vn -0.968927 0.247249 0.00693885
vn -0.317631 -0.948189 -0.00699029
vn -0.114256 -0.991791 0.0574142
vn -0.369353 -0.927561 0.0566529
vn -0.0181274 -0.997439 0.0691894
vn -0.577753 -0.816204 -0.00352196
vn -0.883332 0.445678 0.145245
vn -0.81283 -0.580624 0.0467287
vn -0.989131 0.0699695 0.12932
vn -0.996049 -0.0882138 0.0102834
vn -0.925125 0.320666 0.203266
vn -0.311029 -0.949479 -0.0418421
vn -0.738135 -0.618742 -0.268915
vn -0.989174 0.146743 -0.00144628
vn -0.945653 -0.179328 -0.27126
vn -0.305438 -0.881214 -0.36079
vn -0.571923 -0.35921 -0.737477
vn -0.871392 -0.201153 -0.447453
vn -0.756102 -0.0129525 -0.654325
vn -0.380955 0.0515187 -0.923157
vn 0.150415 -0.988572 0.0100812
vn 0.0980229 -0.993434 0.0589936
vn 0.463399 -0.881791 0.087789
vn 0.272436 -0.959969 0.0651032
vn 0.363055 -0.923132 0.126566
vn 0.553063 -0.815785 0.169164
vn 0.454321 0.858518 0.23778
vn 0.749399 -0.628359 0.208727
vn 0.890366 -0.395172 0.226024
vn 0.934039 0.122203 0.335615
vn 0.856897 -0.416368 0.303918
vn 0.692764 0.615508 0.375804
vn 0.224579 -0.968432 0.108184
vn 0.151073 -0.986888 0.0568228
vn 0.275216 -0.949686 0.149508
vn 0.897192 0.0756594 0.435113
vn 0.440517 -0.871655 0.214853
vn 0.662509 -0.698652 0.270125
vn 0.904598 -0.342863 0.253274
vn -0.0280147 -0.995929 -0.0856821
vn 0.141116 -0.986576 0.0821884
vn 0.372203 -0.910023 -0.182545
vn 0.0500001 -0.869681 -0.491076
vn 0.191142 -0.968271 0.160983
vn 0.368973 -0.617924 -0.694283
vn 0.486661 -0.873298 0.0226027
vn 0.814578 -0.579159 -0.0321994
vn 0.902058 -0.211995 -0.375966
vn 0.990605 0.0400829 -0.130752
vn 0.982445 -0.178908 -0.0528508
vn 0.678568 -0.488818 -0.548273
vn 0.695849 -0.132778 -0.705807
vn 0.412055 -0.238794 -0.879311
vn 0.384208 0.0670624 -0.920808
vn 0.611452 0.207001 -0.763726
vn 0.903704 0.177171 -0.389781
vn 0.124367 -0.456892 -0.880785
vn -0.228595 -0.690641 -0.686119
vn 0.191101 -0.15432 -0.969364
vn -0.132281 -0.282922 -0.949977
vn -0.0253636 0.0566893 -0.99807
vn 0.18568 0.0769431 -0.979593
vn -0.546983 0.831931 -0.0932713
vn 0.0620305 0.994412 0.0854247
vn -0.199778 0.979464 -0.0271762
vn -0.473288 0.880783 0.0148488
vn -0.565006 0.802305 0.192546
vn -0.284254 0.910704 0.299697
vn -0.159076 0.972992 0.167277
vn -0.705512 0.609331 0.361896
vn -0.951982 0.149759 -0.267024
vn -0.692704 0.67909 0.242893
vn -0.256642 0.962267 0.09043
vn -0.675671 0.722734 -0.145341
vn -0.733934 0.416741 -0.536347
vn -0.351531 0.889503 -0.291909
vn -0.522016 0.312411 -0.793662
vn -0.442005 0.680221 -0.584748
vn -0.215104 0.269714 -0.938608
vn 0.281308 0.94251 0.180389
vn 0.0298849 0.974516 0.222317
vn 0.238023 0.924718 0.297055
vn -0.0780183 0.918838 0.386845
vn 0.0971389 0.860068 0.500847
vn 0.531219 0.724182 0.439735
vn 0.201226 0.853417 0.48082
vn 0.668805 0.542504 0.50832
vn 0.878094 0.398384 0.265033
vn 0.985426 0.121673 0.118876
vn -0.200651 0.926657 0.317876
vn -0.224341 0.908917 0.351485
vn -0.25492 0.957621 0.134085
vn 0.248928 0.966261 -0.0661401
vn -0.175612 0.956277 -0.233868
vn -0.27769 0.920837 -0.273767
vn 0.00783345 0.710254 -0.703902
vn 0.18175 0.80594 -0.563407
vn 0.925854 0.371784 -0.0676114
vn 0.820613 0.570012 -0.0409904
vn 0.535578 0.772353 0.341506
vn 0.362021 0.464179 -0.80838
vn 0.660183 0.573686 -0.484811
vn -0.24796 0.591215 -0.76745
vn 0.102086 0.321268 -0.94147
vn 0.0837836 -0.994021 -0.0700158
vn -0.925031 -0.362762 -0.112788
vn 0.291458 0.927349 -0.234681
vn -0.100399 0.873518 -0.476325

g grp1
usemtl mtl1
f 2//2 11//11 8//8 
f 2//2 8//8 3//3 
f 9//9 3//3 8//8 
f 24//24 2//2 3//3 
f 2//2 4//4 11//11 
f 4//4 5//5 11//11 
f 21//21 6//6 31//31 
f 17//17 29//29 6//6 
f 6//6 7//7 31//31 
f 3//3 33//33 1//1 
f 33//33 3//3 9//9 
f 9//9 10//10 33//33 
f 10//10 12//12 33//33 
f 13//13 9//9 11//11 
f 8//8 11//11 9//9 
f 11//11 5//5 13//13 
f 9//9 13//13 10//10 
f 12//12 10//10 13//13 
f 27//27 13//13 5//5 
f 13//13 27//27 34//34 
f 13//13 34//34 12//12 
f 16//16 15//15 17//17 
f 15//15 16//16 14//14 
f 17//17 15//15 37//37 
f 15//15 14//14 35//35 
f 14//14 18//18 35//35 
f 21//21 16//16 17//17 
f 19//19 14//14 16//16 
f 19//19 16//16 21//21 
f 14//14 20//20 18//18 
f 19//19 20//20 14//14 
f 23//23 20//20 19//19 
f 40//40 18//18 20//20 
f 23//23 40//40 20//20 
f 21//21 31//31 22//22 
f 17//17 6//6 21//21 
f 22//22 19//19 21//21 
f 19//19 22//22 23//23 
f 22//22 31//31 23//23 
f 23//23 31//31 44//44 
f 2//2 24//24 26//26 
f 4//4 2//2 26//26 
f 24//24 28//28 26//26 
f 3//3 1//1 24//24 
f 24//24 1//1 25//25 
f 24//24 25//25 28//28 
f 1//1 32//32 25//25 
f 32//32 34//34 25//25 
f 28//28 25//25 34//34 
f 26//26 27//27 4//4 
f 4//4 27//27 5//5 
f 27//27 26//26 28//28 
f 27//27 28//28 34//34 
f 17//17 37//37 29//29 
f 37//37 30//30 29//29 
f 6//6 29//29 30//30 
f 30//30 7//7 6//6 
f 32//32 12//12 34//34 
f 1//1 33//33 32//32 
f 15//15 35//35 37//37 
f 18//18 39//39 35//35 
f 36//36 37//37 35//35 
f 35//35 39//39 36//36 
f 41//41 36//36 39//39 
f 39//39 38//38 41//41 
f 37//37 36//36 30//30 
f 38//38 39//39 40//40 
f 18//18 40//40 39//39 
f 36//36 41//41 30//30 
f 41//41 38//38 43//43 
f 42//42 23//23 44//44 
f 30//30 43//43 7//7 
f 44//44 7//7 43//43 
f 43//43 38//38 42//42 
f 43//43 42//42 44//44 
f 31//31 7//7 44//44 
f 41//41 43//43 30//30 
f 45//45 63//63 47//47 
f 46//46 47//47 63//63 
f 48//48 47//47 46//46 
f 46//46 63//63 52//52 
f 53//53 80//80 46//46 
f 80//80 49//49 46//46 
f 46//46 49//49 48//48 
f 48//48 49//49 121//121 
f 48//48 119//119 47//47 
f 48//48 121//121 119//119 
f 56//56 50//50 51//51 
f 51//51 50//50 65//65 
f 56//56 54//54 52//52 
f 54//54 55//55 53//53 
f 54//54 53//53 52//52 
f 53//53 55//55 87//87 
f 53//53 87//87 81//81 
f 54//54 56//56 51//51 
f 55//55 66//66 87//87 
f 57//57 56//56 63//63 
f 57//57 60//60 56//56 
f 45//45 58//58 57//57 
f 110//110 57//57 58//58 
f 111//111 110//110 58//58 
f 56//56 60//60 50//50 
f 60//60 59//59 50//50 
f 50//50 59//59 61//61 
f 59//59 60//60 114//114 
f 114//114 62//62 59//59 
f 114//114 115//115 62//62 
f 114//114 60//60 57//57 
f 110//110 114//114 57//57 
f 56//56 52//52 63//63 
f 57//57 63//63 45//45 
f 53//53 46//46 52//52 
f 81//81 80//80 53//53 
f 58//58 45//45 47//47 
f 47//47 119//119 58//58 
f 64//64 54//54 51//51 
f 51//51 65//65 64//64 
f 64//64 65//65 68//68 
f 74//74 66//66 55//55 
f 72//72 73//73 68//68 
f 64//64 68//68 73//73 
f 73//73 74//74 64//64 
f 50//50 61//61 65//65 
f 59//59 62//62 61//61 
f 61//61 62//62 67//67 
f 67//67 65//65 61//61 
f 65//65 67//67 68//68 
f 115//115 71//71 62//62 
f 68//68 67//67 72//72 
f 67//67 70//70 72//72 
f 69//69 67//67 62//62 
f 67//67 69//69 70//70 
f 62//62 71//71 69//69 
f 76//76 69//69 71//71 
f 71//71 133//133 76//76 
f 133//133 136//136 76//76 
f 72//72 161//161 73//73 
f 161//161 75//75 73//73 
f 75//75 74//74 73//73 
f 66//66 74//74 101//101 
f 74//74 75//75 160//160 
f 160//160 188//188 74//74 
f 159//159 160//160 75//75 
f 69//69 76//76 78//78 
f 70//70 77//77 72//72 
f 69//69 78//78 70//70 
f 70//70 78//78 77//77 
f 77//77 161//161 72//72 
f 136//136 145//145 76//76 
f 79//79 76//76 145//145 
f 75//75 161//161 159//159 
f 78//78 76//76 163//163 
f 79//79 163//163 76//76 
f 145//145 149//149 79//79 
f 163//163 79//79 166//166 
f 166//166 79//79 149//149 
f 80//80 81//81 82//82 
f 81//81 87//87 92//92 
f 92//92 82//82 81//81 
f 84//84 80//80 82//82 
f 80//80 83//83 49//49 
f 121//121 49//49 83//83 
f 80//80 84//84 83//83 
f 85//85 83//83 86//86 
f 86//86 83//83 84//84 
f 84//84 82//82 88//88 
f 84//84 88//88 86//86 
f 82//82 92//92 93//93 
f 66//66 92//92 87//87 
f 88//88 82//82 93//93 
f 86//86 88//88 89//89 
f 93//93 90//90 88//88 
f 88//88 90//90 91//91 
f 89//89 88//88 91//91 
f 93//93 92//92 97//97 
f 93//93 97//97 94//94 
f 90//90 93//93 94//94 
f 96//96 97//97 92//92 
f 90//90 94//94 91//91 
f 91//91 94//94 95//95 
f 91//91 95//95 153//153 
f 95//95 98//98 153//153 
f 92//92 66//66 96//96 
f 66//66 101//101 96//96 
f 101//101 102//102 96//96 
f 106//106 100//100 97//97 
f 96//96 102//102 97//97 
f 102//102 106//106 97//97 
f 95//95 99//99 98//98 
f 94//94 97//97 100//100 
f 94//94 100//100 95//95 
f 95//95 100//100 108//108 
f 108//108 99//99 95//95 
f 101//101 74//74 188//188 
f 102//102 101//101 190//190 
f 190//190 103//103 102//102 
f 102//102 103//103 106//106 
f 157//157 99//99 104//104 
f 100//100 106//106 107//107 
f 107//107 108//108 100//100 
f 101//101 188//188 191//191 
f 101//101 191//191 190//190 
f 106//106 103//103 105//105 
f 105//105 103//103 195//195 
f 106//106 105//105 107//107 
f 109//109 104//104 99//99 
f 99//99 108//108 109//109 
f 108//108 107//107 197//197 
f 108//108 197//197 109//109 
f 111//111 58//58 112//112 
f 122//122 113//113 112//112 
f 112//112 113//113 111//111 
f 122//122 129//129 113//113 
f 113//113 129//129 117//117 
f 113//113 117//117 110//110 
f 110//110 111//111 113//113 
f 117//117 129//129 118//118 
f 114//114 110//110 117//117 
f 114//114 116//116 115//115 
f 114//114 117//117 116//116 
f 118//118 116//116 117//117 
f 137//137 118//118 130//130 
f 129//129 130//130 118//118 
f 118//118 134//134 116//116 
f 135//135 134//134 118//118 
f 118//118 137//137 135//135 
f 119//119 112//112 58//58 
f 120//120 112//112 119//119 
f 119//119 121//121 120//120 
f 123//123 120//120 121//121 
f 122//122 112//112 120//120 
f 124//124 122//122 120//120 
f 120//120 123//123 124//124 
f 124//124 123//123 125//125 
f 125//125 126//126 132//132 
f 130//130 131//131 137//137 
f 128//128 137//137 131//131 
f 131//131 126//126 128//128 
f 154//154 128//128 126//126 
f 127//127 128//128 154//154 
f 132//132 129//129 122//122 
f 129//129 132//132 130//130 
f 132//132 131//131 130//130 
f 122//122 124//124 132//132 
f 125//125 132//132 124//124 
f 132//132 126//126 131//131 
f 133//133 71//71 115//115 
f 133//133 115//115 116//116 
f 139//139 133//133 134//134 
f 116//116 134//134 133//133 
f 134//134 135//135 139//139 
f 135//135 144//144 139//139 
f 133//133 139//139 136//136 
f 127//127 156//156 141//141 
f 143//143 141//141 156//156 
f 135//135 137//137 144//144 
f 138//138 144//144 137//137 
f 141//141 138//138 127//127 
f 128//128 138//138 137//137 
f 128//128 127//127 138//138 
f 140//140 136//136 139//139 
f 139//139 144//144 140//140 
f 142//142 140//140 144//144 
f 138//138 142//142 144//144 
f 143//143 138//138 141//141 
f 143//143 146//146 142//142 
f 142//142 138//138 143//143 
f 136//136 140//140 145//145 
f 140//140 142//142 145//145 
f 142//142 147//147 145//145 
f 142//142 146//146 147//147 
f 145//145 147//147 149//149 
f 148//148 147//147 146//146 
f 157//157 148//148 146//146 
f 230//230 149//149 147//147 
f 147//147 148//148 230//230 
f 83//83 85//85 121//121 
f 121//121 150//150 123//123 
f 121//121 85//85 150//150 
f 152//152 85//85 86//86 
f 150//150 85//85 152//152 
f 123//123 150//150 125//125 
f 150//150 152//152 154//154 
f 150//150 154//154 125//125 
f 125//125 154//154 126//126 
f 156//156 127//127 154//154 
f 155//155 156//156 154//154 
f 152//152 86//86 89//89 
f 152//152 89//89 151//151 
f 152//152 151//151 155//155 
f 151//151 91//91 153//153 
f 89//89 91//91 151//151 
f 151//151 156//156 155//155 
f 154//154 152//152 155//155 
f 151//151 153//153 156//156 
f 98//98 156//156 153//153 
f 156//156 98//98 143//143 
f 143//143 157//157 146//146 
f 98//98 157//157 143//143 
f 98//98 99//99 157//157 
f 157//157 104//104 158//158 
f 157//157 158//158 148//148 
f 160//160 169//169 170//170 
f 77//77 162//162 161//161 
f 161//161 162//162 159//159 
f 163//163 77//77 78//78 
f 77//77 163//163 162//162 
f 163//163 164//164 162//162 
f 160//160 159//159 169//169 
f 163//163 166//166 164//164 
f 166//166 165//165 164//164 
f 162//162 167//167 159//159 
f 168//168 162//162 164//164 
f 168//168 167//167 162//162 
f 176//176 167//167 168//168 
f 159//159 173//173 169//169 
f 159//159 167//167 173//173 
f 164//164 165//165 168//168 
f 169//169 171//171 170//170 
f 170//170 171//171 172//172 
f 171//171 179//179 172//172 
f 175//175 173//173 167//167 
f 167//167 176//176 175//175 
f 165//165 174//174 168//168 
f 168//168 174//174 176//176 
f 176//176 174//174 178//178 
f 173//173 175//175 171//171 
f 175//175 176//176 177//177 
f 176//176 178//178 177//177 
f 169//169 173//173 171//171 
f 178//178 181//181 177//177 
f 172//172 179//179 207//207 
f 179//179 183//183 207//207 
f 180//180 179//179 175//175 
f 171//171 175//175 179//179 
f 181//181 182//182 177//177 
f 179//179 180//180 183//183 
f 181//181 238//238 182//182 
f 180//180 184//184 183//183 
f 184//184 180//180 182//182 
f 182//182 185//185 184//184 
f 225//225 183//183 184//184 
f 186//186 184//184 185//185 
f 182//182 238//238 185//185 
f 238//238 186//186 185//185 
f 242//242 186//186 238//238 
f 244//244 186//186 242//242 
f 227//227 225//225 184//184 
f 187//187 184//184 186//186 
f 184//184 187//187 227//227 
f 186//186 244//244 187//187 
f 246//246 187//187 244//244 
f 188//188 160//160 189//189 
f 189//189 191//191 188//188 
f 160//160 170//170 189//189 
f 189//189 170//170 172//172 
f 191//191 189//189 200//200 
f 103//103 190//190 193//193 
f 103//103 193//193 195//195 
f 105//105 195//195 196//196 
f 190//190 191//191 192//192 
f 192//192 193//193 190//190 
f 105//105 196//196 107//107 
f 104//104 109//109 194//194 
f 197//197 199//199 109//109 
f 199//199 194//194 109//109 
f 200//200 192//192 191//191 
f 107//107 196//196 197//197 
f 196//196 195//195 198//198 
f 196//196 198//198 197//197 
f 197//197 198//198 203//203 
f 199//199 197//197 203//203 
f 194//194 199//199 252//252 
f 199//199 203//203 252//252 
f 172//172 200//200 189//189 
f 172//172 201//201 200//200 
f 172//172 207//207 201//201 
f 201//201 202//202 200//200 
f 200//200 202//202 192//192 
f 204//204 193//193 192//192 
f 192//192 202//202 204//204 
f 195//195 193//193 205//205 
f 205//205 198//198 195//195 
f 193//193 204//204 205//205 
f 252//252 203//203 254//254 
f 205//205 206//206 198//198 
f 198//198 206//206 203//203 
f 254//254 203//203 255//255 
f 205//205 204//204 214//214 
f 214//214 206//206 205//205 
f 204//204 202//202 213//213 
f 213//213 214//214 204//204 
f 203//203 206//206 256//256 
f 203//203 256//256 255//255 
f 206//206 217//217 256//256 
f 201//201 207//207 208//208 
f 201//201 208//208 202//202 
f 208//208 209//209 211//211 
f 183//183 210//210 207//207 
f 208//208 207//207 209//209 
f 209//209 207//207 210//210 
f 202//202 208//208 211//211 
f 213//213 202//202 211//211 
f 183//183 225//225 210//210 
f 225//225 224//224 210//210 
f 209//209 210//210 212//212 
f 224//224 212//212 210//210 
f 224//224 220//220 212//212 
f 209//209 213//213 211//211 
f 214//214 213//213 218//218 
f 214//214 218//218 215//215 
f 214//214 217//217 206//206 
f 215//215 217//217 214//214 
f 256//256 217//217 216//216 
f 256//256 216//216 265//265 
f 217//217 215//215 216//216 
f 213//213 209//209 218//218 
f 212//212 218//218 209//209 
f 220//220 218//218 212//212 
f 218//218 220//220 219//219 
f 219//219 215//215 218//218 
f 216//216 215//215 223//223 
f 219//219 223//223 215//215 
f 220//220 221//221 219//219 
f 221//221 222//222 219//219 
f 219//219 222//222 223//223 
f 225//225 227//227 224//224 
f 227//227 226//226 224//224 
f 226//226 220//220 224//224 
f 227//227 187//187 228//228 
f 228//228 226//226 227//227 
f 187//187 246//246 228//228 
f 226//226 228//228 229//229 
f 226//226 229//229 221//221 
f 220//220 226//226 221//221 
f 149//149 230//230 166//166 
f 148//148 232//232 230//230 
f 231//231 232//232 148//148 
f 166//166 230//230 165//165 
f 230//230 233//233 165//165 
f 233//233 230//230 232//232 
f 232//232 231//231 233//233 
f 236//236 233//233 231//231 
f 233//233 234//234 165//165 
f 233//233 236//236 234//234 
f 234//234 174//174 165//165 
f 234//234 236//236 235//235 
f 239//239 178//178 237//237 
f 234//234 237//237 174//174 
f 174//174 237//237 178//178 
f 234//234 235//235 237//237 
f 237//237 235//235 239//239 
f 178//178 239//239 181//181 
f 239//239 241//241 181//181 
f 181//181 241//241 238//238 
f 235//235 240//240 239//239 
f 239//239 240//240 241//241 
f 240//240 262//262 243//243 
f 242//242 238//238 241//241 
f 243//243 241//241 240//240 
f 245//245 242//242 241//241 
f 241//241 243//243 245//245 
f 262//262 245//245 243//243 
f 244//244 242//242 245//245 
f 270//270 244//244 245//245 
f 246//246 244//244 270//270 
f 158//158 231//231 148//148 
f 247//247 231//231 158//158 
f 194//194 158//158 104//104 
f 194//194 247//247 158//158 
f 247//247 249//249 231//231 
f 248//248 236//236 231//231 
f 231//231 249//249 248//248 
f 247//247 194//194 249//249 
f 194//194 252//252 249//249 
f 248//248 250//250 236//236 
f 252//252 253//253 249//249 
f 250//250 248//248 249//249 
f 253//253 250//250 249//249 
f 236//236 250//250 235//235 
f 257//257 235//235 250//250 
f 258//258 257//257 250//250 
f 251//251 258//258 250//250 
f 254//254 253//253 252//252 
f 253//253 251//251 250//250 
f 254//254 267//267 253//253 
f 253//253 267//267 251//251 
f 255//255 267//267 254//254 
f 267//267 255//255 266//266 
f 235//235 257//257 240//240 
f 259//259 257//257 258//258 
f 257//257 259//259 240//240 
f 258//258 260//260 259//259 
f 258//258 251//251 260//260 
f 259//259 260//260 261//261 
f 245//245 262//262 270//270 
f 263//263 270//270 262//262 
f 240//240 259//259 262//262 
f 261//261 262//262 259//259 
f 262//262 261//261 263//263 
f 261//261 264//264 263//263 
f 260//260 264//264 261//261 
f 268//268 263//263 264//264 
f 265//265 255//255 256//256 
f 265//265 266//266 255//255 
f 265//265 216//216 223//223 
f 251//251 267//267 260//260 
f 267//267 266//266 260//260 
f 223//223 269//269 265//265 
f 269//269 222//222 268//268 
f 221//221 268//268 222//222 
f 269//269 223//223 222//222 
f 266//266 269//269 260//260 
f 260//260 269//269 264//264 
f 265//265 269//269 266//266 
f 269//269 268//268 264//264 
f 271//271 246//246 270//270 
f 271//271 228//228 246//246 
f 229//229 228//228 271//271 
f 271//271 270//270 263//263 
f 229//229 271//271 221//221 
f 263//263 268//268 271//271 
f 221//221 271//271 268//268 
f 55//55 272//272 74//74 
f 272//272 64//64 74//74 
f 64//64 272//272 54//54 
f 272//272 55//55 54//54 
f 175//175 273//273 180//180 
f 273//273 182//182 180//180 
f 182//182 273//273 177//177 
f 273//273 175//175 177//177 
f 40//40 274//274 38//38 
f 274//274 42//42 38//38 
f 42//42 274//274 23//23 
f 274//274 40//40 23//23 
f 33//33 12//12 275//275 
f 12//12 32//32 275//275 
f 32//32 33//33 275//275 
